﻿
DisplayName "Witch Hunt Village"



EVENT   1
 PAGE   1
  250(bytes(0x04,0x08,0x6f,0x3a,0x0c,0x52,0x50,0x47,0x3a,0x3a,0x53,0x45,0x08,0x3a,0x0a,0x40,0x6e,0x61,0x6d,0x65,0x49,0x22,0x09,0x4d,0x6f,0x76,0x65,0x06,0x3a,0x06,0x45,0x54,0x3a,0x0b,0x40,0x70,0x69,0x74,0x63,0x68,0x69,0x69,0x3a,0x0c,0x40,0x76,0x6f,0x6c,0x75,0x6d,0x65,0x69,0x55))
  TeleportPlayer(0,2,47,294,0,0)
  0()



EVENT   2
 PAGE   1
  250(bytes(0x04,0x08,0x6f,0x3a,0x0c,0x52,0x50,0x47,0x3a,0x3a,0x53,0x45,0x08,0x3a,0x0a,0x40,0x6e,0x61,0x6d,0x65,0x49,0x22,0x09,0x4d,0x6f,0x76,0x65,0x06,0x3a,0x06,0x45,0x54,0x3a,0x0b,0x40,0x70,0x69,0x74,0x63,0x68,0x69,0x69,0x3a,0x0c,0x40,0x76,0x6f,0x6c,0x75,0x6d,0x65,0x69,0x55))
  TeleportPlayer(0,2,47,294,0,0)
  0()



EVENT   3
 PAGE   1
  250(bytes(0x04,0x08,0x6f,0x3a,0x0c,0x52,0x50,0x47,0x3a,0x3a,0x53,0x45,0x08,0x3a,0x0a,0x40,0x6e,0x61,0x6d,0x65,0x49,0x22,0x09,0x4d,0x6f,0x76,0x65,0x06,0x3a,0x06,0x45,0x54,0x3a,0x0b,0x40,0x70,0x69,0x74,0x63,0x68,0x69,0x69,0x3a,0x0c,0x40,0x76,0x6f,0x6c,0x75,0x6d,0x65,0x69,0x55))
  TeleportPlayer(0,2,48,294,0,0)
  0()



EVENT   4
 PAGE   1
  250(bytes(0x04,0x08,0x6f,0x3a,0x0c,0x52,0x50,0x47,0x3a,0x3a,0x53,0x45,0x08,0x3a,0x0a,0x40,0x6e,0x61,0x6d,0x65,0x49,0x22,0x09,0x4d,0x6f,0x76,0x65,0x06,0x3a,0x06,0x45,0x54,0x3a,0x0b,0x40,0x70,0x69,0x74,0x63,0x68,0x69,0x69,0x3a,0x0c,0x40,0x76,0x6f,0x6c,0x75,0x6d,0x65,0x69,0x55))
  TeleportPlayer(0,226,12,74,0,0)
  0()



EVENT   5
 PAGE   1
  250(bytes(0x04,0x08,0x6f,0x3a,0x0c,0x52,0x50,0x47,0x3a,0x3a,0x53,0x45,0x08,0x3a,0x0a,0x40,0x6e,0x61,0x6d,0x65,0x49,0x22,0x09,0x4d,0x6f,0x76,0x65,0x06,0x3a,0x06,0x45,0x54,0x3a,0x0b,0x40,0x70,0x69,0x74,0x63,0x68,0x69,0x69,0x3a,0x0c,0x40,0x76,0x6f,0x6c,0x75,0x6d,0x65,0x69,0x55))
  TeleportPlayer(0,226,11,98,0,0)
  0()



EVENT   6
 PAGE   1
  250(bytes(0x04,0x08,0x6f,0x3a,0x0c,0x52,0x50,0x47,0x3a,0x3a,0x53,0x45,0x08,0x3a,0x0a,0x40,0x6e,0x61,0x6d,0x65,0x49,0x22,0x09,0x4d,0x6f,0x76,0x65,0x06,0x3a,0x06,0x45,0x54,0x3a,0x0b,0x40,0x70,0x69,0x74,0x63,0x68,0x69,0x69,0x3a,0x0c,0x40,0x76,0x6f,0x6c,0x75,0x6d,0x65,0x69,0x55))
  TeleportPlayer(0,226,28,98,0,0)
  0()



EVENT   9
 PAGE   1
  250(bytes(0x04,0x08,0x6f,0x3a,0x0c,0x52,0x50,0x47,0x3a,0x3a,0x53,0x45,0x08,0x3a,0x0a,0x40,0x6e,0x61,0x6d,0x65,0x49,0x22,0x09,0x4d,0x6f,0x76,0x65,0x06,0x3a,0x06,0x45,0x54,0x3a,0x0b,0x40,0x70,0x69,0x74,0x63,0x68,0x69,0x69,0x3a,0x0c,0x40,0x76,0x6f,0x6c,0x75,0x6d,0x65,0x69,0x55))
  TeleportPlayer(0,226,13,45,0,0)
  0()



EVENT   10
 PAGE   1
  250(bytes(0x04,0x08,0x6f,0x3a,0x0c,0x52,0x50,0x47,0x3a,0x3a,0x53,0x45,0x08,0x3a,0x0a,0x40,0x6e,0x61,0x6d,0x65,0x49,0x22,0x09,0x4d,0x6f,0x76,0x65,0x06,0x3a,0x06,0x45,0x54,0x3a,0x0b,0x40,0x70,0x69,0x74,0x63,0x68,0x69,0x69,0x3a,0x0c,0x40,0x76,0x6f,0x6c,0x75,0x6d,0x65,0x69,0x55))
  TeleportPlayer(0,226,57,18,0,0)
  0()



EVENT   11
 PAGE   1
  ShowMessageFace("",0,0,2,1)
  ShowMessage("Luka leaves his party members outside and enters the house alone...")
  216(1)
  250(bytes(0x04,0x08,0x6f,0x3a,0x0c,0x52,0x50,0x47,0x3a,0x3a,0x53,0x45,0x08,0x3a,0x0a,0x40,0x6e,0x61,0x6d,0x65,0x49,0x22,0x09,0x4d,0x6f,0x76,0x65,0x06,0x3a,0x06,0x45,0x54,0x3a,0x0b,0x40,0x70,0x69,0x74,0x63,0x68,0x69,0x69,0x3a,0x0c,0x40,0x76,0x6f,0x6c,0x75,0x6d,0x65,0x69,0x55))
  TeleportPlayer(0,226,62,42,0,0)
  0()



EVENT   12
 PAGE   1
  250(bytes(0x04,0x08,0x6f,0x3a,0x0c,0x52,0x50,0x47,0x3a,0x3a,0x53,0x45,0x08,0x3a,0x0a,0x40,0x6e,0x61,0x6d,0x65,0x49,0x22,0x09,0x4d,0x6f,0x76,0x65,0x06,0x3a,0x06,0x45,0x54,0x3a,0x0b,0x40,0x70,0x69,0x74,0x63,0x68,0x69,0x69,0x3a,0x0c,0x40,0x76,0x6f,0x6c,0x75,0x6d,0x65,0x69,0x55))
  TeleportPlayer(0,226,64,65,0,0)
  0()



EVENT   7
 PAGE   1
  If(1,1029,0,0,0)
   ShowMessageFace("",0,0,2,1)
   ShowMessage("扉はかたく閉ざされている……")
   EndEventProcessing()
   0()
  EndIf()
  ChangeSwitch(221,221,0)
  ChangeSwitch(100,100,0)
  250(bytes(0x04,0x08,0x6f,0x3a,0x0c,0x52,0x50,0x47,0x3a,0x3a,0x53,0x45,0x08,0x3a,0x0a,0x40,0x6e,0x61,0x6d,0x65,0x49,0x22,0x0a,0x4f,0x70,0x65,0x6e,0x31,0x06,0x3a,0x06,0x45,0x54,0x3a,0x0b,0x40,0x70,0x69,0x74,0x63,0x68,0x69,0x69,0x3a,0x0c,0x40,0x76,0x6f,0x6c,0x75,0x6d,0x65,0x69,0x55))
  205(0,bytes(0x04,0x08,0x6f,0x3a,0x13,0x52,0x50,0x47,0x3a,0x3a,0x4d,0x6f,0x76,0x65,0x52,0x6f,0x75,0x74,0x65,0x09,0x3a,0x0c,0x40,0x72,0x65,0x70,0x65,0x61,0x74,0x46,0x3a,0x0f,0x40,0x73,0x6b,0x69,0x70,0x70,0x61,0x62,0x6c,0x65,0x46,0x3a,0x0a,0x40,0x77,0x61,0x69,0x74,0x54,0x3a,0x0a,0x40,0x6c,0x69,0x73,0x74,0x5b,0x0c,0x6f,0x3a,0x15,0x52,0x50,0x47,0x3a,0x3a,0x4d,0x6f,0x76,0x65,0x43,0x6f,0x6d,0x6d,0x61,0x6e,0x64,0x07,0x3a,0x0a,0x40,0x63,0x6f,0x64,0x65,0x69,0x16,0x3a,0x10,0x40,0x70,0x61,0x72,0x61,0x6d,0x65,0x74,0x65,0x72,0x73,0x5b,0x00,0x6f,0x3b,0x0a,0x07,0x3b,0x0b,0x69,0x14,0x3b,0x0c,0x5b,0x06,0x69,0x08,0x6f,0x3b,0x0a,0x07,0x3b,0x0b,0x69,0x17,0x3b,0x0c,0x5b,0x00,0x6f,0x3b,0x0a,0x07,0x3b,0x0b,0x69,0x14,0x3b,0x0c,0x5b,0x06,0x69,0x08,0x6f,0x3b,0x0a,0x07,0x3b,0x0b,0x69,0x18,0x3b,0x0c,0x5b,0x00,0x6f,0x3b,0x0a,0x07,0x3b,0x0b,0x69,0x2a,0x3b,0x0c,0x5b,0x00,0x6f,0x3b,0x0a,0x07,0x3b,0x0b,0x69,0x00,0x3b,0x0c,0x5b,0x00))
  205(-1,bytes(0x04,0x08,0x6f,0x3a,0x13,0x52,0x50,0x47,0x3a,0x3a,0x4d,0x6f,0x76,0x65,0x52,0x6f,0x75,0x74,0x65,0x09,0x3a,0x0c,0x40,0x72,0x65,0x70,0x65,0x61,0x74,0x46,0x3a,0x0f,0x40,0x73,0x6b,0x69,0x70,0x70,0x61,0x62,0x6c,0x65,0x54,0x3a,0x0a,0x40,0x77,0x61,0x69,0x74,0x54,0x3a,0x0a,0x40,0x6c,0x69,0x73,0x74,0x5b,0x07,0x6f,0x3a,0x15,0x52,0x50,0x47,0x3a,0x3a,0x4d,0x6f,0x76,0x65,0x43,0x6f,0x6d,0x6d,0x61,0x6e,0x64,0x07,0x3a,0x0a,0x40,0x63,0x6f,0x64,0x65,0x69,0x11,0x3a,0x10,0x40,0x70,0x61,0x72,0x61,0x6d,0x65,0x74,0x65,0x72,0x73,0x5b,0x00,0x6f,0x3b,0x0a,0x07,0x3b,0x0b,0x69,0x00,0x3b,0x0c,0x5b,0x00))
  250(bytes(0x04,0x08,0x6f,0x3a,0x0c,0x52,0x50,0x47,0x3a,0x3a,0x53,0x45,0x08,0x3a,0x0a,0x40,0x6e,0x61,0x6d,0x65,0x49,0x22,0x09,0x4d,0x6f,0x76,0x65,0x06,0x3a,0x06,0x45,0x54,0x3a,0x0b,0x40,0x70,0x69,0x74,0x63,0x68,0x69,0x69,0x3a,0x0c,0x40,0x76,0x6f,0x6c,0x75,0x6d,0x65,0x69,0x55))
  281(0)
  TeleportPlayer(0,359,39,38,0,0)
  0()



EVENT   15
 PAGE   1
  If(1,1029,0,0,0)
   TemporaryRemoveEvent()
   0()
  EndIf()
  If(1,1029,0,1,0)
   ChangeVariable(1029,1029,0,0,2)
   ShowMessageFace("sara_fc1",2,0,2,1)
   ShowMessage("\\n<Sara>やっとマギステア村に着いたわね。 とりあえず、領主のリリィに……")
   205(16,bytes(0x04,0x08,0x6f,0x3a,0x13,0x52,0x50,0x47,0x3a,0x3a,0x4d,0x6f,0x76,0x65,0x52,0x6f,0x75,0x74,0x65,0x09,0x3a,0x0c,0x40,0x72,0x65,0x70,0x65,0x61,0x74,0x46,0x3a,0x0f,0x40,0x73,0x6b,0x69,0x70,0x70,0x61,0x62,0x6c,0x65,0x46,0x3a,0x0a,0x40,0x77,0x61,0x69,0x74,0x54,0x3a,0x0a,0x40,0x6c,0x69,0x73,0x74,0x5b,0x08,0x6f,0x3a,0x15,0x52,0x50,0x47,0x3a,0x3a,0x4d,0x6f,0x76,0x65,0x43,0x6f,0x6d,0x6d,0x61,0x6e,0x64,0x07,0x3a,0x0a,0x40,0x63,0x6f,0x64,0x65,0x69,0x07,0x3a,0x10,0x40,0x70,0x61,0x72,0x61,0x6d,0x65,0x74,0x65,0x72,0x73,0x5b,0x00,0x6f,0x3b,0x0a,0x07,0x3b,0x0b,0x69,0x06,0x3b,0x0c,0x5b,0x00,0x6f,0x3b,0x0a,0x07,0x3b,0x0b,0x69,0x00,0x3b,0x0c,0x5b,0x00))
   ShowMessageFace("",0,0,2,2)
   ShowMessage("\\n<Mage>サバサ本国から、サラ様自らがおいでとは…… しかし中央の方々は、我々を誤解されているようです。")
   ShowMessageFace("sara_fc1",4,0,2,3)
   ShowMessage("\\n<Sara>誤解……？")
   ShowMessageFace("",0,0,2,4)
   ShowMessage("\\n<Mage>我々が旧弊的で、人民を抑圧している…… そして、村ぐるみでいかがわしい魔導を研究している……")
   ShowMessageFace("",0,0,2,5)
   ShowMessage("\\n<Mage>それこそ、我々への偏見に過ぎません。 中央の人間は、我々を閉鎖的で旧弊的な存在と見ているのでしょう？")
   ShowMessageFace("",0,0,2,6)
   ShowMessage("\\n<Mage>我々を偏見の目で見ているからこそ、 そうした悪意ある解釈が生まれる……違いますか？")
   ShowMessageFace("sara_fc1",2,0,2,7)
   ShowMessage("\\n<Sara>偏見かどうかは、しょせん水掛け論だわ。 ゆえに本国は、信仰や思想、因習の領域は問題にしない。")
   ShowMessageFace("sara_fc1",2,0,2,8)
   ShowMessage("\\n<Sara>こちらは、法に基づいて厳正に対処するのみ。 問題点は、市民の弾圧や武力衝突があった点よ。")
   ShowMessageFace("",0,0,2,9)
   ShowMessage("\\n<Mage>ならば、厳正な調査が必要でしょう。 あなた達の目で、この村を見回って下さい。")
   ShowMessageFace("",0,0,2,10)
   ShowMessage("\\n<Mage>そして領民の声を、偏見なく聞いて下さい。 そうすれば、リリィ様は間違っていないと理解されるはずです。")
   ShowMessageFace("sara_fc1",0,0,2,11)
   ShowMessage("\\n<Sara>……それでは、村内を視察するわ。 それからリリィに面会するけど、それでいいわね。")
   ShowMessageFace("",0,0,2,12)
   ShowMessage("\\n<Mage>こちらも全面的に協力致します。 どうか、公正なるご判断を……")
   205(16,bytes(0x04,0x08,0x6f,0x3a,0x13,0x52,0x50,0x47,0x3a,0x3a,0x4d,0x6f,0x76,0x65,0x52,0x6f,0x75,0x74,0x65,0x09,0x3a,0x0c,0x40,0x72,0x65,0x70,0x65,0x61,0x74,0x46,0x3a,0x0f,0x40,0x73,0x6b,0x69,0x70,0x70,0x61,0x62,0x6c,0x65,0x46,0x3a,0x0a,0x40,0x77,0x61,0x69,0x74,0x54,0x3a,0x0a,0x40,0x6c,0x69,0x73,0x74,0x5b,0x09,0x6f,0x3a,0x15,0x52,0x50,0x47,0x3a,0x3a,0x4d,0x6f,0x76,0x65,0x43,0x6f,0x6d,0x6d,0x61,0x6e,0x64,0x07,0x3a,0x0a,0x40,0x63,0x6f,0x64,0x65,0x69,0x09,0x3a,0x10,0x40,0x70,0x61,0x72,0x61,0x6d,0x65,0x74,0x65,0x72,0x73,0x5b,0x00,0x6f,0x3b,0x0a,0x07,0x3b,0x0b,0x69,0x08,0x3b,0x0c,0x5b,0x00,0x6f,0x3b,0x0a,0x07,0x3b,0x0b,0x69,0x16,0x3b,0x0c,0x5b,0x00,0x6f,0x3b,0x0a,0x07,0x3b,0x0b,0x69,0x00,0x3b,0x0c,0x5b,0x00))
   If(0,4,0)
    ShowMessageFace("alice_fc5",0,0,2,13)
    ShowMessage("\\n<Alice>やれやれ、面倒そうな話になりそうだな…… 悪党を叩きのめして解決、という訳にはいかんようだ。")
    0()
   EndIf()
   If(0,5,0)
    ShowMessageFace("iriasu_fc4",2,0,2,14)
    ShowMessage("\\n<Ilias>ずいぶん面倒な話ですね…… リリィを叩きのめして解決でいいではありませんか？")
    0()
   EndIf()
   If(4,129,0)
    ShowMessageFace("brunhild_fc1",0,0,2,15)
    ShowMessage("\\n<Hild>やっつけないの……？ じゃあヒルデ、出番なし……")
    0()
   EndIf()
   If(4,79,0)
    ShowMessageFace("nuruko_fc1",0,0,2,16)
    ShowMessage("\\n<Nuruko>きゅ……")
    0()
   EndIf()
   ShowMessageFace("sara_fc1",0,0,2,17)
   ShowMessage("\\n<Sara>今の魔導師の話は、どこまで信用できるか分からないけど…… 旧弊的領主と反対派の対立っていう、単純な構図じゃないわ。")
   ShowMessageFace("sara_fc1",0,0,2,18)
   ShowMessage("\\n<Sara>彼女の支持層は、予想以上に厚い…… そうなると、領主を排除しただけじゃ問題は解決しないかも。")
   If(0,6,0)
    ShowMessageFace("sonia_fc2",2,0,2,19)
    ShowMessage("\\n<Sonya>また新たな後継者が出て、問題の繰り返しになっちゃう…… 根元からどうにかしなきゃいけないって事ね。")
    0()
   Else()
    ShowMessageFace("ruka_fc1",0,0,2,20)
    ShowMessage("\\n<Luka>また新たな後継者が出て、問題の繰り返しになる…… 根元からどうにかしなきゃいけないって事だね。")
    0()
   EndIf()
   If(0,4,0)
    ShowMessageFace("alice_fc5",0,0,2,21)
    ShowMessage("\\n<Alice>こういう問題は、結局は住民の心から生じたもの。 特定の個人より、彼女らが共有する根の部分を探らねば。")
    ShowMessageFace("alice_fc5",3,0,2,22)
    ShowMessage("\\n<Alice>しかし、心の問題ゆえ……解決には時間を要する。 中央政府側も、忍耐と根気をもって臨まねばなるまい。")
    ShowMessageFace("sara_fc1",3,0,2,23)
    ShowMessage("\\n<Sara>やけに為政者寄りの考え方をするのね…… 帝王学か何か、学んでるの？")
    ShowMessageFace("alice_fc5",1,0,2,24)
    ShowMessage("\\n<Alice>当然だ、余は魔王だぞ。 どこぞの毛玉に心得くらい叩き込まれたわ。")
    0()
   EndIf()
   If(0,5,0)
    ShowMessageFace("iriasu_fc4",0,0,2,25)
    ShowMessage("\\n<Ilias>後継者が出たなら、その者を滅ぼすまで。 根こそぎ消滅させれば、問題は完全に解決します。")
    ShowMessageFace("sara_fc1",4,0,2,26)
    ShowMessage("\\n<Sara>あなたが王様だったら、粛正が横行しそうね…… 恐怖政治の国になっちゃいそう。")
    ShowMessageFace("iriasu_fc4",5,0,2,27)
    ShowMessage("\\n<Ilias>なっ……！？")
    0()
   EndIf()
   ShowMessageFace("",0,0,2,28)
   ShowMessage("ともかく、まずは色々な人に話を聞いてみよう。 それから領主リリィのところに行ってみようか――")
   EndEventProcessing()
   0()
  EndIf()
  0()
 PAGE   2
  // condition: variable 1029 >= 2
  0()



EVENT   18
 PAGE   1
  ShowMessageFace("",0,0,2,1)
  ShowMessage("\\n<Mage>この村に教会なんてないわ…… だって神は、私達を助けてくれなかったもの。")
  ShowMessageFace("",0,0,2,2)
  ShowMessage("\\n<Mage>私達を救い、導いて下さったのはリリィ様…… あの方こそ、我々の救い主なのよ。")
  355("actor_label_jump")
  EndEventProcessing()
  DefineLabel("121")
  ShowMessageFace("page65537_fc1",2,0,2,3)
  ShowMessage("\\n<Cornelia>この村では、イリアス信仰は拠り所にならなかったのですね。 娘達が必要としていたのは、物理的な形での救いだった……")
  EndEventProcessing()
  DefineLabel("531")
  ShowMessageFace("saniria_fc2",0,0,2,4)
  ShowMessage("\\n<King of San Ilia>なんと無力な事よ…… 我々こそが、力になるべきだったというのに。")
  EndEventProcessing()
  0()



EVENT   13
 PAGE   1
  ShowMessageFace("",0,0,2,1)
  ShowMessage("\\n<Mage>少し前まで、この村では魔女が弾圧されてきたわ。 事実上、女への迫害ね……")
  ShowMessageFace("",0,0,2,2)
  ShowMessage("\\n<Mage>男達は因習やら何やらで女への暴力や陵辱を正当化し…… 長年に渡り、虐待を繰り返してきた……")
  ShowMessageFace("",0,0,2,3)
  ShowMessage("\\n<Mage>そんな日々から私達を救って下さったのが、領主の娘だったリリィ様。 皆に蝕魔導の力を与え、現状を打破する力を授けて下さったのよ。")
  355("actor_label_jump")
  EndEventProcessing()
  DefineLabel("72")
  ShowMessageFace("phoenix_fc1",3,0,2,4)
  ShowMessage("\\n<Mini>ひどい村なのだ……ドンよりひどいぞ。")
  EndEventProcessing()
  DefineLabel("118")
  ShowMessageFace("meia_fc1",3,0,2,5)
  ShowMessage("\\n<Meia>じゃあ、リリィがいなければ今も……")
  EndEventProcessing()
  DefineLabel("529")
  ShowMessageFace("sara_fc1",4,0,2,6)
  ShowMessage("\\n<Sara>……………………")
  EndEventProcessing()
  0()
 PAGE   2
  // condition: variable 1029 >= 5
  If(0,2097,0)
   ShowMessageFace("",0,0,2,1)
   ShowMessage("\\n<Mage>リリィ様、旅に出てしまうのね。 分かっているわ、村の外にも救いが必要な弱者がいるはずだから……")
   355("actor_label_jump")
   EndEventProcessing()
   DefineLabel("163")
   ShowMessageFace("lily_fc1",3,0,2,2)
   ShowMessage("\\n<Lily>あなた達は、十分に強いわ。 私が村を空けている間も、十分にやっていけるはずよ……")
   EndEventProcessing()
   0()
  EndIf()
  If(0,2096,0)
   ShowMessageFace("",0,0,2,3)
   ShowMessage("\\n<Mage>なぜ、リリィ様を……")
   EndEventProcessing()
   0()
  EndIf()
  0()



EVENT   14
 PAGE   1
  PictureDisplay(5,"80_wormv_st02",0,0,0,0,100,100,0,0)
  PictureMove(5,null,0,0,0,0,100,100,255,0,30,true)
  ShowMessageFace("wormv_fc1",1,0,2,1)
  ShowMessage("\\n<Village Woman>おや、旅の方ですね…… 何もない村ですが、ゆっくりしていって下さい。")
  If(1,1029,0,2,2)
   If(0,6,0)
    ShowMessageFace("sonia_fc3",7,0,2,2)
    ShowMessage("\\n<Sonya>そ、その腕は……？")
    0()
   Else()
    ShowMessageFace("ruka_fc1",0,0,2,3)
    ShowMessage("\\n<Luka>そ、その腕は……？")
    0()
   EndIf()
   ShowMessageFace("wormv_fc1",1,0,2,4)
   ShowMessage("\\n<Village Woman>うふふっ……リリィ様にお力を頂いた証です。 リリィ様には感謝しておりますわ……")
   355("actor_label_jump")
   PictureClear(5)
   EndEventProcessing()
   DefineLabel("96")
   ShowMessageFace("delh_b_fc1",0,0,2,5)
   ShowMessage("\\n<Marion>私の触手召喚と似ているわね。 己の肉体を媒介に触手を宿す魔導を、人間がやるなんて……")
   PictureClear(5)
   EndEventProcessing()
   DefineLabel("116")
   ShowMessageFace("iso_fc1",0,0,2,6)
   ShowMessage("\\n<Isabelle>触手持ちの人間なんて、珍しいわね……")
   PictureClear(5)
   EndEventProcessing()
   0()
  EndIf()
  PictureClear(5)
  0()
 PAGE   2
  // condition: variable 1029 >= 5
  PictureDisplay(5,"80_wormv_st02",0,0,0,0,100,100,0,0)
  PictureMove(5,null,0,0,0,0,100,100,255,0,30,true)
  If(0,2097,0)
   ShowMessageFace("wormv_fc1",1,0,2,1)
   ShowMessage("\\n<Village Woman>あなたのおかげで、反対派も壊滅しました。 心よりお礼申し上げます……")
   PictureClear(5)
   EndEventProcessing()
   0()
  EndIf()
  If(0,2096,0)
   ShowMessageFace("wormv_fc1",2,0,2,2)
   ShowMessage("\\n<Village Woman>村ぐるみでリリィ様の看病をしております。 あの方は、村に必要な方なのです……")
   355("actor_label_jump")
   PictureClear(5)
   EndEventProcessing()
   DefineLabel("167")
   ShowMessageFace("lusia_fc1",2,0,2,3)
   ShowMessage("\\n<Lucia>リリィには、これまで通り村の者達の希望であってほしい…… 今後は、蝕魔導の力に頼る事なく。")
   PictureClear(5)
   EndEventProcessing()
   0()
  EndIf()
  0()



EVENT   17
 PAGE   1
  ShowMessageFace("",0,0,2,1)
  ShowMessage("\\n<Old Man>長い間、ここの女性達を苦しめてきた男達がどうなったか…… それは、言うまでもあるまい。")
  ShowMessageFace("",0,0,2,2)
  ShowMessage("\\n<Old Man>残っている男は、弾圧の時代から彼女達に同情的だった者のみじゃ。 それについて、儂はなんとも言えんよ……")
  ShowMessageFace("",0,0,2,3)
  ShowMessage("\\n<Old Man>長い間、この村は怨恨の種を女性達に植え続けてきた…… それが実ってしまっただけの話じゃ……")
  355("actor_label_jump")
  EndEventProcessing()
  DefineLabel("74")
  ShowMessageFace("usagi_fc1",4,0,2,4)
  ShowMessage("\\n<Barnny>ひどい話よね……")
  EndEventProcessing()
  DefineLabel("75")
  ShowMessageFace("hituzi_fc1",2,0,2,5)
  ShowMessage("\\n<Mary>珍しく、酔いも醒めてしまった……")
  EndEventProcessing()
  DefineLabel("163")
  ShowMessageFace("lily_fc1",3,0,2,6)
  ShowMessage("\\n<Lily>もう、終わった話よ…… そして、世界中のどこでも繰り返させない……")
  EndEventProcessing()
  DefineLabel("167")
  ShowMessageFace("lusia_fc1",2,0,2,7)
  ShowMessage("\\n<Lucia>逆転した秩序が、悲劇を生んだ…… それをもたらしたのが、蝕魔導なのです。")
  EndEventProcessing()
  0()



EVENT   19
 PAGE   1
  ShowMessageFace("",0,0,2,1)
  ShowMessage("\\n<Girl>あたしも今度、リリィ様に力をもらうんだー！")
  355("actor_label_jump")
  EndEventProcessing()
  DefineLabel("88")
  ShowMessageFace("jack_fc1",0,0,2,2)
  ShowMessage("\\n<Pumpkin>触手生えるんでしょ？ よく考えた方がいいよ……")
  EndEventProcessing()
  DefineLabel("98")
  ShowMessageFace("minikani_fc1",2,0,2,3)
  ShowMessage("\\n<Amy>やめときなよ、触手とかキモいよ……")
  EndEventProcessing()
  0()
 PAGE   2
  // condition: variable 1029 >= 5
  If(0,2097,0)
   ShowMessageFace("",0,0,2,1)
   ShowMessage("\\n<Girl>リリィ様、しばらく忙しいんだって。 いつになったら、力をもらえるのかな……？")
   EndEventProcessing()
   0()
  EndIf()
  If(0,2096,0)
   ShowMessageFace("",0,0,2,2)
   ShowMessage("\\n<Girl>蝕魔導は、もうダメなんだって…… あたし、力をもらえないの？")
   355("actor_label_jump")
   EndEventProcessing()
   DefineLabel("141")
   ShowMessageFace("mino_fc1",0,0,2,3)
   ShowMessage("\\n<Mina>そんな魔導に頼らず、体を鍛えろ！ 肉を食え、肉！")
   EndEventProcessing()
   0()
  EndIf()
  0()



EVENT   20
 PAGE   1
  ShowMessageFace("",0,0,2,1)
  ShowMessage("\\n<Village Woman>リリィ様のお屋敷は、この村の最北です。 この道をまっすぐ北に行けば、辿り着きますよ。")
  0()
 PAGE   2
  // condition: variable 1029 >= 6
  If(0,2097,0)
   ShowMessageFace("",0,0,2,1)
   ShowMessage("\\n<Village Woman>リリィ様のお屋敷は、この村の最北です。 今は旅に出られ、ご不在ですが……")
   355("actor_label_jump")
   EndEventProcessing()
   DefineLabel("163")
   ShowMessageFace("lily_fc1",3,0,2,2)
   ShowMessage("\\n<Lily>ふふっ、ここにいるわよ。 屋敷の管理もよろしく、中には色々いるから……")
   ShowMessageFace("",0,0,2,3)
   ShowMessage("\\n<Village Woman>お任せ下さい。 村の者達が、交代で管理しておりますので……")
   EndEventProcessing()
   0()
  EndIf()
  If(0,2096,0)
   ShowMessageFace("",0,0,2,4)
   ShowMessage("\\n<Village Woman>リリィ様のお屋敷は、この村の最北です。 しかしリリィ様は、ずっと伏せっておられますが……")
   EndEventProcessing()
   0()
  EndIf()
  0()



EVENT   21
 PAGE   1
  ShowMessageFace("",0,0,2,1)
  ShowMessage("\\n<Mage>世界には、私達のように虐げられた者達がいるはずよ。 そういう者達を救うのが、我々の使命なの。")
  ShowMessageFace("",0,0,2,2)
  ShowMessage("\\n<Mage>虐げられた者に、それを打破する力を…… リリィ様は、この蝕魔導の力を世界に広げるおつもりよ。")
  355("actor_label_jump")
  EndEventProcessing()
  DefineLabel("62")
  ShowMessageFace("gob_fc1",3,0,2,3)
  ShowMessage("\\n<Gob>世界に広げるの？ みんな、触手腕になったらイヤだなぁ……")
  EndEventProcessing()
  DefineLabel("82")
  ShowMessageFace("suzume_fc1",3,0,2,4)
  ShowMessage("\\n<Chirp>あたしも強くなりたいですけど、触手の腕はちょっと……")
  EndEventProcessing()
  DefineLabel("163")
  ShowMessageFace("lily_fc1",3,0,2,5)
  ShowMessage("\\n<Lily>あなた達には、村の守りを任せたわよ……")
  ShowMessageFace("",0,0,2,6)
  ShowMessage("\\n<Mage>ええ、お帰りをお待ちしています。")
  EndEventProcessing()
  0()
 PAGE   2
  // condition: variable 1029 >= 5
  If(0,2097,0)
   ShowMessageFace("",0,0,2,1)
   ShowMessage("\\n<Mage>いよいよ、蝕魔導を世界に広げる時が来たわ。 リリィ様に続いて、私も旅に出るつもりよ。")
   EndEventProcessing()
   0()
  EndIf()
  If(0,2096,0)
   ShowMessageFace("",0,0,2,2)
   ShowMessage("\\n<Mage>我々の宿願が、断たれてしまうなんて…… 虐げられた者達を、救わなければないのに……")
   355("actor_label_jump")
   EndEventProcessing()
   DefineLabel("167")
   ShowMessageFace("lusia_fc1",2,0,2,3)
   ShowMessage("\\n<Lucia>大殺戮によるやましさを救済者願望で塗り込めたのは、 決してリリィだけではないのですよ……")
   ShowMessageFace("lusia_fc1",2,0,2,4)
   ShowMessage("\\n<Lucia>自分達のやった事に、正面から向き合う必要があるのです。 無論、私自身も含めて……")
   EndEventProcessing()
   0()
  EndIf()
  0()



EVENT   23
 PAGE   1
  ShowMessageFace("",0,0,2,1)
  ShowMessage("\\n<Mage>魔導師だって、畑ぐらい耕すわ…… 意外だったかしら？")
  355("actor_label_jump")
  EndEventProcessing()
  DefineLabel("61")
  ShowMessageFace("mimizu_fc1",0,0,2,2)
  ShowMessage("\\n<Mimi>ほりほり、あなほり……")
  ShowMessageFace("mdg_fc1",0,0,2,3)
  ShowMessage("\\n<Mandragora Girl>魔女に呼ばれてこんにちは。 畑荒らしには、きつ～い一発を……")
  ShowMessageFace("mdg_fc1",2,0,2,4)
  ShowMessage("\\n<Mandragora Girl>あ　あ　あ　あ　あ　あ　あ　！　！　！")
  ShowMessageFace("mimizu_fc1",2,0,2,5)
  ShowMessage("\\n<Mimi>イヤー！")
  250(bytes(0x04,0x08,0x6f,0x3a,0x0c,0x52,0x50,0x47,0x3a,0x3a,0x53,0x45,0x08,0x3a,0x0a,0x40,0x6e,0x61,0x6d,0x65,0x49,0x22,0x0e,0x50,0x61,0x72,0x61,0x6c,0x79,0x7a,0x65,0x33,0x06,0x3a,0x06,0x45,0x54,0x3a,0x0b,0x40,0x70,0x69,0x74,0x63,0x68,0x69,0x69,0x3a,0x0c,0x40,0x76,0x6f,0x6c,0x75,0x6d,0x65,0x69,0x55))
  ShowMessageFace("",0,0,2,6)
  ShowMessage("ミミーは麻痺してしまった！")
  EndEventProcessing()
  DefineLabel("119")
  ShowMessageFace("page17_fc1",0,0,2,7)
  ShowMessage("\\n<Annie>魔女とて、霞を食べて生きているわけではなかろう……")
  EndEventProcessing()
  0()



EVENT   24
 PAGE   1
  ShowMessageFace("",0,0,2,1)
  ShowMessage("\\n<Guard>この村では、ひとえに法に則り職務を遂行してきました。 それゆえ、虐待に荷担しなかった者とみなされたのでしょう。")
  ShowMessageFace("",0,0,2,2)
  ShowMessage("\\n<Guard>しかし私は、法の限界を感じております。 現に法は、彼女達を……そして男達自身をも救えませんでした。")
  355("actor_label_jump")
  EndEventProcessing()
  DefineLabel("529")
  ShowMessageFace("sara_fc1",4,0,2,3)
  ShowMessage("\\n<Sara>完全な法なんてこの世に存在しないわ。 それでも私達は、法を遵守しなければならないの……")
  EndEventProcessing()
  DefineLabel("531")
  ShowMessageFace("saniria_fc2",0,0,2,4)
  ShowMessage("\\n<King of San Ilia>法のために人があるのではない、人のために法があるのだ…… だからこそ、それゆえに法は尊いのだよ。")
  EndEventProcessing()
  0()



EVENT   25
 PAGE   1
  ShowMessageFace("",0,0,2,1)
  ShowMessage("\\n<Village Woman>農作業は好きです。 こうして、ずっと穏やかに暮らしていきたいものです……")
  355("actor_label_jump")
  EndEventProcessing()
  DefineLabel("80")
  ShowMessageFace("orc_fc1",0,0,2,2)
  ShowMessage("\\n<Hip>穏やかな村にオークの群れが！ ……現れるような雰囲気ではなさそうですね。")
  EndEventProcessing()
  DefineLabel("140")
  ShowMessageFace("taran_fc1",0,0,2,3)
  ShowMessage("\\n<Rachura>平穏に生きていければいいのにね……")
  EndEventProcessing()
  0()



EVENT   26
 PAGE   1
  ShowMessageFace("",0,0,2,1)
  ShowMessage("\\n<Youth>リリィの決起以来、この村は魔女が支配するようになった。 もちろん男達がどうなったかを考えれば、何も思わないわけじゃない。")
  ShowMessageFace("",0,0,2,2)
  ShowMessage("\\n<Youth>でも……これ以外に、もうどうにもならなかったんだよ…… 村ぐるみの女達に対する虐待は、普通じゃなかった。")
  ShowMessageFace("",0,0,2,3)
  ShowMessage("\\n<Youth>都会から来た人達には、たぶん分からないよ。 こういう土地の者達が、どれだけの事をやってしまうのか……")
  355("actor_label_jump")
  EndEventProcessing()
  DefineLabel("125")
  ShowMessageFace("grizzly_fc1",2,0,2,4)
  ShowMessage("\\n<Aisha>なんかムカムカしてきたぞ。 思いっきり暴れていいか？")
  EndEventProcessing()
  DefineLabel("145")
  ShowMessageFace("mukade_fc1",2,0,2,5)
  ShowMessage("\\n<Vanessa>醜いものね、私の体より……")
  EndEventProcessing()
  0()



EVENT   27
 PAGE   1
  ShowMessageFace("",0,0,2,1)
  ShowMessage("\\n<Cow>モ～！")
  355("actor_label_jump")
  EndEventProcessing()
  DefineLabel("92")
  ShowMessageFace("eater_fc1",3,0,2,2)
  ShowMessage("\\n<Eater>おいしそう……")
  EndEventProcessing()
  DefineLabel("139")
  ShowMessageFace("fairys_fc1",3,0,2,3)
  ShowMessage("\\n<Fairies>わ～い、うしさんだ～♪")
  EndEventProcessing()
  DefineLabel("156")
  ShowMessageFace("d_fighter_fc1",3,0,2,4)
  ShowMessage("\\n<Regina>いやらしいわね、よだれなんか垂らして……")
  EndEventProcessing()
  0()



EVENT   28
 PAGE   1
  ShowMessageFace("",0,0,2,1)
  ShowMessage("\\n<Cow>モ～！")
  355("actor_label_jump")
  EndEventProcessing()
  DefineLabel("92")
  ShowMessageFace("eater_fc1",3,0,2,2)
  ShowMessage("\\n<Eater>おいしそう……")
  EndEventProcessing()
  DefineLabel("139")
  ShowMessageFace("fairys_fc1",3,0,2,3)
  ShowMessage("\\n<Fairies>わ～い、うしさんだ～♪")
  EndEventProcessing()
  DefineLabel("156")
  ShowMessageFace("d_fighter_fc1",3,0,2,4)
  ShowMessage("\\n<Regina>いやらしいわね、よだれなんか垂らして……")
  EndEventProcessing()
  0()



EVENT   29
 PAGE   1
  ShowMessageFace("",0,0,2,1)
  ShowMessage("\\n<Cow>モ～！")
  355("actor_label_jump")
  EndEventProcessing()
  DefineLabel("92")
  ShowMessageFace("eater_fc1",3,0,2,2)
  ShowMessage("\\n<Eater>おいしそう……")
  EndEventProcessing()
  DefineLabel("139")
  ShowMessageFace("fairys_fc1",3,0,2,3)
  ShowMessage("\\n<Fairies>わ～い、うしさんだ～♪")
  EndEventProcessing()
  DefineLabel("156")
  ShowMessageFace("d_fighter_fc1",3,0,2,4)
  ShowMessage("\\n<Regina>いやらしいわね、よだれなんか垂らして……")
  EndEventProcessing()
  0()



EVENT   30
 PAGE   1
  ShowMessageFace("",0,0,2,1)
  ShowMessage("\\n<Old Man>この村に、本当に強い者は誰もいなかった。 それだけじゃよ……")
  355("actor_label_jump")
  EndEventProcessing()
  DefineLabel("12")
  ShowMessageFace("sylph_fc1",1,0,2,2)
  ShowMessage("\\n<Sylph>強さって、なんだろうね……")
  EndEventProcessing()
  DefineLabel("141")
  ShowMessageFace("mino_fc1",0,0,2,3)
  ShowMessage("\\n<Mina>強さってのは、この筋肉の事だぜ！！")
  ShowMessageFace("mino_fc1",2,0,2,4)
  ShowMessage("\\n<Mina>……って思ってたけど、分かんなくなってきたぜ。 頭使って腹減ったから、牛丼でも食べるか。")
  EndEventProcessing()
  0()



EVENT   31
 PAGE   1
  ShowMessageFace("",0,0,2,1)
  ShowMessage("\\n<Mage>反対派の連中も、大部分が魔導師よ。 この村を、リリィの支配から解き放つのだとか……")
  ShowMessageFace("",0,0,2,2)
  ShowMessage("\\n<Mage>ふん、勘違いの独りよがりもはなはだしいわ。 私達は、因習を打破して下さったリリィ様に心から従っているのよ。")
  355("actor_label_jump")
  EndEventProcessing()
  DefineLabel("62")
  ShowMessageFace("gob_fc1",0,0,2,3)
  ShowMessage("\\n<Gob>リリィを慕ってる人も多いみたいだね。 悪者じゃないのかな……？")
  EndEventProcessing()
  DefineLabel("156")
  ShowMessageFace("d_fighter_fc1",0,0,2,4)
  ShowMessage("\\n<Regina>リリィとやら、ずいぶん評価が高いわね。 単なる悪党とは違うのかしら？")
  EndEventProcessing()
  0()
 PAGE   2
  // condition: variable 1029 >= 5
  If(0,2097,0)
   ShowMessageFace("",0,0,2,1)
   ShowMessage("\\n<Mage>反対派の連中も、これで大人しくなるわ。 ようやくこの村に平和が来たのね……")
   EndEventProcessing()
   0()
  EndIf()
  If(0,2096,0)
   ShowMessageFace("",0,0,2,2)
   ShowMessage("\\n<Mage>リリィ様に、なんていう事を…… 絶対に許さないわ……")
   355("actor_label_jump")
   EndEventProcessing()
   DefineLabel("149")
   ShowMessageFace("lamp_fc1",0,0,2,3)
   ShowMessage("\\n<Jeannie>あの者の願いは世を乱すのよ…… 力をもって倒すしかなかったわ。")
   EndEventProcessing()
   DefineLabel("164")
   ShowMessageFace("kooni_fc1",2,0,2,4)
   ShowMessage("\\n<Shizuku>だって、仕方なかったもん……")
   EndEventProcessing()
   0()
  EndIf()
  0()



EVENT   32
 PAGE   1
  ShowMessageFace("",0,0,2,1)
  ShowMessage("\\n<Young Girl>この村には、まだ力を与えられていない者もいますよ。 別に、強制というわけではありませんので。")
  ShowMessageFace("",0,0,2,2)
  ShowMessage("\\n<Young Girl>私は幸いにして両親に恵まれ、力を必要としませんでした。 しかし村の多くの女性に、力が必要であった事は明らかです。")
  ShowMessageFace("",0,0,2,3)
  ShowMessage("\\n<Young Girl>両親はサルーンに移住しましたが…… 私は、しばらくこの村に残るつもりでいます。")
  355("actor_label_jump")
  EndEventProcessing()
  DefineLabel("142")
  ShowMessageFace("bander_fc1",0,0,2,4)
  ShowMessage("\\n<Banachi>力とは、何だ…… この者達の言う力とは、ただの戦闘能力の事ではあるまい……")
  EndEventProcessing()
  DefineLabel("529")
  ShowMessageFace("sara_fc1",4,0,2,5)
  ShowMessage("\\n<Sara>分かっているわ、村の娘達になにが一番必要だったのか…… そして、それを中央政府が与えられなかった事を……")
  EndEventProcessing()
  0()



EVENT   33
 PAGE   1
  ShowMessageFace("",0,0,2,1)
  ShowMessage("\\n<Village Woman>反対派の人達は、とうとう村に攻撃を仕掛けてきました。 今は小休止し、南の塔に引き返しましたが……")
  ShowMessageFace("",0,0,2,2)
  ShowMessage("\\n<Village Woman>これ以上、この村を荒らしてほしくはありません。 私達の身を守るためにも、戦うのみです。")
  0()
 PAGE   2
  // condition: variable 1029 >= 5
  If(0,2097,0)
   ShowMessageFace("",0,0,2,1)
   ShowMessage("\\n<Village Woman>南の塔に、まだ反対派の残党が残っていますが…… この村に攻撃を仕掛ける余力は、もう残っていないでしょう。")
   ShowMessageFace("",0,0,2,2)
   ShowMessage("\\n<Village Woman>あなた方には、感謝の言葉もありません。")
   EndEventProcessing()
   0()
  EndIf()
  If(0,2096,0)
   ShowMessageFace("",0,0,2,3)
   ShowMessage("\\n<Village Woman>リリィ様のお力が失われるなんて…… そんな、私達はどうすれば……")
   355("actor_label_jump")
   EndEventProcessing()
   DefineLabel("529")
   ShowMessageFace("sara_fc1",4,0,2,4)
   ShowMessage("\\n<Sara>動揺が広がっているわね…… でも、きっと乗り越えていけるはずよ。")
   EndEventProcessing()
   0()
  EndIf()
  0()



EVENT   34
 PAGE   1
  If(1,1029,0,2,2)
   ShowMessageFace("",0,0,2,1)
   ShowMessage("扉には鍵が掛かっている……")
   EndEventProcessing()
   0()
  EndIf()
  If(1,1029,0,3,1)
   250(bytes(0x04,0x08,0x6f,0x3a,0x0c,0x52,0x50,0x47,0x3a,0x3a,0x53,0x45,0x08,0x3a,0x0a,0x40,0x6e,0x61,0x6d,0x65,0x49,0x22,0x0a,0x4f,0x70,0x65,0x6e,0x31,0x06,0x3a,0x06,0x45,0x54,0x3a,0x0b,0x40,0x70,0x69,0x74,0x63,0x68,0x69,0x69,0x3a,0x0c,0x40,0x76,0x6f,0x6c,0x75,0x6d,0x65,0x69,0x55))
   205(0,bytes(0x04,0x08,0x6f,0x3a,0x13,0x52,0x50,0x47,0x3a,0x3a,0x4d,0x6f,0x76,0x65,0x52,0x6f,0x75,0x74,0x65,0x09,0x3a,0x0c,0x40,0x72,0x65,0x70,0x65,0x61,0x74,0x46,0x3a,0x0f,0x40,0x73,0x6b,0x69,0x70,0x70,0x61,0x62,0x6c,0x65,0x46,0x3a,0x0a,0x40,0x77,0x61,0x69,0x74,0x54,0x3a,0x0a,0x40,0x6c,0x69,0x73,0x74,0x5b,0x0c,0x6f,0x3a,0x15,0x52,0x50,0x47,0x3a,0x3a,0x4d,0x6f,0x76,0x65,0x43,0x6f,0x6d,0x6d,0x61,0x6e,0x64,0x07,0x3a,0x0a,0x40,0x63,0x6f,0x64,0x65,0x69,0x16,0x3a,0x10,0x40,0x70,0x61,0x72,0x61,0x6d,0x65,0x74,0x65,0x72,0x73,0x5b,0x00,0x6f,0x3b,0x0a,0x07,0x3b,0x0b,0x69,0x14,0x3b,0x0c,0x5b,0x06,0x69,0x08,0x6f,0x3b,0x0a,0x07,0x3b,0x0b,0x69,0x17,0x3b,0x0c,0x5b,0x00,0x6f,0x3b,0x0a,0x07,0x3b,0x0b,0x69,0x14,0x3b,0x0c,0x5b,0x06,0x69,0x08,0x6f,0x3b,0x0a,0x07,0x3b,0x0b,0x69,0x18,0x3b,0x0c,0x5b,0x00,0x6f,0x3b,0x0a,0x07,0x3b,0x0b,0x69,0x2a,0x3b,0x0c,0x5b,0x00,0x6f,0x3b,0x0a,0x07,0x3b,0x0b,0x69,0x00,0x3b,0x0c,0x5b,0x00))
   205(-1,bytes(0x04,0x08,0x6f,0x3a,0x13,0x52,0x50,0x47,0x3a,0x3a,0x4d,0x6f,0x76,0x65,0x52,0x6f,0x75,0x74,0x65,0x09,0x3a,0x0c,0x40,0x72,0x65,0x70,0x65,0x61,0x74,0x46,0x3a,0x0f,0x40,0x73,0x6b,0x69,0x70,0x70,0x61,0x62,0x6c,0x65,0x54,0x3a,0x0a,0x40,0x77,0x61,0x69,0x74,0x54,0x3a,0x0a,0x40,0x6c,0x69,0x73,0x74,0x5b,0x07,0x6f,0x3a,0x15,0x52,0x50,0x47,0x3a,0x3a,0x4d,0x6f,0x76,0x65,0x43,0x6f,0x6d,0x6d,0x61,0x6e,0x64,0x07,0x3a,0x0a,0x40,0x63,0x6f,0x64,0x65,0x69,0x11,0x3a,0x10,0x40,0x70,0x61,0x72,0x61,0x6d,0x65,0x74,0x65,0x72,0x73,0x5b,0x00,0x6f,0x3b,0x0a,0x07,0x3b,0x0b,0x69,0x00,0x3b,0x0c,0x5b,0x00))
   250(bytes(0x04,0x08,0x6f,0x3a,0x0c,0x52,0x50,0x47,0x3a,0x3a,0x53,0x45,0x08,0x3a,0x0a,0x40,0x6e,0x61,0x6d,0x65,0x49,0x22,0x09,0x4d,0x6f,0x76,0x65,0x06,0x3a,0x06,0x45,0x54,0x3a,0x0b,0x40,0x70,0x69,0x74,0x63,0x68,0x69,0x69,0x3a,0x0c,0x40,0x76,0x6f,0x6c,0x75,0x6d,0x65,0x69,0x55))
   TeleportPlayer(0,226,59,88,0,0)
   0()
  EndIf()
  0()



EVENT   8
 PAGE   1
  ShowMessageFace("",0,0,2,1)
  ShowMessage("\\n<Mage>反対派の攻撃は、激しいものだったけど…… こっちも魔導師、人の域を超えた者ばかりよ。")
  ShowMessageFace("",0,0,2,2)
  ShowMessage("\\n<Mage>大した被害が出なくて良かったわ…… 今度は、こっちが連中の根城に攻め込む番よ！")
  355("actor_label_jump")
  EndEventProcessing()
  DefineLabel("529")
  ShowMessageFace("sara_fc1",4,0,2,3)
  ShowMessage("\\n<Sara>全面的な激突に至る前に、何とかしないと……")
  EndEventProcessing()
  0()
 PAGE   2
  // condition: variable 1029 >= 5
  If(0,2097,0)
   ShowMessageFace("",0,0,2,1)
   ShowMessage("\\n<Mage>反対派のリーダー、ルシアが倒されたみたいね。 もちろん彼女もこの村の出身、よく知ってるわよ。")
   ShowMessageFace("",0,0,2,2)
   ShowMessage("\\n<Mage>リリィ様の同志にして親友だったのに…… なんで、こんな事になったのかしらね。")
   355("actor_label_jump")
   EndEventProcessing()
   DefineLabel("163")
   ShowMessageFace("lily_fc1",5,0,2,3)
   ShowMessage("\\n<Lily>ルシアは、この力に虐殺の原因を求めたのよ。 男達を殺した罪悪感に耐えられなかったのね……")
   ShowMessageFace("lily_fc1",5,0,2,4)
   ShowMessage("\\n<Lily>あの娘は、優しい子だったから……")
   EndEventProcessing()
   0()
  EndIf()
  If(0,2096,0)
   ShowMessageFace("",0,0,2,5)
   ShowMessage("\\n<Mage>今度は、私がレジスタンスになるわ。 地下に潜伏してでも、ルシア達と戦い続けるわよ……！")
   EndEventProcessing()
   0()
  EndIf()
  0()



EVENT   35
 PAGE   1
  ShowMessageFace("",0,0,2,1)
  ShowMessage("\\n<Boy>リリィ様は、とってもいい人なんだよ！ お花をあげると、褒めてくれたんだ！")
  ShowMessageFace("",0,0,2,2)
  ShowMessage("\\n<Boy>弱者をいじめるような、悪い大人にはならないように……だって！ だから僕、弱者を守る大人になるんだよ！")
  355("actor_label_jump")
  EndEventProcessing()
  DefineLabel("118")
  ShowMessageFace("meia_fc1",2,0,2,3)
  ShowMessage("\\n<Meia>まあ、立派な少年ですね。")
  EndEventProcessing()
  0()
 PAGE   2
  // condition: variable 1029 >= 5
  If(4,163,0)
   ShowMessageFace("",0,0,2,1)
   ShowMessage("\\n<Boy>あっ、リリィ様！ 僕、みんなを守れるように強くなるよ！")
   ShowMessageFace("lily_fc1",3,0,2,2)
   ShowMessage("\\n<Lily>悪いことを悪いと言える、正しい大人になりなさい。 この村にいた男達のようになっては駄目よ……")
   EndEventProcessing()
   0()
  EndIf()
  If(0,2096,0)
   ShowMessageFace("",0,0,2,3)
   ShowMessage("\\n<Boy>リリィ様のために、お花を摘んでるんだ。 3日に1日は、お見舞いに行ってるよ。")
   EndEventProcessing()
   0()
  EndIf()
  If(0,2097,0)
   ShowMessageFace("",0,0,2,4)
   ShowMessage("\\n<Boy>リリィ様は、とってもいい人なんだよ！ お花をあげると、褒めてくれたんだ！")
   ShowMessageFace("",0,0,2,5)
   ShowMessage("\\n<Boy>弱者をいじめるような、悪い大人にはならないように……だって！ だから僕、弱者を守る大人になるんだよ！")
   EndEventProcessing()
   0()
  EndIf()
  0()



EVENT   36
 PAGE   1
  ShowMessageFace("",0,0,2,1)
  ShowMessage("\\n<Mage>こちらが、リリィ様のお屋敷です。 もちろん、ご自由にどうぞ。")
  ShowMessageFace("",0,0,2,2)
  ShowMessage("\\n<Mage>リリィ様が憎まれるのは、弱者に暴虐を振るう者のみ。 やましき事がなければ、とてもお優しい方ですわ。")
  355("actor_label_jump")
  EndEventProcessing()
  DefineLabel("41")
  ShowMessageFace("stein_fc2",0,0,2,3)
  ShowMessage("\\n<Promestein>村全体が、どうにも妄信的ですね。 既存の封建的秩序をアップデートしただけにも思えます。")
  EndEventProcessing()
  DefineLabel("136")
  ShowMessageFace("elf_fc1",0,0,2,4)
  ShowMessage("\\n<Claudia>やましい事なんて、あるわけないわよ！")
  EndEventProcessing()
  0()
 PAGE   2
  // condition: variable 1029 >= 5
  If(0,2097,0)
   ShowMessageFace("",0,0,2,1)
   ShowMessage("\\n<Mage>こちらが、リリィ様のお屋敷です。 もちろん、ご自由にどうぞ。")
   355("actor_label_jump")
   EndEventProcessing()
   DefineLabel("163")
   ShowMessageFace("lily_fc1",3,0,2,2)
   ShowMessage("\\n<Lily>ちゃんと屋敷を守ってくれているようね。 これからも頼むわ……")
   ShowMessageFace("",0,0,2,3)
   ShowMessage("\\n<Mage>お任せ下さい、リリィ様。")
   EndEventProcessing()
   0()
  EndIf()
  If(0,2096,0)
   ShowMessageFace("",0,0,2,4)
   ShowMessage("\\n<Mage>こちらが、リリィ様のお屋敷です。 リリィ様が療養されている場所は、ここではありませんが……")
   EndEventProcessing()
   0()
  EndIf()
  0()



EVENT   37
 PAGE   1
  ShowMessageFace("",0,0,2,1)
  ShowMessage("\\n<Village Woman>反乱軍は、魔導師以外に魔物も仲間に引き込んだようです。 世の中には、傭兵のような魔物もいるとか……")
  ShowMessageFace("",0,0,2,2)
  ShowMessage("\\n<Village Woman>そのような連中に、せっかく築いた平穏を乱されるわけにはいきません。 テロに対しては、徹底的に戦い抜きます！")
  355("actor_label_jump")
  EndEventProcessing()
  DefineLabel("80")
  ShowMessageFace("orc_fc1",0,0,2,3)
  ShowMessage("\\n<Hip>傭兵ですか、そういう魔物もいますよね。 人間のお金って、けっこう貴重ですから……")
  EndEventProcessing()
  DefineLabel("156")
  ShowMessageFace("d_fighter_fc1",3,0,2,4)
  ShowMessage("\\n<Regina>傭兵……金で動くような、安い志の魔物ね。")
  EndEventProcessing()
  0()
 PAGE   2
  // condition: variable 1029 >= 5
  If(0,2097,0)
   ShowMessageFace("",0,0,2,1)
   ShowMessage("\\n<Village Woman>あなた方のお力で、反乱軍を撃退する事ができました。 この村に平和をもたらして下さり、ありがとうございます。")
   EndEventProcessing()
   0()
  EndIf()
  If(0,2096,0)
   ShowMessageFace("",0,0,2,2)
   ShowMessage("\\n<Village Woman>反乱軍などに、リリィ様が討たれるとは…… 話によれば、連中に手を貸した冒険者もいるとか。")
   ShowMessageFace("",0,0,2,3)
   ShowMessage("\\n<Village Woman>もしかして、あなた達……？ 早く、この村から去って下さい！")
   355("actor_label_jump")
   EndEventProcessing()
   DefineLabel("53")
   ShowMessageFace("slime_fc1",2,0,2,4)
   ShowMessage("\\n<Lime>がんばって、いい事したのにね……")
   EndEventProcessing()
   DefineLabel("82")
   ShowMessageFace("suzume_fc1",3,0,2,5)
   ShowMessage("\\n<Chirp>これでよかったんですよね……？")
   EndEventProcessing()
   0()
  EndIf()
  0()



EVENT   38
 PAGE   1
  // condition: variable 1029 >= 3
  ChangeSelfSwitch("A",0)
  ChangeSwitch(100,100,1)
  If(4,62,0)
   ShowMessageFace("gob_fc1",3,0,2,1)
   ShowMessage("\\n<Gob>あのお姉ちゃんって、悪者なのかな……")
   0()
  EndIf()
  If(0,4,0)
   ShowMessageFace("alice_fc5",0,0,2,2)
   ShowMessage("\\n<Alice>リリィか、単なる暴君とも違うようだな…… しかしこの場合、ただの暴君であった方が話は単純だった。")
   ShowMessageFace("alice_fc5",0,0,2,3)
   ShowMessage("\\n<Alice>虐げられた者達の声が聞こえる、か…… その声は、リリィ自身の声なのかもしれんな。")
   0()
  EndIf()
  If(0,5,0)
   ShowMessageFace("iriasu_fc4",2,0,2,4)
   ShowMessage("\\n<Ilias>リリィは、単なる暴君とはまた別物。 だからこそ、事態は複雑化しているのですが。")
   ShowMessageFace("iriasu_fc4",2,0,2,5)
   ShowMessage("\\n<Ilias>虐げられた者達の声が聞こえる、ですか…… その声は、リリィ自身の声でもあるのでしょうね。")
   0()
  EndIf()
  If(0,1529,0)
   ShowMessageFace("sara_fc1",4,0,2,6)
   ShowMessage("\\n<Sara>リリィが、本当に救うべきなのは…… 世界中の弱者なんかじゃなく、自分自身かもしれないわね。")
   0()
  EndIf()
  If(4,79,0)
   ShowMessageFace("nuruko_fc1",2,0,2,7)
   ShowMessage("\\n<Nuruko>きゅ……")
   0()
  EndIf()
  ShowMessageFace("",0,0,2,8)
  ShowMessage("そんな話をしていると、魔導の気配が近付いてきた――")
  250(bytes(0x04,0x08,0x6f,0x3a,0x0c,0x52,0x50,0x47,0x3a,0x3a,0x53,0x45,0x08,0x3a,0x0a,0x40,0x6e,0x61,0x6d,0x65,0x49,0x22,0x0d,0x6d,0x6f,0x6e,0x5f,0x77,0x61,0x72,0x70,0x06,0x3a,0x06,0x45,0x54,0x3a,0x0b,0x40,0x70,0x69,0x74,0x63,0x68,0x69,0x69,0x3a,0x0c,0x40,0x76,0x6f,0x6c,0x75,0x6d,0x65,0x69,0x69))
  ChangeSwitch(31,31,0)
  205(-1,bytes(0x04,0x08,0x6f,0x3a,0x13,0x52,0x50,0x47,0x3a,0x3a,0x4d,0x6f,0x76,0x65,0x52,0x6f,0x75,0x74,0x65,0x09,0x3a,0x0c,0x40,0x72,0x65,0x70,0x65,0x61,0x74,0x46,0x3a,0x0f,0x40,0x73,0x6b,0x69,0x70,0x70,0x61,0x62,0x6c,0x65,0x46,0x3a,0x0a,0x40,0x77,0x61,0x69,0x74,0x54,0x3a,0x0a,0x40,0x6c,0x69,0x73,0x74,0x5b,0x07,0x6f,0x3a,0x15,0x52,0x50,0x47,0x3a,0x3a,0x4d,0x6f,0x76,0x65,0x43,0x6f,0x6d,0x6d,0x61,0x6e,0x64,0x07,0x3a,0x0a,0x40,0x63,0x6f,0x64,0x65,0x69,0x17,0x3a,0x10,0x40,0x70,0x61,0x72,0x61,0x6d,0x65,0x74,0x65,0x72,0x73,0x5b,0x00,0x6f,0x3b,0x0a,0x07,0x3b,0x0b,0x69,0x00,0x3b,0x0c,0x5b,0x00))
  ShowMessageFace("",0,0,2,9)
  ShowMessage("\\n<Mage>……どうも、突然に失礼致します。 私は、ルシア様の使いの者です。")
  ShowMessageFace("",0,0,2,10)
  ShowMessage("\\n<Mage>どうか、この村にある私達の拠点にお越し下さい。 宿屋の東にある丘への階段を上がり、東の建物です。")
  ShowMessageFace("",0,0,2,11)
  ShowMessage("\\n<Mage>失礼……")
  250(bytes(0x04,0x08,0x6f,0x3a,0x0c,0x52,0x50,0x47,0x3a,0x3a,0x53,0x45,0x08,0x3a,0x0a,0x40,0x6e,0x61,0x6d,0x65,0x49,0x22,0x0d,0x6d,0x6f,0x6e,0x5f,0x77,0x61,0x72,0x70,0x06,0x3a,0x06,0x45,0x54,0x3a,0x0b,0x40,0x70,0x69,0x74,0x63,0x68,0x69,0x69,0x3a,0x0c,0x40,0x76,0x6f,0x6c,0x75,0x6d,0x65,0x69,0x69))
  ChangeSwitch(31,31,1)
  ShowMessageFace("",0,0,2,12)
  ShowMessage("\\n<Luka>ルシアって、反乱軍のリーダーの……")
  If(0,4,0)
   ShowMessageFace("alice_fc5",0,0,2,13)
   ShowMessage("\\n<Alice>反乱軍の側からも、接触してきたか…… 向こうも懐柔策で来るというのは、うすうす読めていた事だ。")
   ShowMessageFace("alice_fc5",0,0,2,14)
   ShowMessage("\\n<Alice>とりあえず、宿屋東の丘に行くとしよう。 話を聞かねば、まともな決断もできまい。")
   0()
  EndIf()
  If(0,5,0)
   ShowMessageFace("iriasu_fc4",2,0,2,15)
   ShowMessage("\\n<Ilias>反乱軍の方からも、接触してきましたか…… 向こうも懐柔策で来るなど、私にはお見通しです。")
   ShowMessageFace("iriasu_fc4",2,0,2,16)
   ShowMessage("\\n<Ilias>とりあえず、宿屋東の丘に行くとしましょう。 決断するのは、話を聞いてからでいいはずです。")
   0()
  EndIf()
  If(4,62,0)
   ShowMessageFace("gob_fc1",0,0,2,17)
   ShowMessage("\\n<Gob>ケンカしてる相手をなだめるには…… 片方の話で判断せず、ちゃんと両方の言い分を聞け！")
   ShowMessageFace("gob_fc1",0,0,2,18)
   ShowMessage("\\n<Gob>……って、ボクのおばあちゃんが言ってたよ。")
   0()
  EndIf()
  If(4,129,0)
   ShowMessageFace("brunhild_fc1",0,0,2,19)
   ShowMessage("\\n<Hild>誰をやっつけるか決まったら、言って…… それまでヒルデ、お茶を飲んでる……")
   0()
  EndIf()
  0()
 PAGE   2
  // condition: self-switch A is ON
  0()



EVENT   39
 PAGE   1
  // condition: switch 31 is ON
  0()



EVENT   40
 PAGE   1
  250(bytes(0x04,0x08,0x6f,0x3a,0x0c,0x52,0x50,0x47,0x3a,0x3a,0x53,0x45,0x08,0x3a,0x0a,0x40,0x6e,0x61,0x6d,0x65,0x49,0x22,0x0a,0x49,0x74,0x65,0x6d,0x31,0x06,0x3a,0x06,0x45,0x54,0x3a,0x0b,0x40,0x70,0x69,0x74,0x63,0x68,0x69,0x69,0x3a,0x0c,0x40,0x76,0x6f,0x6c,0x75,0x6d,0x65,0x69,0x55))
  ChangeSelfSwitch("A",0)
  ChangeInventory_Item(307,0,0,1)
  0()
 PAGE   2
  // condition: self-switch A is ON
  0()



EVENT   41
 PAGE   1
  250(bytes(0x04,0x08,0x6f,0x3a,0x0c,0x52,0x50,0x47,0x3a,0x3a,0x53,0x45,0x08,0x3a,0x0a,0x40,0x6e,0x61,0x6d,0x65,0x49,0x22,0x0a,0x49,0x74,0x65,0x6d,0x31,0x06,0x3a,0x06,0x45,0x54,0x3a,0x0b,0x40,0x70,0x69,0x74,0x63,0x68,0x69,0x69,0x3a,0x0c,0x40,0x76,0x6f,0x6c,0x75,0x6d,0x65,0x69,0x55))
  ChangeSelfSwitch("A",0)
  ChangeInventory_Item(440,0,0,1)
  0()
 PAGE   2
  // condition: self-switch A is ON
  0()



EVENT   42
 PAGE   1
  250(bytes(0x04,0x08,0x6f,0x3a,0x0c,0x52,0x50,0x47,0x3a,0x3a,0x53,0x45,0x08,0x3a,0x0a,0x40,0x6e,0x61,0x6d,0x65,0x49,0x22,0x0a,0x49,0x74,0x65,0x6d,0x31,0x06,0x3a,0x06,0x45,0x54,0x3a,0x0b,0x40,0x70,0x69,0x74,0x63,0x68,0x69,0x69,0x3a,0x0c,0x40,0x76,0x6f,0x6c,0x75,0x6d,0x65,0x69,0x55))
  ChangeSelfSwitch("A",0)
  ChangeInventory_Item(4,0,0,1)
  0()
 PAGE   2
  // condition: self-switch A is ON
  0()



EVENT   43
 PAGE   1
  // condition: switch 1080 is ON
  ShowMessageFace("orc_fc1",0,0,2,1)
  ShowMessage("\\n<Hip>ぶひー！　オークの襲撃ですよ！ ……などと、この村で宣言するほど命知らずではないのです。")
  0()
 PAGE   2
  // condition: party contains actor #80
  0()



EVENT   44
 PAGE   1
  // condition: switch 1540 is ON
  241(bytes(0x04,0x08,0x6f,0x3a,0x0d,0x52,0x50,0x47,0x3a,0x3a,0x42,0x47,0x4d,0x08,0x3a,0x0a,0x40,0x6e,0x61,0x6d,0x65,0x49,0x22,0x0a,0x61,0x6d,0x69,0x72,0x61,0x06,0x3a,0x06,0x45,0x54,0x3a,0x0c,0x40,0x76,0x6f,0x6c,0x75,0x6d,0x65,0x69,0x69,0x3a,0x0b,0x40,0x70,0x69,0x74,0x63,0x68,0x69,0x69))
  If(2,"A",1)
   ChangeSelfSwitch("A",0)
   RunCommonEvent(322)
   0()
  Else()
   ShowMessageFace("amira_fc1",0,0,2,1)
   ShowMessage("\\n<Amira>このアミラは、もう見つけたわ。 別のアミラを探して……")
   0()
  EndIf()
  241(bytes(0x04,0x08,0x6f,0x3a,0x0d,0x52,0x50,0x47,0x3a,0x3a,0x42,0x47,0x4d,0x08,0x3a,0x0a,0x40,0x6e,0x61,0x6d,0x65,0x49,0x22,0x0a,0x6d,0x75,0x72,0x61,0x33,0x06,0x3a,0x06,0x45,0x54,0x3a,0x0c,0x40,0x76,0x6f,0x6c,0x75,0x6d,0x65,0x69,0x69,0x3a,0x0b,0x40,0x70,0x69,0x74,0x63,0x68,0x69,0x69))
  EndEventProcessing()
  0()
 PAGE   2
  // condition: party contains actor #540
  0()



EVENT   16
 PAGE   1
  ShowMessageFace("",0,0,2,1)
  ShowMessage("\\n<Mage>I'm serving as the village guide right now. So...where do you need to go?")
  355("unlimited_choices(11, [\"Inn\",")
  655("\"Item Shop\",\"Lily's Mansion\",")
  655("\"Nowhere\"])")
  If(1,11,0,0,0)
   TeleportPlayer(0,224,41,53,2,0)
   EndEventProcessing()
   0()
  EndIf()
  If(1,11,0,1,0)
   TeleportPlayer(0,224,46,34,2,0)
   EndEventProcessing()
   0()
  EndIf()
  If(1,11,0,2,0)
   TeleportPlayer(0,224,38,17,2,0)
   EndEventProcessing()
   0()
  EndIf()
  If(1,11,0,3,0)
   0()
  EndIf()
  0()



EVENT   22
 PAGE   1
  ShowMessageFace("",0,0,2,1)
  ShowMessage("\\n<Village Woman>この村だけでなく、世界中の虐げられた者達を救いたい…… それが、リリィ様の理想なのです。")
  355("actor_label_jump")
  EndEventProcessing()
  DefineLabel("26")
  ShowMessageFace("iriasu_fc4",2,0,2,2)
  ShowMessage("\\n<Ilias>他人を救うなどと口にする者は、真っ先に疑うべきです…… もちろん、私は例外ですよ。")
  EndEventProcessing()
  DefineLabel("68")
  ShowMessageFace("dragonp_fc1",0,0,2,3)
  ShowMessage("\\n<Papi>つまり、いいヒトなのだな！？")
  EndEventProcessing()
  DefineLabel("136")
  ShowMessageFace("elf_fc1",0,0,2,4)
  ShowMessage("\\n<Claudia>なんだか、胡散臭いわね……")
  EndEventProcessing()
  0()
 PAGE   2
  // condition: variable 1029 >= 5
  If(0,2097,0)
   ShowMessageFace("",0,0,2,1)
   ShowMessage("\\n<Village Woman>リリィ様…… いよいよ、世界中の虐げられた者達を救いに旅立つのですね。")
   355("actor_label_jump")
   EndEventProcessing()
   DefineLabel("163")
   ShowMessageFace("lily_fc1",3,0,2,2)
   ShowMessage("\\n<Lily>ええ、全ての弱者が救われるために…… 私が、力を与えなければいけないのよ。")
   EndEventProcessing()
   0()
  EndIf()
  If(0,2096,0)
   ShowMessageFace("",0,0,2,3)
   ShowMessage("\\n<Village Woman>リリィ様の夢は断たれました。 力は封じられ、二度と魔導の力は使えないでしょう。")
   ShowMessageFace("",0,0,2,4)
   ShowMessage("\\n<Village Woman>ああ、なんとおいたわしい……")
   EndEventProcessing()
   0()
  EndIf()
  0()
