﻿
DisplayName "Pocket Castle 3F"



EVENT   1
 PAGE   1
  0()



EVENT   2
 PAGE   1
  0()



EVENT   3
 PAGE   1
  0()



EVENT   4
 PAGE   1
  0()



EVENT   5
 PAGE   1
  0()



EVENT   6
 PAGE   1
  0()



EVENT   7
 PAGE   1
  0()



EVENT   8
 PAGE   1
  0()



EVENT   9
 PAGE   1
  0()



EVENT   10
 PAGE   1
  0()



EVENT   11
 PAGE   1
  0()



EVENT   12
 PAGE   1
  0()



EVENT   13
 PAGE   1
  0()



EVENT   14
 PAGE   1
  281(0)
  250(bytes(0x04,0x08,0x6f,0x3a,0x0c,0x52,0x50,0x47,0x3a,0x3a,0x53,0x45,0x08,0x3a,0x0a,0x40,0x6e,0x61,0x6d,0x65,0x49,0x22,0x09,0x4d,0x6f,0x76,0x65,0x06,0x3a,0x06,0x45,0x54,0x3a,0x0b,0x40,0x70,0x69,0x74,0x63,0x68,0x69,0x69,0x3a,0x0c,0x40,0x76,0x6f,0x6c,0x75,0x6d,0x65,0x69,0x55))
  TeleportPlayer(0,276,26,8,0,0)
  0()



EVENT   16
 PAGE   1
  281(0)
  250(bytes(0x04,0x08,0x6f,0x3a,0x0c,0x52,0x50,0x47,0x3a,0x3a,0x53,0x45,0x08,0x3a,0x0a,0x40,0x6e,0x61,0x6d,0x65,0x49,0x22,0x09,0x4d,0x6f,0x76,0x65,0x06,0x3a,0x06,0x45,0x54,0x3a,0x0b,0x40,0x70,0x69,0x74,0x63,0x68,0x69,0x69,0x3a,0x0c,0x40,0x76,0x6f,0x6c,0x75,0x6d,0x65,0x69,0x55))
  TeleportPlayer(0,276,5,3,2,0)
  0()



EVENT   17
 PAGE   1
  281(0)
  250(bytes(0x04,0x08,0x6f,0x3a,0x0c,0x52,0x50,0x47,0x3a,0x3a,0x53,0x45,0x08,0x3a,0x0a,0x40,0x6e,0x61,0x6d,0x65,0x49,0x22,0x0a,0x4f,0x70,0x65,0x6e,0x31,0x06,0x3a,0x06,0x45,0x54,0x3a,0x0b,0x40,0x70,0x69,0x74,0x63,0x68,0x69,0x69,0x3a,0x0c,0x40,0x76,0x6f,0x6c,0x75,0x6d,0x65,0x69,0x55))
  205(0,bytes(0x04,0x08,0x6f,0x3a,0x13,0x52,0x50,0x47,0x3a,0x3a,0x4d,0x6f,0x76,0x65,0x52,0x6f,0x75,0x74,0x65,0x09,0x3a,0x0c,0x40,0x72,0x65,0x70,0x65,0x61,0x74,0x46,0x3a,0x0f,0x40,0x73,0x6b,0x69,0x70,0x70,0x61,0x62,0x6c,0x65,0x46,0x3a,0x0a,0x40,0x77,0x61,0x69,0x74,0x54,0x3a,0x0a,0x40,0x6c,0x69,0x73,0x74,0x5b,0x0c,0x6f,0x3a,0x15,0x52,0x50,0x47,0x3a,0x3a,0x4d,0x6f,0x76,0x65,0x43,0x6f,0x6d,0x6d,0x61,0x6e,0x64,0x07,0x3a,0x0a,0x40,0x63,0x6f,0x64,0x65,0x69,0x16,0x3a,0x10,0x40,0x70,0x61,0x72,0x61,0x6d,0x65,0x74,0x65,0x72,0x73,0x5b,0x00,0x6f,0x3b,0x0a,0x07,0x3b,0x0b,0x69,0x14,0x3b,0x0c,0x5b,0x06,0x69,0x08,0x6f,0x3b,0x0a,0x07,0x3b,0x0b,0x69,0x17,0x3b,0x0c,0x5b,0x00,0x6f,0x3b,0x0a,0x07,0x3b,0x0b,0x69,0x14,0x3b,0x0c,0x5b,0x06,0x69,0x08,0x6f,0x3b,0x0a,0x07,0x3b,0x0b,0x69,0x18,0x3b,0x0c,0x5b,0x00,0x6f,0x3b,0x0a,0x07,0x3b,0x0b,0x69,0x2a,0x3b,0x0c,0x5b,0x00,0x6f,0x3b,0x0a,0x07,0x3b,0x0b,0x69,0x00,0x3b,0x0c,0x5b,0x00))
  205(-1,bytes(0x04,0x08,0x6f,0x3a,0x13,0x52,0x50,0x47,0x3a,0x3a,0x4d,0x6f,0x76,0x65,0x52,0x6f,0x75,0x74,0x65,0x09,0x3a,0x0c,0x40,0x72,0x65,0x70,0x65,0x61,0x74,0x46,0x3a,0x0f,0x40,0x73,0x6b,0x69,0x70,0x70,0x61,0x62,0x6c,0x65,0x54,0x3a,0x0a,0x40,0x77,0x61,0x69,0x74,0x54,0x3a,0x0a,0x40,0x6c,0x69,0x73,0x74,0x5b,0x07,0x6f,0x3a,0x15,0x52,0x50,0x47,0x3a,0x3a,0x4d,0x6f,0x76,0x65,0x43,0x6f,0x6d,0x6d,0x61,0x6e,0x64,0x07,0x3a,0x0a,0x40,0x63,0x6f,0x64,0x65,0x69,0x11,0x3a,0x10,0x40,0x70,0x61,0x72,0x61,0x6d,0x65,0x74,0x65,0x72,0x73,0x5b,0x00,0x6f,0x3b,0x0a,0x07,0x3b,0x0b,0x69,0x00,0x3b,0x0c,0x5b,0x00))
  250(bytes(0x04,0x08,0x6f,0x3a,0x0c,0x52,0x50,0x47,0x3a,0x3a,0x53,0x45,0x08,0x3a,0x0a,0x40,0x6e,0x61,0x6d,0x65,0x49,0x22,0x09,0x4d,0x6f,0x76,0x65,0x06,0x3a,0x06,0x45,0x54,0x3a,0x0b,0x40,0x70,0x69,0x74,0x63,0x68,0x69,0x69,0x3a,0x0c,0x40,0x76,0x6f,0x6c,0x75,0x6d,0x65,0x69,0x55))
  TeleportPlayer(0,278,7,31,0,0)
  0()



EVENT   15
 PAGE   1
  281(0)
  250(bytes(0x04,0x08,0x6f,0x3a,0x0c,0x52,0x50,0x47,0x3a,0x3a,0x53,0x45,0x08,0x3a,0x0a,0x40,0x6e,0x61,0x6d,0x65,0x49,0x22,0x09,0x4d,0x6f,0x76,0x65,0x06,0x3a,0x06,0x45,0x54,0x3a,0x0b,0x40,0x70,0x69,0x74,0x63,0x68,0x69,0x69,0x3a,0x0c,0x40,0x76,0x6f,0x6c,0x75,0x6d,0x65,0x69,0x55))
  TeleportPlayer(0,276,27,8,0,0)
  0()



EVENT   19
 PAGE   1
  RunCommonEvent(111)
  0()



EVENT   20
 PAGE   1
  // condition: switch 1041 is ON
  PictureDisplay(5,"80_stein_st31",0,0,0,0,100,100,0,0)
  PictureMove(5,null,0,0,0,0,100,100,255,0,30,true)
  If(1,3041,0,10,1)
   If(1,4041,0,0,0)
    ChangeVariable(4041,4041,0,0,1)
    ShowMessageFace("stein_fc2",2,0,2,1)
    ShowMessage("\\n<Promestein (Affection:\\V[3041])>あの……これを受け取ってもらいませんか？ いえ、別に何も仕込んでいませんよ……")
    250(bytes(0x04,0x08,0x6f,0x3a,0x0c,0x52,0x50,0x47,0x3a,0x3a,0x53,0x45,0x08,0x3a,0x0a,0x40,0x6e,0x61,0x6d,0x65,0x49,0x22,0x0a,0x49,0x74,0x65,0x6d,0x31,0x06,0x3a,0x06,0x45,0x54,0x3a,0x0b,0x40,0x70,0x69,0x74,0x63,0x68,0x69,0x69,0x3a,0x0c,0x40,0x76,0x6f,0x6c,0x75,0x6d,0x65,0x69,0x55))
    ChangeInventory_Item(31,0,0,1)
    0()
   EndIf()
   0()
  EndIf()
  If(1,3041,0,100,1)
   If(1,4041,0,1,0)
    ChangeVariable(4041,4041,0,0,2)
    ShowMessageFace("stein_fc2",2,0,2,2)
    ShowMessage("\\n<Promestein (Affection:\\V[3041])>あの……これを受け取ってもらいませんか？ いえ、別に何も仕込んでいませんよ……")
    250(bytes(0x04,0x08,0x6f,0x3a,0x0c,0x52,0x50,0x47,0x3a,0x3a,0x53,0x45,0x08,0x3a,0x0a,0x40,0x6e,0x61,0x6d,0x65,0x49,0x22,0x0a,0x49,0x74,0x65,0x6d,0x31,0x06,0x3a,0x06,0x45,0x54,0x3a,0x0b,0x40,0x70,0x69,0x74,0x63,0x68,0x69,0x69,0x3a,0x0c,0x40,0x76,0x6f,0x6c,0x75,0x6d,0x65,0x69,0x55))
    ChangeInventoryArmor(1041,0,0,1,false)
    0()
   EndIf()
   0()
  EndIf()
  If(1,3041,0,500,1)
   If(1,4041,0,2,0)
    ChangeVariable(4041,4041,0,0,3)
    ShowMessageFace("stein_fc2",2,0,2,3)
    ShowMessage("\\n<Promestein (Affection:\\V[3041])>あの……これを受け取ってもらいませんか？ いえ、別に何も仕込んでいませんよ……")
    250(bytes(0x04,0x08,0x6f,0x3a,0x0c,0x52,0x50,0x47,0x3a,0x3a,0x53,0x45,0x08,0x3a,0x0a,0x40,0x6e,0x61,0x6d,0x65,0x49,0x22,0x0a,0x49,0x74,0x65,0x6d,0x31,0x06,0x3a,0x06,0x45,0x54,0x3a,0x0b,0x40,0x70,0x69,0x74,0x63,0x68,0x69,0x69,0x3a,0x0c,0x40,0x76,0x6f,0x6c,0x75,0x6d,0x65,0x69,0x55))
    ChangeInventoryArmor(1736,0,0,1,false)
    0()
   EndIf()
   0()
  EndIf()
  If(1,3041,0,2000,1)
   If(1,4041,0,3,0)
    ChangeVariable(4041,4041,0,0,4)
    ShowMessageFace("stein_fc2",2,0,2,4)
    ShowMessage("\\n<Promestein (Affection:\\V[3041])>あの……これを受け取ってもらいませんか？ いえ、別に何も仕込んでいませんよ……")
    250(bytes(0x04,0x08,0x6f,0x3a,0x0c,0x52,0x50,0x47,0x3a,0x3a,0x53,0x45,0x08,0x3a,0x0a,0x40,0x6e,0x61,0x6d,0x65,0x49,0x22,0x0a,0x49,0x74,0x65,0x6d,0x31,0x06,0x3a,0x06,0x45,0x54,0x3a,0x0b,0x40,0x70,0x69,0x74,0x63,0x68,0x69,0x69,0x3a,0x0c,0x40,0x76,0x6f,0x6c,0x75,0x6d,0x65,0x69,0x55))
    ChangeInventoryArmor(1168,0,0,1,false)
    0()
   EndIf()
   0()
  EndIf()
  355("actor_label_jump")
  ShowMessageFace("stein_fc2",0,0,2,5)
  ShowMessage("\\n<Promestein (Affection:\\V[3041])>観察させてもらえませんか？ もし力尽きた場合は、検視も私が……")
  JumpToLabel("メニュー")
  DefineLabel("12")
  ShowMessageFace("stein_fc2",1,0,2,6)
  ShowMessage("\\n<Promestein (Affection:\\V[3041])>風の精霊ですか、興味深いです…… 標本にしていいですか？")
  ShowMessageFace("sylph_fc1",4,0,2,7)
  ShowMessage("\\n<Sylph (Affection:\\V[3012])>イヤだよー！")
  ShowMessageFace("stein_fc2",1,0,2,8)
  ShowMessage("\\n<Promestein (Affection:\\V[3041])>それじゃあ、内臓をサンプルに頂けませんか？ 代わりにワタでも詰めておきますから……")
  ShowMessageFace("sylph_fc1",1,0,2,9)
  ShowMessage("\\n<Sylph (Affection:\\V[3012])>いいよ！")
  ShowMessageFace("sonia_fc3",2,0,2,10)
  ShowMessage("\\n<Sonya>ダメでしょー！")
  JumpToLabel("メニュー")
  DefineLabel("13")
  ShowMessageFace("gnome_fc1",1,0,2,11)
  ShowMessage("\\n<Gnome (Affection:\\V[3013])>……………………")
  ShowMessageFace("stein_fc2",0,0,2,12)
  ShowMessage("\\n<Promestein (Affection:\\V[3041])>あっ、土の精霊ですか……")
  ShowMessageFace("sonia_fc2",2,0,2,13)
  ShowMessage("\\n<Sonya>どうせ、解剖したいって言うんでしょう……？")
  ShowMessageFace("stein_fc2",0,0,2,14)
  ShowMessage("\\n<Promestein (Affection:\\V[3041])>いえ、寝ている間に少し中を見ました。 土が詰まっていたので、サンプルを取ったのですが……")
  ShowMessageFace("sonia_fc4",0,0,2,15)
  ShowMessage("\\n<Sonya>すでにやっちゃったんだ……")
  ShowMessageFace("stein_fc2",1,0,2,16)
  ShowMessage("\\n<Promestein (Affection:\\V[3041])>成分を分析したところ、世界各地の土が含まれていたのです。 非常に興味深いですね……")
  ShowMessageFace("gnome_fc1",1,0,2,17)
  ShowMessage("\\n<Gnome (Affection:\\V[3013])>……………………")
  ShowMessageFace("sylph_fc1",0,0,2,18)
  ShowMessage("\\n<Sylph (Affection:\\V[3012])>ワールドワイドでえらいんだって！")
  ShowMessageFace("sonia_fc4",0,0,2,19)
  ShowMessage("\\n<Sonya>……………………")
  JumpToLabel("メニュー")
  DefineLabel("26")
  ShowMessageFace("stein_fc2",0,0,2,20)
  ShowMessage("\\n<Promestein (Affection:\\V[3041])>……どうしたのですか？ 私の顔をじろじろ見て……")
  ShowMessageFace("iriasu_fc4",0,0,2,21)
  ShowMessage("\\n<Ilias (Affection:\\V[3026])>（今のうちから調教しなおせば…… 　どこかに監禁して、私の言葉を聞かせ続けて……)")
  ShowMessageFace("stein_fc2",0,0,2,22)
  ShowMessage("\\n<Promestein (Affection:\\V[3041])>あっ、羽根を一枚頂きます。 ちょっと聖素の反応実験をしたいですから。")
  ShowMessageFace("iriasu_fc4",0,0,2,23)
  ShowMessage("\\n<Ilias (Affection:\\V[3026])>そして、忠実な手駒に……ふふふっ…… （自分のを使いなさい……)")
  ShowMessageFace("stein_fc2",0,0,2,24)
  ShowMessage("\\n<Promestein (Affection:\\V[3041])>……えっ？")
  ShowMessageFace("iriasu_fc4",2,0,2,25)
  ShowMessage("\\n<Ilias (Affection:\\V[3026])>失礼、言葉と思考が逆になりました。 考え事の最中に話し掛けないように……")
  JumpToLabel("メニュー")
  DefineLabel("77")
  ShowMessageFace("jeid_fc1",0,0,2,26)
  ShowMessage("\\n<Jaide (Affection:\\V[3077])>何でしょう……")
  ShowMessageFace("stein_fc2",0,0,2,27)
  ShowMessage("\\n<Promestein (Affection:\\V[3041])>意外に生体部品が多いですね。 むしろ、生物要素の方が多いのかも……")
  ShowMessageFace("jeid_fc1",0,0,2,28)
  ShowMessage("\\n<Jaide (Affection:\\V[3077])>私はロボットではありません。 機械生命です……")
  ShowMessageFace("stein_fc2",1,0,2,29)
  ShowMessage("\\n<Promestein (Affection:\\V[3041])>なんだかこう、独自進化した感じがありますね。 少し脚部を解体していいですか？")
  ShowMessageFace("jeid_fc1",0,0,2,30)
  ShowMessage("\\n<Jaide (Affection:\\V[3077])>良いわけがありません……")
  JumpToLabel("メニュー")
  DefineLabel("79")
  ShowMessageFace("nuruko_fc1",0,0,2,31)
  ShowMessage("\\n<Nuruko (Affection:\\V[3079])>きゅきゅ～、きゅ～♪")
  ShowMessageFace("stein_fc2",0,0,2,32)
  ShowMessage("\\n<Promestein (Affection:\\V[3041])>しかし変わった生物ですね…… これ、なんなんでしょう。")
  ShowMessageFace("nuruko_fc1",0,0,2,33)
  ShowMessage("\\n<Nuruko (Affection:\\V[3079])>きゅ……？")
  ShowMessageFace("stein_fc2",1,0,2,34)
  ShowMessage("\\n<Promestein (Affection:\\V[3041])>大丈夫、痛くありませんよ。 ちょっとチクッとするだけで……")
  ShowMessageFace("sonia_fc2",5,0,2,35)
  ShowMessage("\\n<Sonya (Affection:\\V[3525])>こら、ヌルコちゃんいじめちゃダメでしょ！")
  ShowMessageFace("stein_fc2",2,0,2,36)
  ShowMessage("\\n<Promestein (Affection:\\V[3041])>いえ、少しサンプルを頂こうとしただけで…… ……ごめんなさい。")
  JumpToLabel("メニュー")
  DefineLabel("94")
  ShowMessageFace("stein_fc2",0,0,2,37)
  ShowMessage("\\n<Promestein (Affection:\\V[3041])>これはまた、変わったマシンですね…… 中枢部は生体に極めて近いようです。")
  ShowMessageFace("luksl_fc1",0,0,2,38)
  ShowMessage("\\n<Look Through (Affection:\\V[3094])>何言ってるの、私は元人間よ。 機械と融合したけど、頭部はナマモノなんだから。")
  ShowMessageFace("stein_fc2",0,0,2,39)
  ShowMessage("\\n<Promestein (Affection:\\V[3041])>でも、脳もほとんど変質していますよ。 とても有機生命とは言えないかと……")
  ShowMessageFace("luksl_fc1",2,0,2,40)
  ShowMessage("\\n<Look Through (Affection:\\V[3094])>……はぁっ？ ちょっと、それ本当……！？")
  ShowMessageFace("stein_fc2",1,0,2,41)
  ShowMessage("\\n<Promestein (Affection:\\V[3041])>ワクワクしてきたでしょう！？")
  ShowMessageFace("luksl_fc1",2,0,2,42)
  ShowMessage("\\n<Look Through (Affection:\\V[3094])>しないわよ！")
  JumpToLabel("メニュー")
  DefineLabel("114")
  ShowMessageFace("wakame_fc1",0,0,2,43)
  ShowMessage("\\n<Wakame (Affection:\\V[3114])>わかめ、ゆらゆら……")
  ShowMessageFace("stein_fc2",0,0,2,44)
  ShowMessage("\\n<Promestein (Affection:\\V[3041])>わかめですか…… 意外に原生生物の特質が残っているんですよね……")
  ShowMessageFace("stein_fc2",1,0,2,45)
  ShowMessage("\\n<Promestein (Affection:\\V[3041])>……ひらめきました！")
  ShowMessageFace("wakame_fc1",1,0,2,46)
  ShowMessage("\\n<Wakame (Affection:\\V[3114])>おいしいお味噌汁の作り方……？")
  ShowMessageFace("stein_fc2",0,0,2,47)
  ShowMessage("\\n<Promestein (Affection:\\V[3041])>いえ、違いますけど……")
  JumpToLabel("メニュー")
  DefineLabel("121")
  ShowMessageFace("page65537_fc1",0,0,2,48)
  ShowMessage("\\n<Cornelia (Affection:\\V[3121])>おや、科学者さん。 あなたは意外にも、図書館にはほとんど来ませんね。")
  ShowMessageFace("stein_fc2",0,0,2,49)
  ShowMessage("\\n<Promestein (Affection:\\V[3041])>情報収集のツールとして、書物は非効率的です。 読書など時間の無駄であり、浪費ですよ。")
  ShowMessageFace("page65537_fc1",1,0,2,50)
  ShowMessage("\\n<Cornelia (Affection:\\V[3121])>浪費だから、良いのではないですか。 誰もが、情報収集の目的で読書しているわけではありません。")
  ShowMessageFace("page65537_fc1",1,0,2,51)
  ShowMessage("\\n<Cornelia (Affection:\\V[3121])>ただの娯楽、楽しく読んで時間を浪費する…… そういう散漫な読書も、あってよいと思いますよ。")
  ShowMessageFace("stein_fc2",0,0,2,52)
  ShowMessage("\\n<Promestein (Affection:\\V[3041])>カロリーを気にせず、思う存分食べるようなものですか？")
  ShowMessageFace("page65537_fc1",0,0,2,53)
  ShowMessage("\\n<Cornelia (Affection:\\V[3121])>まあ、そんなところですが…… ダイエットなど、気にしていたのですか？")
  ShowMessageFace("stein_fc2",0,0,2,54)
  ShowMessage("\\n<Promestein (Affection:\\V[3041])>何にでも管理主義的なだけです。")
  JumpToLabel("メニュー")
  DefineLabel("129")
  ShowMessageFace("stein_fc2",0,0,2,55)
  ShowMessage("\\n<Promestein (Affection:\\V[3041])>いったい、誰が何の目的で…… 動力も不明です……")
  ShowMessageFace("brunhild_fc1",0,0,2,56)
  ShowMessage("\\n<Hild (Affection:\\V[3129])>ヒルデ、ふしぎ…… 不思議の国から来たの？")
  ShowMessageFace("stein_fc2",0,0,2,57)
  ShowMessage("\\n<Promestein (Affection:\\V[3041])>脳回路がポンコツなのも気になりますね…… ちょっと分解してみてもいいですか？")
  ShowMessageFace("sonia_fc2",5,0,2,58)
  ShowMessage("\\n<Sonya>ダメに決まってるでしょ！")
  JumpToLabel("メニュー")
  DefineLabel("134")
  ShowMessageFace("chrom_fc2",0,0,2,59)
  ShowMessage("\\n<Chrome (Affection:\\V[3134])>儂はクロム、ゾンビの求道者じゃ！")
  ShowMessageFace("stein_fc2",0,0,2,60)
  ShowMessage("\\n<Promestein (Affection:\\V[3041])>なるほど……意外に堅実な技術ですね。 もっとメチャクチャかと思っていました。")
  ShowMessageFace("chrom_fc2",1,0,2,61)
  ShowMessage("\\n<Chrome (Affection:\\V[3134])>失礼な……姉上の指導の元、 アルテイスト家の伝統技術を授けられているのじゃぞ。")
  ShowMessageFace("stein_fc2",0,0,2,62)
  ShowMessage("\\n<Promestein (Affection:\\V[3041])>あっ、ゾンビの腕が左右逆に…… なんだか根本的なところで大雑把なんですね。")
  JumpToLabel("メニュー")
  DefineLabel("166")
  ShowMessageFace("stein_fc2",0,0,2,63)
  ShowMessage("\\n<Promestein (Affection:\\V[3041])>研究疲れで、脳の働きが鈍ってきましたね。 ここは、甘いものでも頂きましょう……")
  ShowMessageFace("narcubus_fc1",0,0,2,64)
  ShowMessage("\\n<Manako (Affection:\\V[3166])>甘いものが脳に良いって、俗説ですよ。 プロメスティンさんが、それを知らないはずないですよね？")
  ShowMessageFace("stein_fc2",1,0,2,65)
  ShowMessage("\\n<Promestein (Affection:\\V[3041])>……えへへっ♪")
  JumpToLabel("メニュー")
  DefineLabel("167")
  ShowMessageFace("stein_fc2",0,0,2,66)
  ShowMessage("\\n<Promestein (Affection:\\V[3041])>あなたは錬金術を研究しているのですか……")
  ShowMessageFace("lusia_fc1",0,0,2,67)
  ShowMessage("\\n<Lucia (Affection:\\V[3167])>錬金の秘技を極め、真理を解き明かす事こそ我が使命。 たとえ、どれだけ遠い道だったとしても……")
  ShowMessageFace("stein_fc2",0,0,2,68)
  ShowMessage("\\n<Promestein (Affection:\\V[3041])>なるほど……あなたも、求道を絶対視しているのですね。 いかなる障害も踏み越え、真理を求める者こそ我が同志。")
  ShowMessageFace("stein_fc2",1,0,2,69)
  ShowMessage("\\n<Promestein (Affection:\\V[3041])>そういうわけで、これからもよろしくお願いします……")
  ShowMessageFace("lusia_fc1",0,0,2,70)
  ShowMessage("\\n<Lucia (Affection:\\V[3167])>ええ、こちらこそ……")
  If(0,5,0)
   ShowMessageFace("iriasu_fc4",2,0,2,71)
   ShowMessage("\\n<Ilias>（ぞわぞわと寒気がします……)")
   0()
  EndIf()
  JumpToLabel("メニュー")
  DefineLabel("178")
  ShowMessageFace("stein_fc2",0,0,2,72)
  ShowMessage("\\n<Promestein (Affection:\\V[3041])>これはまた、戦闘的な設計ですね。 各部が展開し、捕獲形態にもなれるとは……")
  ShowMessageFace("valt_fc1",0,0,2,73)
  ShowMessage("\\n<Valto (Affection:\\V[3178])>勝手に触るな……危険だ……")
  ShowMessageFace("stein_fc2",2,0,2,74)
  ShowMessage("\\n<Promestein (Affection:\\V[3041])>なるほど、ここの展開部が…… わぁっ、閉じた！　閉じ込められました！")
  ShowMessageFace("valt_fc1",0,0,2,75)
  ShowMessage("\\n<Valto (Affection:\\V[3178])>少し、その中で反省しろ……")
  If(0,5,0)
   ShowMessageFace("iriasu_fc4",2,0,2,76)
   ShowMessage("\\n<Ilias>すぐ出した方がいいですよ。 その小娘は閉じ込めておくと、逆にタチが悪くなるので……")
   0()
  Else()
   ShowMessageFace("sonia_fc2",2,0,2,77)
   ShowMessage("\\n<Sonya>なんか、あちこち解体し始めてるけど…… 出した方がいいんじゃない？")
   0()
  EndIf()
  JumpToLabel("メニュー")
  DefineLabel("185")
  ShowMessageFace("radio_fc1",0,0,2,78)
  ShowMessage("\\n<Radio (Affection:\\V[3185])>マスター…… 14年3ヶ月18日14時間35分48秒ぶリデす……")
  ShowMessageFace("stein_fc2",2,0,2,79)
  ShowMessage("\\n<Promestein (Affection:\\V[3041])>えっ……？　私、心当たりありませんが……")
  ShowMessageFace("radio_fc1",0,0,2,80)
  ShowMessage("\\n<Radio (Affection:\\V[3185])>私もありマセん。")
  ShowMessageFace("stein_fc2",2,0,2,81)
  ShowMessage("\\n<Promestein (Affection:\\V[3041])>そ、そうですか……")
  ShowMessageFace("radio_fc1",0,0,2,82)
  ShowMessage("\\n<Radio (Affection:\\V[3185])>でも、あったよウナ気が…… 懐かしい感じガシます……")
  ShowMessageFace("stein_fc2",0,0,2,83)
  ShowMessage("\\n<Promestein (Affection:\\V[3041])>メカなのに、ずいぶんアバウトですね…… 製作者がアバウトなんでしょうか。")
  JumpToLabel("メニュー")
  DefineLabel("メニュー")
  StartLoop()
   355("unlimited_choices(11, [\"Give presents\",")
   655("\"Add to party\",")
   655("\"View present list\",\"Make a request\",")
   655("\"Never mind\"])")
   If(1,11,0,0,0)
    355("present_start(41)")
    0()
   EndIf()
   If(1,11,0,1,0)
    PictureClear(5)
    355("move_actor_ex(41)")
    EndEventProcessing()
    0()
   EndIf()
   If(1,11,0,2,0)
    ShowMessageFace("",0,0,2,84)
    ShowMessage("Affection   10:\\ii[31]")
    ShowMessage("Affection  100:\\ia[1041]")
    ShowMessage("Affection  500:\\ia[1736]")
    ShowMessage("Affection 2000:\\ia[1168]")
    0()
   EndIf()
   If(1,11,0,3,0)
    PictureClear(5)
    ShowMessageFace("",0,0,2,85)
    ShowMessage("Ask her for what? (Affection:\\V[3041])")
    355("unlimited_choices(12,")
    655(" [\"Gloved handjob(Affection:10)\",")
    655("\"Onahole(Affection:20)\",")
    655("\"Mecha onahole(Affection:30)\",")
    655("\"Living onahole(Affection:40)\",")
    655("\"Bare handjob(Affection:50)\",")
    655("\"Never mind\"])")
    If(1,12,0,0,0)
     If(1,3041,0,10,1)
      355("call_novel_scene(4041)")
      EndEventProcessing()
      0()
     Else()
      ShowMessageFace("stein_fc2",0,0,2,86)
      ShowMessage("\\n<Promestein (Affection:\\V[3041])>今は研究が忙しいので……")
      0()
     EndIf()
     0()
    EndIf()
    If(1,12,0,1,0)
     If(1,3041,0,20,1)
      355("call_novel_scene(4042)")
      EndEventProcessing()
      0()
     Else()
      ShowMessageFace("stein_fc2",0,0,2,87)
      ShowMessage("\\n<Promestein (Affection:\\V[3041])>今は研究が忙しいので……")
      0()
     EndIf()
     0()
    EndIf()
    If(1,12,0,2,0)
     If(1,3041,0,30,1)
      355("call_novel_scene(4043)")
      EndEventProcessing()
      0()
     Else()
      ShowMessageFace("stein_fc2",0,0,2,88)
      ShowMessage("\\n<Promestein (Affection:\\V[3041])>今は研究が忙しいので……")
      0()
     EndIf()
     0()
    EndIf()
    If(1,12,0,3,0)
     If(1,3041,0,40,1)
      355("call_novel_scene(4044)")
      EndEventProcessing()
      0()
     Else()
      ShowMessageFace("stein_fc2",0,0,2,89)
      ShowMessage("\\n<Promestein (Affection:\\V[3041])>今は研究が忙しいので……")
      0()
     EndIf()
     0()
    EndIf()
    If(1,12,0,4,0)
     If(1,3041,0,50,1)
      355("call_novel_scene(4045)")
      EndEventProcessing()
      0()
     Else()
      ShowMessageFace("stein_fc2",0,0,2,90)
      ShowMessage("\\n<Promestein (Affection:\\V[3041])>今は研究が忙しいので……")
      0()
     EndIf()
     0()
    EndIf()
    0()
   EndIf()
   If(1,11,0,4,1)
    PictureClear(5)
    EndEventProcessing()
    0()
   EndIf()
   0()
  EndLoop()
  0()
 PAGE   2
  // condition: party contains actor #41
  0()



EVENT   21
 PAGE   1
  // condition: switch 1185 is ON
  PictureDisplay(5,"80_radio_st01",0,0,0,0,100,100,0,0)
  PictureMove(5,null,0,0,0,0,100,100,255,0,30,true)
  If(1,3185,0,10,1)
   If(1,4185,0,0,0)
    ChangeVariable(4185,4185,0,0,1)
    ShowMessageFace("radio_fc1",0,0,2,1)
    ShowMessage("\\n<Radio (Affection:\\V[3185])>取得物をひろいました……")
    250(bytes(0x04,0x08,0x6f,0x3a,0x0c,0x52,0x50,0x47,0x3a,0x3a,0x53,0x45,0x08,0x3a,0x0a,0x40,0x6e,0x61,0x6d,0x65,0x49,0x22,0x0a,0x49,0x74,0x65,0x6d,0x31,0x06,0x3a,0x06,0x45,0x54,0x3a,0x0b,0x40,0x70,0x69,0x74,0x63,0x68,0x69,0x69,0x3a,0x0c,0x40,0x76,0x6f,0x6c,0x75,0x6d,0x65,0x69,0x55))
    ChangeInventory_Item(9,0,0,1)
    0()
   EndIf()
   0()
  EndIf()
  If(1,3185,0,100,1)
   If(1,4185,0,1,0)
    ChangeVariable(4185,4185,0,0,2)
    ShowMessageFace("radio_fc1",0,0,2,2)
    ShowMessage("\\n<Radio (Affection:\\V[3185])>取得物をひろいました……")
    250(bytes(0x04,0x08,0x6f,0x3a,0x0c,0x52,0x50,0x47,0x3a,0x3a,0x53,0x45,0x08,0x3a,0x0a,0x40,0x6e,0x61,0x6d,0x65,0x49,0x22,0x0a,0x49,0x74,0x65,0x6d,0x31,0x06,0x3a,0x06,0x45,0x54,0x3a,0x0b,0x40,0x70,0x69,0x74,0x63,0x68,0x69,0x69,0x3a,0x0c,0x40,0x76,0x6f,0x6c,0x75,0x6d,0x65,0x69,0x55))
    ChangeInventoryArmor(1100,0,0,1,false)
    0()
   EndIf()
   0()
  EndIf()
  If(1,3185,0,500,1)
   If(1,4185,0,2,0)
    ChangeVariable(4185,4185,0,0,3)
    ShowMessageFace("radio_fc1",0,0,2,3)
    ShowMessage("\\n<Radio (Affection:\\V[3185])>取得物をひろいました……")
    250(bytes(0x04,0x08,0x6f,0x3a,0x0c,0x52,0x50,0x47,0x3a,0x3a,0x53,0x45,0x08,0x3a,0x0a,0x40,0x6e,0x61,0x6d,0x65,0x49,0x22,0x0a,0x49,0x74,0x65,0x6d,0x31,0x06,0x3a,0x06,0x45,0x54,0x3a,0x0b,0x40,0x70,0x69,0x74,0x63,0x68,0x69,0x69,0x3a,0x0c,0x40,0x76,0x6f,0x6c,0x75,0x6d,0x65,0x69,0x55))
    ChangeInventoryArmor(1357,0,0,1,false)
    0()
   EndIf()
   0()
  EndIf()
  If(1,3185,0,2000,1)
   If(1,4185,0,3,0)
    ChangeVariable(4185,4185,0,0,4)
    ShowMessageFace("radio_fc1",0,0,2,4)
    ShowMessage("\\n<Radio (Affection:\\V[3185])>取得物をひろいました……")
    250(bytes(0x04,0x08,0x6f,0x3a,0x0c,0x52,0x50,0x47,0x3a,0x3a,0x53,0x45,0x08,0x3a,0x0a,0x40,0x6e,0x61,0x6d,0x65,0x49,0x22,0x0a,0x49,0x74,0x65,0x6d,0x31,0x06,0x3a,0x06,0x45,0x54,0x3a,0x0b,0x40,0x70,0x69,0x74,0x63,0x68,0x69,0x69,0x3a,0x0c,0x40,0x76,0x6f,0x6c,0x75,0x6d,0x65,0x69,0x55))
    ChangeInventoryArmor(1691,0,0,1,false)
    0()
   EndIf()
   0()
  EndIf()
  355("actor_label_jump")
  ShowMessageFace("radio_fc1",0,0,2,5)
  ShowMessage("\\n<Radio (Affection:\\V[3185])>本日もお日柄が良好でスね。 私はラディオ、愛称はポンコツでス……")
  JumpToLabel("メニュー")
  DefineLabel("41")
  ShowMessageFace("radio_fc1",0,0,2,6)
  ShowMessage("\\n<Radio (Affection:\\V[3185])>マスター…… 14年3ヶ月18日14時間35分48秒ぶリデす……")
  ShowMessageFace("stein_fc2",2,0,2,7)
  ShowMessage("\\n<Promestein (Affection:\\V[3041])>えっ……？　私、心当たりありませんが……")
  ShowMessageFace("radio_fc1",0,0,2,8)
  ShowMessage("\\n<Radio (Affection:\\V[3185])>私もありマセん。")
  ShowMessageFace("stein_fc2",2,0,2,9)
  ShowMessage("\\n<Promestein (Affection:\\V[3041])>そ、そうですか……")
  ShowMessageFace("radio_fc1",0,0,2,10)
  ShowMessage("\\n<Radio (Affection:\\V[3185])>でも、あったよウナ気が…… 懐かしい感じガシます……")
  ShowMessageFace("stein_fc2",0,0,2,11)
  ShowMessage("\\n<Promestein (Affection:\\V[3041])>メカなのに、ずいぶんアバウトですね…… 製作者がアバウトなんでしょうか。")
  JumpToLabel("メニュー")
  DefineLabel("126")
  ShowMessageFace("radio_fc1",0,0,2,12)
  ShowMessage("\\n<Radio (Affection:\\V[3185])>こんニチは……型式はRD-0、通称ポンコツです。 お見知りオキを……")
  ShowMessageFace("XX-7_fc1",0,0,2,13)
  ShowMessage("\\n<Robin (Affection:\\V[3126])>……旧式の自律型機械生命ね。 ところでポンコツの意味を知ってる？")
  ShowMessageFace("radio_fc1",0,0,2,14)
  ShowMessage("\\n<Radio (Affection:\\V[3185])>ブタの骨デす…… スープにするとおイシい……")
  ShowMessageFace("XX-7_fc1",0,0,2,15)
  ShowMessage("\\n<Robin (Affection:\\V[3126])>ええ、確かにポンコツね…… スープにもなりそうにないし。")
  JumpToLabel("メニュー")
  DefineLabel("134")
  ShowMessageFace("radio_fc1",0,0,2,16)
  ShowMessage("\\n<Radio (Affection:\\V[3185])>あなたは、マスターとおなじにオイがします……")
  ShowMessageFace("chrom_fc2",1,0,2,17)
  ShowMessage("\\n<Chrome (Affection:\\V[3134])>お姉ちゃん…… よし、儂がお前の面倒を見てやるからな！")
  ShowMessageFace("radio_fc1",0,0,2,18)
  ShowMessage("\\n<Radio (Affection:\\V[3185])>では、さっそく働キマす…… 部屋に散らかっていた書類、全て焼却しマシた……")
  ShowMessageFace("chrom_fc1",6,0,2,19)
  ShowMessage("\\n<Chrome (Affection:\\V[3134])>このポンコツめ、スクラップにしてくれるわー！")
  JumpToLabel("メニュー")
  DefineLabel("184")
  ShowMessageFace("radio_fc1",0,0,2,20)
  ShowMessage("\\n<Radio (Affection:\\V[3185])>こんにちハハハハハ ガガ……ピー！")
  ShowMessageFace("junkdoll_fc2",0,0,2,21)
  ShowMessage("\\n<Francesca (Affection:\\V[3184])>あら、あなたもジャンクかしら……？")
  ShowMessageFace("radio_fc1",0,0,2,22)
  ShowMessage("\\n<Radio (Affection:\\V[3185])>私はポンコツです、よロシく……")
  ShowMessageFace("junkdoll_fc2",0,0,2,23)
  ShowMessage("\\n<Francesca (Affection:\\V[3184])>ジャンクの方が、まだ良い響きね…… ちょっと同情するわ……")
  JumpToLabel("メニュー")
  DefineLabel("525")
  ShowMessageFace("radio_fc1",0,0,2,24)
  ShowMessage("\\n<Radio (Affection:\\V[3185])>ソニア様……")
  ShowMessageFace("sonia_fc1",0,0,2,25)
  ShowMessage("\\n<Sonya (Affection:\\V[3525])>ソニアでいいわよ、ラディオちゃん。 私達は仲間なんだから。")
  ShowMessageFace("radio_fc1",0,0,2,26)
  ShowMessage("\\n<Radio (Affection:\\V[3185])>では私の事は、ポンコツと及びくダサい。 親しい方は、そう呼んでいマシた……")
  ShowMessageFace("sonia_fc4",0,0,2,27)
  ShowMessage("\\n<Sonya (Affection:\\V[3525])>それ、本当に親しかったの……？")
  JumpToLabel("メニュー")
  DefineLabel("メニュー")
  StartLoop()
   355("unlimited_choices(11, [\"Give presents\",")
   655("\"Add to party\",")
   655("\"View present list\",\"Make a request\",")
   655("\"Never mind\"])")
   If(1,11,0,0,0)
    355("present_start(185)")
    0()
   EndIf()
   If(1,11,0,1,0)
    PictureClear(5)
    355("move_actor_ex(185)")
    EndEventProcessing()
    0()
   EndIf()
   If(1,11,0,2,0)
    ShowMessageFace("",0,0,2,28)
    ShowMessage("Affection   10:\\ii[9]")
    ShowMessage("Affection  100:\\ia[1100]")
    ShowMessage("Affection  500:\\ia[1357]")
    ShowMessage("Affection 2000:\\ia[1691]")
    0()
   EndIf()
   If(1,11,0,3,0)
    PictureClear(5)
    ShowMessageFace("",0,0,2,29)
    ShowMessage("Ask her for what? (Affection:\\V[3185])")
    ShowChoices(strings("Onahole(Affection:10)","Never mind"),2)
    IfPlayerPicksChoice(0,null)
     If(1,3185,0,10,1)
      355("call_novel_scene(4726)")
      EndEventProcessing()
      0()
     Else()
      ShowMessageFace("radio_fc1",0,0,2,30)
      ShowMessage("\\n<Radio (Affection:\\V[3185])>ご希望に沿いかねマセん……")
      0()
     EndIf()
     0()
    IfPlayerPicksChoice(1,null)
     0()
    404()
    0()
   EndIf()
   If(1,11,0,4,1)
    PictureClear(5)
    EndEventProcessing()
    0()
   EndIf()
   0()
  EndLoop()
  0()
 PAGE   2
  // condition: party contains actor #185
  0()



EVENT   22
 PAGE   1
  // condition: switch 1135 is ON
  PictureDisplay(5,"80_frederika_st02",0,0,0,0,100,100,0,0)
  PictureMove(5,null,0,0,0,0,100,100,255,0,30,true)
  If(1,3135,0,10,1)
   If(1,4135,0,0,0)
    ChangeVariable(4135,4135,0,0,1)
    ShowMessageFace("frederika_fc1",0,0,2,1)
    ShowMessage("\\n<Frederica (Affection:\\V[3135])>世話になっている礼だ……")
    250(bytes(0x04,0x08,0x6f,0x3a,0x0c,0x52,0x50,0x47,0x3a,0x3a,0x53,0x45,0x08,0x3a,0x0a,0x40,0x6e,0x61,0x6d,0x65,0x49,0x22,0x0a,0x49,0x74,0x65,0x6d,0x31,0x06,0x3a,0x06,0x45,0x54,0x3a,0x0b,0x40,0x70,0x69,0x74,0x63,0x68,0x69,0x69,0x3a,0x0c,0x40,0x76,0x6f,0x6c,0x75,0x6d,0x65,0x69,0x55))
    ChangeInventoryArmor(37,0,0,1,false)
    0()
   EndIf()
   0()
  EndIf()
  If(1,3135,0,100,1)
   If(1,4135,0,1,0)
    ChangeVariable(4135,4135,0,0,2)
    ShowMessageFace("frederika_fc1",0,0,2,2)
    ShowMessage("\\n<Frederica (Affection:\\V[3135])>世話になっている礼だ……")
    250(bytes(0x04,0x08,0x6f,0x3a,0x0c,0x52,0x50,0x47,0x3a,0x3a,0x53,0x45,0x08,0x3a,0x0a,0x40,0x6e,0x61,0x6d,0x65,0x49,0x22,0x0a,0x49,0x74,0x65,0x6d,0x31,0x06,0x3a,0x06,0x45,0x54,0x3a,0x0b,0x40,0x70,0x69,0x74,0x63,0x68,0x69,0x69,0x3a,0x0c,0x40,0x76,0x6f,0x6c,0x75,0x6d,0x65,0x69,0x55))
    ChangeInventoryArmor(1001,0,0,1,false)
    0()
   EndIf()
   0()
  EndIf()
  If(1,3135,0,500,1)
   If(1,4135,0,2,0)
    ChangeVariable(4135,4135,0,0,3)
    ShowMessageFace("frederika_fc1",0,0,2,3)
    ShowMessage("\\n<Frederica (Affection:\\V[3135])>世話になっている礼だ……")
    250(bytes(0x04,0x08,0x6f,0x3a,0x0c,0x52,0x50,0x47,0x3a,0x3a,0x53,0x45,0x08,0x3a,0x0a,0x40,0x6e,0x61,0x6d,0x65,0x49,0x22,0x0a,0x49,0x74,0x65,0x6d,0x31,0x06,0x3a,0x06,0x45,0x54,0x3a,0x0b,0x40,0x70,0x69,0x74,0x63,0x68,0x69,0x69,0x3a,0x0c,0x40,0x76,0x6f,0x6c,0x75,0x6d,0x65,0x69,0x55))
    ChangeInventoryArmor(1399,0,0,1,false)
    0()
   EndIf()
   0()
  EndIf()
  If(1,3135,0,2000,1)
   If(1,4135,0,3,0)
    ChangeVariable(4135,4135,0,0,4)
    ShowMessageFace("frederika_fc1",0,0,2,4)
    ShowMessage("\\n<Frederica (Affection:\\V[3135])>世話になっている礼だ……")
    250(bytes(0x04,0x08,0x6f,0x3a,0x0c,0x52,0x50,0x47,0x3a,0x3a,0x53,0x45,0x08,0x3a,0x0a,0x40,0x6e,0x61,0x6d,0x65,0x49,0x22,0x0a,0x49,0x74,0x65,0x6d,0x31,0x06,0x3a,0x06,0x45,0x54,0x3a,0x0b,0x40,0x70,0x69,0x74,0x63,0x68,0x69,0x69,0x3a,0x0c,0x40,0x76,0x6f,0x6c,0x75,0x6d,0x65,0x69,0x55))
    ChangeInventoryArmor(1067,0,0,1,false)
    0()
   EndIf()
   0()
  EndIf()
  355("actor_label_jump")
  ShowMessageFace("frederika_fc1",0,0,2,5)
  ShowMessage("\\n<Frederica (Affection:\\V[3135])>クロム、昨日も風呂に入ってない…… ゴハンも食べ忘れたんじゃないか……？")
  JumpToLabel("メニュー")
  DefineLabel("72")
  ShowMessageFace("phoenix_fc1",3,0,2,6)
  ShowMessage("\\n<Mini (Affection:\\V[3072])>お前、ゾンビなのか…… 死んじゃったんだな……")
  ShowMessageFace("frederika_fc1",0,0,2,7)
  ShowMessage("\\n<Frederica (Affection:\\V[3135])>私は、自分の生に満足した…… お前も、後悔のないように生きろ……")
  ShowMessageFace("phoenix_fc1",4,0,2,8)
  ShowMessage("\\n<Mini (Affection:\\V[3072])>あたしはフェニックスだから、死なないぞ。 フェニックスのゾンビなんて、インチキだぞ。")
  ShowMessageFace("frederika_fc1",0,0,2,9)
  ShowMessage("\\n<Frederica (Affection:\\V[3135])>そうか…… 生の輪廻から抜け出せないのも、辛かろう……")
  JumpToLabel("メニュー")
  DefineLabel("134")
  ShowMessageFace("frederika_fc1",0,0,2,10)
  ShowMessage("\\n<Frederica (Affection:\\V[3135])>クロム、ちゃんと歯は磨いたか…… いつか虫歯になるぞ……")
  ShowMessageFace("chrom_fc2",5,0,2,11)
  ShowMessage("\\n<Chrome (Affection:\\V[3134])>ガミガミうるさい、フレデリカ！ 虫歯になったら、自分でつくるわ！")
  ShowMessageFace("frederika_fc1",0,0,2,12)
  ShowMessage("\\n<Frederica (Affection:\\V[3135])>ご飯は食べたか？　風呂に入ったか……？ 宿題したか……？")
  ShowMessageFace("chrom_fc2",5,0,2,13)
  ShowMessage("\\n<Chrome (Affection:\\V[3134])>メシは後でまとめて食う！　風呂もじゃ！ ……宿題？")
  JumpToLabel("メニュー")
  DefineLabel("184")
  ShowMessageFace("frederika_fc1",0,0,2,14)
  ShowMessage("\\n<Frederica (Affection:\\V[3135])>この人形の山は…… またしてもクロムのせいか……")
  ShowMessageFace("junkdoll_fc2",0,0,2,15)
  ShowMessage("\\n<Francesca (Affection:\\V[3184])>何だか知らないけど、違うわ…… 私はジャンクドール、こういう存在よ。")
  ShowMessageFace("frederika_fc1",0,0,2,16)
  ShowMessage("\\n<Frederica (Affection:\\V[3135])>それは失礼した…… クロムが放り出した人形の山が、魔物化したと思った……")
  ShowMessageFace("junkdoll_fc2",0,0,2,17)
  ShowMessage("\\n<Francesca (Affection:\\V[3184])>おおかた、普段からそんなことばかりしてるんでしょう。 困った子ね……")
  ShowMessageFace("frederika_fc1",0,0,2,18)
  ShowMessage("\\n<Frederica (Affection:\\V[3135])>まったくだ……")
  JumpToLabel("メニュー")
  DefineLabel("メニュー")
  StartLoop()
   355("unlimited_choices(11, [\"Give presents\",")
   655("\"Add to party\",")
   655("\"View present list\",\"Request\",")
   655("\"Never mind\"])")
   If(1,11,0,0,0)
    355("present_start(135)")
    0()
   EndIf()
   If(1,11,0,1,0)
    PictureClear(5)
    355("move_actor_ex(135)")
    EndEventProcessing()
    0()
   EndIf()
   If(1,11,0,2,0)
    ShowMessageFace("",0,0,2,19)
    ShowMessage("Affection   10:\\ia[37]")
    ShowMessage("Affection  100:\\ia[1001]")
    ShowMessage("Affection  500:\\ia[1399]")
    ShowMessage("Affection 2000:\\ia[1067]")
    0()
   EndIf()
   If(1,11,0,3,0)
    PictureClear(5)
    ShowMessageFace("",0,0,2,20)
    ShowMessage("Ask her for what? (Affection:\\V[3135])")
    ShowChoices(strings("Paizuri(Affection:10)","Reverse rape(Affection:100)","Never mind"),3)
    IfPlayerPicksChoice(0,null)
     If(1,3135,0,10,1)
      355("call_novel_scene(4471)")
      EndEventProcessing()
      0()
     Else()
      ShowMessageFace("frederika_fc1",0,0,2,21)
      ShowMessage("\\n<Frederica (Affection:\\V[3135])>体のメンテナンスがある……また今度……")
      0()
     EndIf()
     0()
    IfPlayerPicksChoice(1,null)
     If(1,3135,0,100,1)
      355("call_novel_scene(4472)")
      EndEventProcessing()
      0()
     Else()
      ShowMessageFace("frederika_fc1",0,0,2,22)
      ShowMessage("\\n<Frederica (Affection:\\V[3135])>体のメンテナンスがある……また今度……")
      0()
     EndIf()
     0()
    IfPlayerPicksChoice(2,null)
     0()
    404()
    0()
   EndIf()
   If(1,11,0,4,1)
    PictureClear(5)
    EndEventProcessing()
    0()
   EndIf()
   0()
  EndLoop()
  0()
 PAGE   2
  // condition: party contains actor #135
  0()



EVENT   23
 PAGE   1
  // condition: switch 1134 is ON
  PictureDisplay(5,"80_chrom_st01",0,0,0,0,100,100,0,0)
  PictureMove(5,null,0,0,0,0,100,100,255,0,30,true)
  If(1,3134,0,10,1)
   If(1,4134,0,0,0)
    ChangeVariable(4134,4134,0,0,1)
    ShowMessageFace("chrom_fc2",0,0,2,1)
    ShowMessage("\\n<Chrome (Affection:\\V[3134])>儂からのプレゼントじゃ！")
    250(bytes(0x04,0x08,0x6f,0x3a,0x0c,0x52,0x50,0x47,0x3a,0x3a,0x53,0x45,0x08,0x3a,0x0a,0x40,0x6e,0x61,0x6d,0x65,0x49,0x22,0x0a,0x49,0x74,0x65,0x6d,0x31,0x06,0x3a,0x06,0x45,0x54,0x3a,0x0b,0x40,0x70,0x69,0x74,0x63,0x68,0x69,0x69,0x3a,0x0c,0x40,0x76,0x6f,0x6c,0x75,0x6d,0x65,0x69,0x55))
    ChangeInventoryArmor(241,0,0,1,false)
    0()
   EndIf()
   0()
  EndIf()
  If(1,3134,0,100,1)
   If(1,4134,0,1,0)
    ChangeVariable(4134,4134,0,0,2)
    ShowMessageFace("chrom_fc2",0,0,2,2)
    ShowMessage("\\n<Chrome (Affection:\\V[3134])>儂からのプレゼントじゃ！")
    250(bytes(0x04,0x08,0x6f,0x3a,0x0c,0x52,0x50,0x47,0x3a,0x3a,0x53,0x45,0x08,0x3a,0x0a,0x40,0x6e,0x61,0x6d,0x65,0x49,0x22,0x0a,0x49,0x74,0x65,0x6d,0x31,0x06,0x3a,0x06,0x45,0x54,0x3a,0x0b,0x40,0x70,0x69,0x74,0x63,0x68,0x69,0x69,0x3a,0x0c,0x40,0x76,0x6f,0x6c,0x75,0x6d,0x65,0x69,0x55))
    ChangeInventoryArmor(1100,0,0,1,false)
    0()
   EndIf()
   0()
  EndIf()
  If(1,3134,0,500,1)
   If(1,4134,0,2,0)
    ChangeVariable(4134,4134,0,0,3)
    ShowMessageFace("chrom_fc2",0,0,2,3)
    ShowMessage("\\n<Chrome (Affection:\\V[3134])>儂からのプレゼントじゃ！")
    250(bytes(0x04,0x08,0x6f,0x3a,0x0c,0x52,0x50,0x47,0x3a,0x3a,0x53,0x45,0x08,0x3a,0x0a,0x40,0x6e,0x61,0x6d,0x65,0x49,0x22,0x0a,0x49,0x74,0x65,0x6d,0x31,0x06,0x3a,0x06,0x45,0x54,0x3a,0x0b,0x40,0x70,0x69,0x74,0x63,0x68,0x69,0x69,0x3a,0x0c,0x40,0x76,0x6f,0x6c,0x75,0x6d,0x65,0x69,0x55))
    ChangeInventoryArmor(1345,0,0,1,false)
    0()
   EndIf()
   0()
  EndIf()
  If(1,3134,0,2000,1)
   If(1,4134,0,3,0)
    ChangeVariable(4134,4134,0,0,4)
    ShowMessageFace("chrom_fc2",0,0,2,4)
    ShowMessage("\\n<Chrome (Affection:\\V[3134])>儂からのプレゼントじゃ！")
    250(bytes(0x04,0x08,0x6f,0x3a,0x0c,0x52,0x50,0x47,0x3a,0x3a,0x53,0x45,0x08,0x3a,0x0a,0x40,0x6e,0x61,0x6d,0x65,0x49,0x22,0x0a,0x49,0x74,0x65,0x6d,0x31,0x06,0x3a,0x06,0x45,0x54,0x3a,0x0b,0x40,0x70,0x69,0x74,0x63,0x68,0x69,0x69,0x3a,0x0c,0x40,0x76,0x6f,0x6c,0x75,0x6d,0x65,0x69,0x55))
    ChangeInventoryArmor(1077,0,0,1,false)
    0()
   EndIf()
   0()
  EndIf()
  355("actor_label_jump")
  ShowMessageFace("chrom_fc2",0,0,2,5)
  ShowMessage("\\n<Chrome (Affection:\\V[3134])>そういえば、ゴハンを忘れていたような…… 最後に食べたのは、3日前だったか？")
  JumpToLabel("メニュー")
  DefineLabel("41")
  ShowMessageFace("chrom_fc2",0,0,2,6)
  ShowMessage("\\n<Chrome (Affection:\\V[3134])>儂はクロム、ゾンビの求道者じゃ！")
  ShowMessageFace("stein_fc2",0,0,2,7)
  ShowMessage("\\n<Promestein (Affection:\\V[3041])>なるほど……意外に堅実な技術ですね。 もっとメチャクチャかと思っていました。")
  ShowMessageFace("chrom_fc2",1,0,2,8)
  ShowMessage("\\n<Chrome (Affection:\\V[3134])>失礼な……姉上の指導の元、 アルテイスト家の伝統技術を授けられているのじゃぞ。")
  ShowMessageFace("stein_fc2",0,0,2,9)
  ShowMessage("\\n<Promestein (Affection:\\V[3041])>あっ、ゾンビの腕が左右逆に…… なんだか根本的なところで大雑把なんですね。")
  JumpToLabel("メニュー")
  DefineLabel("118")
  ShowMessageFace("chrom_fc2",0,0,2,10)
  ShowMessage("\\n<Chrome (Affection:\\V[3134])>むっ、人魚か…… 新鮮な人魚の死体があれば、譲ってほしいのじゃ。")
  ShowMessageFace("meia_fc1",3,0,2,11)
  ShowMessage("\\n<Meia (Affection:\\V[3118])>そ、そんな……なんて事を！")
  ShowMessageFace("chrom_fc2",3,0,2,12)
  ShowMessage("\\n<Chrome (Affection:\\V[3134])>冗談じゃ、くくくっ……")
  ShowMessageFace("meia_fc1",1,0,2,13)
  ShowMessage("\\n<Meia (Affection:\\V[3118])>では、新鮮な少年の死体と交換でどうですか？？")
  ShowMessageFace("chrom_fc1",6,0,2,14)
  ShowMessage("\\n<Chrome (Affection:\\V[3134])>…………！？")
  ShowMessageFace("meia_fc1",3,0,2,15)
  ShowMessage("\\n<Meia (Affection:\\V[3118])>冗談ですよ、ふふふっ……")
  JumpToLabel("メニュー")
  DefineLabel("131")
  ShowMessageFace("doll_fc1",0,0,2,16)
  ShowMessage("\\n<Miyabi (Affection:\\V[3131])>クロムちゃん、あそぼ……")
  ShowMessageFace("chrom_fc2",3,0,2,17)
  ShowMessage("\\n<Chrome (Affection:\\V[3134])>うむ、人形遊びか。 それでは、みやび重装型として生まれ変わるのじゃ！")
  ShowMessageFace("sonia_fc2",5,0,2,18)
  ShowMessage("\\n<Sonya>遊びすぎ！")
  JumpToLabel("メニュー")
  DefineLabel("133")
  ShowMessageFace("zonbe_fc3",3,0,2,19)
  ShowMessage("\\n<Zombies (Affection:\\V[3133])>あぅぅ……クロ、ム……")
  ShowMessageFace("chrom_fc2",0,0,2,20)
  ShowMessage("\\n<Chrome (Affection:\\V[3134])>おお、お前達か。 体の調子はどうじゃ？")
  ShowMessageFace("zonbe_fc3",1,0,2,21)
  ShowMessage("\\n<Zombies (Affection:\\V[3133])>ぉぅぃぇ……")
  ShowMessageFace("chrom_fc2",0,0,2,22)
  ShowMessage("\\n<Chrome (Affection:\\V[3134])>うむ、精神面は良好じゃな。 それでは、定期メンテナンスじゃ……")
  ShowMessageFace("sonia_fc1",0,0,2,23)
  ShowMessage("\\n<Sonya>（意外としっかり面倒見てるんだ……)")
  ShowMessageFace("chrom_fc2",1,0,2,24)
  ShowMessage("\\n<Chrome (Affection:\\V[3134])>みんな合体させて、ゾンビ玉とか作りたいのじゃ！")
  ShowMessageFace("sonia_fc4",0,0,2,25)
  ShowMessage("\\n<Sonya>（やっぱり懲りてないや……)")
  JumpToLabel("メニュー")
  DefineLabel("135")
  ShowMessageFace("frederika_fc1",0,0,2,26)
  ShowMessage("\\n<Frederica (Affection:\\V[3135])>クロム、ちゃんと歯は磨いたか…… いつか虫歯になるぞ……")
  ShowMessageFace("chrom_fc2",5,0,2,27)
  ShowMessage("\\n<Chrome (Affection:\\V[3134])>ガミガミうるさい、フレデリカ！ 虫歯になったら、自分でつくるわ！")
  ShowMessageFace("frederika_fc1",0,0,2,28)
  ShowMessage("\\n<Frederica (Affection:\\V[3135])>ご飯は食べたか？　風呂に入ったか……？ 宿題したか……？")
  ShowMessageFace("chrom_fc2",5,0,2,29)
  ShowMessage("\\n<Chrome (Affection:\\V[3134])>メシは後でまとめて食う！　風呂もじゃ！ ……宿題？")
  JumpToLabel("メニュー")
  DefineLabel("143")
  ShowMessageFace("eva_fc1",2,0,2,30)
  ShowMessage("\\n<Eva (Affection:\\V[3143])>ねぇ、墓荒しってもうかるの？")
  ShowMessageFace("chrom_fc2",0,0,2,31)
  ShowMessage("\\n<Chrome (Affection:\\V[3134])>少し前なら金も出したが…… 今は、ゾンビ製作を禁止されている身なのじゃ。")
  ShowMessageFace("eva_fc1",2,0,2,32)
  ShowMessage("\\n<Eva (Affection:\\V[3143])>やっぱり、楽してお金は稼げないか……")
  ShowMessageFace("chrom_fc2",5,0,2,33)
  ShowMessage("\\n<Chrome (Affection:\\V[3134])>墓荒しって、すさまじく力仕事じゃぞ……")
  JumpToLabel("メニュー")
  DefineLabel("155")
  ShowMessageFace("saki_fc1",0,0,2,34)
  ShowMessage("\\n<Saki (Affection:\\V[3155])>クロムちゃんって、サキュバスなんだよね。 歌って踊って、男の人を魅了しようとか思わないの？")
  ShowMessageFace("chrom_fc2",5,0,2,35)
  ShowMessage("\\n<Chrome (Affection:\\V[3134])>興味ないのじゃ。 儂、ちんちくりんだし……")
  ShowMessageFace("saki_fc1",3,0,2,36)
  ShowMessage("\\n<Saki (Affection:\\V[3155])>ロリアイドルって手もあるじゃん♪ ……キラッ☆")
  ShowMessageFace("chrom_fc2",2,0,2,37)
  ShowMessage("\\n<Chrome (Affection:\\V[3134])>……のじゃっ☆")
  JumpToLabel("メニュー")
  DefineLabel("163")
  ShowMessageFace("chrom_fc2",1,0,2,38)
  ShowMessage("\\n<Chrome (Affection:\\V[3134])>ゆけ、ゾンビよ！")
  ShowMessageFace("zonbe_fc3",0,0,2,39)
  ShowMessage("\\n<Zombie>フンガー！")
  ShowMessageFace("lily_fc1",5,0,2,40)
  ShowMessage("\\n<Lily (Affection:\\V[3163])>このような少女が、ゾンビと遊んでいるなんて…… なんという境遇、親は何をしているのかしら？")
  ShowMessageFace("chrom_fc2",5,0,2,41)
  ShowMessage("\\n<Chrome (Affection:\\V[3134])>儂、お前より年上じゃぞ……5倍くらい。")
  ShowMessageFace("lily_fc1",5,0,2,42)
  ShowMessage("\\n<Lily (Affection:\\V[3163])>私の5倍って……そんな、85歳！？")
  ShowMessageFace("chrom_fc2",5,0,2,43)
  ShowMessage("\\n<Chrome (Affection:\\V[3134])>なぜそこでサバを読むのじゃ……？")
  JumpToLabel("メニュー")
  DefineLabel("181")
  ShowMessageFace("chrom_fc2",0,0,2,44)
  ShowMessage("\\n<Chrome (Affection:\\V[3134])>むっ、絵画の亡霊か…… 儂の屋敷にも、似たようなのが湧いたのう。")
  ShowMessageFace("gaistvine_fc1",0,0,2,45)
  ShowMessage("\\n<Lisa (Affection:\\V[3181])>芸術と幽霊は相性が良いのよ…… 魂を絵に塗り込むからね……")
  ShowMessageFace("chrom_fc2",1,0,2,46)
  ShowMessage("\\n<Chrome (Affection:\\V[3134])>アーティストとは、そういうものじゃ。 己の作品に魂を捧げるものよ……")
  ShowMessageFace("gaistvine_fc1",0,0,2,47)
  ShowMessage("\\n<Lisa (Affection:\\V[3181])>あなた、熱いパトスを感じるわね…… 見た目はちんちくりんだけれど……")
  JumpToLabel("メニュー")
  DefineLabel("185")
  ShowMessageFace("radio_fc1",0,0,2,48)
  ShowMessage("\\n<Radio (Affection:\\V[3185])>あなたは、マスターとおなじにオイがします……")
  ShowMessageFace("chrom_fc2",1,0,2,49)
  ShowMessage("\\n<Chrome (Affection:\\V[3134])>お姉ちゃん…… よし、儂がお前の面倒を見てやるからな！")
  ShowMessageFace("radio_fc1",0,0,2,50)
  ShowMessage("\\n<Radio (Affection:\\V[3185])>では、さっそく働キマす…… 部屋に散らかっていた書類、全て焼却しマシた……")
  ShowMessageFace("chrom_fc1",6,0,2,51)
  ShowMessage("\\n<Chrome (Affection:\\V[3134])>このポンコツめ、スクラップにしてくれるわー！")
  JumpToLabel("メニュー")
  DefineLabel("メニュー")
  StartLoop()
   355("unlimited_choices(11, [\"Give presents\",")
   655("\"Add to party\",")
   655("\"View present list\",\"Make a request\",")
   655("\"Never mind\"])")
   If(1,11,0,0,0)
    355("present_start(134)")
    0()
   EndIf()
   If(1,11,0,1,0)
    PictureClear(5)
    355("move_actor_ex(134)")
    EndEventProcessing()
    0()
   EndIf()
   If(1,11,0,2,0)
    ShowMessageFace("",0,0,2,52)
    ShowMessage("Affection   10:\\ia[241]")
    ShowMessage("Affection  100:\\ia[1100]")
    ShowMessage("Affection  500:\\ia[1345]")
    ShowMessage("Affection 2000:\\ia[1077]")
    0()
   EndIf()
   If(1,11,0,3,0)
    PictureClear(5)
    ShowMessageFace("",0,0,2,53)
    ShowMessage("Ask her for what? (Affection:\\V[3134])")
    ShowChoices(strings("Handjob(Affection:10)","Reverse rape(Affection:100)","Never mind"),3)
    IfPlayerPicksChoice(0,null)
     If(1,3134,0,10,1)
      355("call_novel_scene(4466)")
      EndEventProcessing()
      0()
     Else()
      ShowMessageFace("chrom_fc2",0,0,2,54)
      ShowMessage("\\n<Chrome (Affection:\\V[3134])>今は研究で手が回らんのじゃ。 もう少し待て……")
      0()
     EndIf()
     0()
    IfPlayerPicksChoice(1,null)
     If(1,3134,0,100,1)
      355("call_novel_scene(4467)")
      EndEventProcessing()
      0()
     Else()
      ShowMessageFace("chrom_fc2",0,0,2,55)
      ShowMessage("\\n<Chrome (Affection:\\V[3134])>今は研究で手が回らんのじゃ。 もう少し待て……")
      0()
     EndIf()
     0()
    IfPlayerPicksChoice(2,null)
     0()
    404()
    0()
   EndIf()
   If(1,11,0,4,1)
    PictureClear(5)
    EndEventProcessing()
    0()
   EndIf()
   0()
  EndLoop()
  0()
 PAGE   2
  // condition: party contains actor #134
  0()



EVENT   18
 PAGE   1
  // condition: switch 1159 is ON
  PictureDisplay(5,"80_ironmaiden_st01",0,0,0,0,100,100,0,0)
  PictureMove(5,null,0,0,0,0,100,100,255,0,30,true)
  If(1,3159,0,10,1)
   If(1,4159,0,0,0)
    ChangeVariable(4159,4159,0,0,1)
    ShowMessageFace("ironmaiden_fc1",0,0,2,1)
    ShowMessage("\\n<Maiden (Affection:\\V[3159])>……………………")
    250(bytes(0x04,0x08,0x6f,0x3a,0x0c,0x52,0x50,0x47,0x3a,0x3a,0x53,0x45,0x08,0x3a,0x0a,0x40,0x6e,0x61,0x6d,0x65,0x49,0x22,0x0a,0x49,0x74,0x65,0x6d,0x31,0x06,0x3a,0x06,0x45,0x54,0x3a,0x0b,0x40,0x70,0x69,0x74,0x63,0x68,0x69,0x69,0x3a,0x0c,0x40,0x76,0x6f,0x6c,0x75,0x6d,0x65,0x69,0x55))
    ChangeInventory_Item(5,0,0,1)
    0()
   EndIf()
   0()
  EndIf()
  If(1,3159,0,100,1)
   If(1,4159,0,1,0)
    ChangeVariable(4159,4159,0,0,2)
    ShowMessageFace("ironmaiden_fc1",0,0,2,2)
    ShowMessage("\\n<Maiden (Affection:\\V[3159])>……………………")
    250(bytes(0x04,0x08,0x6f,0x3a,0x0c,0x52,0x50,0x47,0x3a,0x3a,0x53,0x45,0x08,0x3a,0x0a,0x40,0x6e,0x61,0x6d,0x65,0x49,0x22,0x0a,0x49,0x74,0x65,0x6d,0x31,0x06,0x3a,0x06,0x45,0x54,0x3a,0x0b,0x40,0x70,0x69,0x74,0x63,0x68,0x69,0x69,0x3a,0x0c,0x40,0x76,0x6f,0x6c,0x75,0x6d,0x65,0x69,0x55))
    ChangeInventoryArmor(1006,0,0,1,false)
    0()
   EndIf()
   0()
  EndIf()
  If(1,3159,0,500,1)
   If(1,4159,0,2,0)
    ChangeVariable(4159,4159,0,0,3)
    ShowMessageFace("ironmaiden_fc1",0,0,2,3)
    ShowMessage("\\n<Maiden (Affection:\\V[3159])>……………………")
    250(bytes(0x04,0x08,0x6f,0x3a,0x0c,0x52,0x50,0x47,0x3a,0x3a,0x53,0x45,0x08,0x3a,0x0a,0x40,0x6e,0x61,0x6d,0x65,0x49,0x22,0x0a,0x49,0x74,0x65,0x6d,0x31,0x06,0x3a,0x06,0x45,0x54,0x3a,0x0b,0x40,0x70,0x69,0x74,0x63,0x68,0x69,0x69,0x3a,0x0c,0x40,0x76,0x6f,0x6c,0x75,0x6d,0x65,0x69,0x55))
    ChangeInventoryArmor(1543,0,0,1,false)
    0()
   EndIf()
   0()
  EndIf()
  If(1,3159,0,2000,1)
   If(1,4159,0,3,0)
    ChangeVariable(4159,4159,0,0,4)
    ShowMessageFace("ironmaiden_fc1",0,0,2,4)
    ShowMessage("\\n<Maiden (Affection:\\V[3159])>……………………")
    250(bytes(0x04,0x08,0x6f,0x3a,0x0c,0x52,0x50,0x47,0x3a,0x3a,0x53,0x45,0x08,0x3a,0x0a,0x40,0x6e,0x61,0x6d,0x65,0x49,0x22,0x0a,0x49,0x74,0x65,0x6d,0x31,0x06,0x3a,0x06,0x45,0x54,0x3a,0x0b,0x40,0x70,0x69,0x74,0x63,0x68,0x69,0x69,0x3a,0x0c,0x40,0x76,0x6f,0x6c,0x75,0x6d,0x65,0x69,0x55))
    ChangeInventoryArmor(1023,0,0,1,false)
    0()
   EndIf()
   0()
  EndIf()
  355("actor_label_jump")
  ShowMessageFace("ironmaiden_fc1",0,0,2,5)
  ShowMessage("\\n<Maiden (Affection:\\V[3159])>……………………")
  JumpToLabel("メニュー")
  DefineLabel("142")
  ShowMessageFace("bander_fc1",0,0,2,6)
  ShowMessage("\\n<Banachi (Affection:\\V[3142])>これは……魔導具の魔物か。 喋れないのか……？")
  ShowMessageFace("ironmaiden_fc1",0,0,2,7)
  ShowMessage("\\n<Maiden (Affection:\\V[3159])>……………………")
  ShowMessageFace("bander_fc1",0,0,2,8)
  ShowMessage("\\n<Banachi (Affection:\\V[3142])>言葉を教えてやろうか……？")
  ShowMessageFace("ironmaiden_fc1",0,0,2,9)
  ShowMessage("\\n<Maiden (Affection:\\V[3159])>……………………")
  ShowMessageFace("bander_fc1",0,0,2,10)
  ShowMessage("\\n<Banachi (Affection:\\V[3142])>ほら、この果物を見ろ。 これはリンゴだ。リ、ン、ゴ……")
  ShowMessageFace("ironmaiden_fc1",0,0,2,11)
  ShowMessage("\\n<Maiden (Affection:\\V[3159])>……………………")
  ShowMessageFace("bander_fc1",0,0,2,12)
  ShowMessage("\\n<Banachi (Affection:\\V[3142])>ダメか……")
  ShowMessageFace("ironmaiden_fc1",0,0,2,13)
  ShowMessage("\\n<Maiden (Affection:\\V[3159])>お腹空いたから、そのリンゴくれない？")
  ShowMessageFace("bander_fc1",2,0,2,14)
  ShowMessage("\\n<Banachi (Affection:\\V[3142])>…………！？")
  JumpToLabel("メニュー")
  DefineLabel("163")
  ShowMessageFace("ironmaiden_fc1",0,0,2,15)
  ShowMessage("\\n<Maiden (Affection:\\V[3159])>……………………")
  ShowMessageFace("lily_fc1",3,0,2,16)
  ShowMessage("\\n<Lily (Affection:\\V[3163])>多くの男の精を吸わせたから…… そろそろ、霊性が宿って喋ってもいいのだけど……")
  ShowMessageFace("ironmaiden_fc1",0,0,2,17)
  ShowMessage("\\n<Maiden (Affection:\\V[3159])>……………………")
  ShowMessageFace("lily_fc1",3,0,2,18)
  ShowMessage("\\n<Lily (Affection:\\V[3163])>もう少し、精の搾取が必要かしら……？ たっぷり与えてあげないとね。")
  ShowMessageFace("ironmaiden_fc1",0,0,2,19)
  ShowMessage("\\n<Maiden (Affection:\\V[3159])>（餌をもらえるうちは、黙っていよう……)")
  JumpToLabel("メニュー")
  DefineLabel("165")
  ShowMessageFace("onaho_fc1",0,0,2,20)
  ShowMessage("\\n<Naho (Affection:\\V[3165])>おや、あなたも搾精器具の役割があるのですか。 奇遇ですね、仲良くしましょう！")
  ShowMessageFace("ironmaiden_fc1",0,0,2,21)
  ShowMessage("\\n<Maiden (Affection:\\V[3159])>……………………")
  ShowMessageFace("onaho_fc1",0,0,2,22)
  ShowMessage("\\n<Naho (Affection:\\V[3165])>そんなに黙って、お腹でも減っているんですか……？ ちょっと中を拝見……")
  ShowMessageFace("ironmaiden_fc1",0,0,2,23)
  ShowMessage("\\n<Maiden (Affection:\\V[3159])>……………………")
  ShowMessageFace("onaho_fc1",0,0,2,24)
  ShowMessage("\\n<Naho (Affection:\\V[3165])>あっ、蓋が閉まって……！ ひゃぁぁぁぁ……！！")
  JumpToLabel("メニュー")
  DefineLabel("183")
  ShowMessageFace("ironmaiden_k_fc1",0,0,2,25)
  ShowMessage("\\n<Torture (Affection:\\V[3183])>罪人め……私には分かる…… お前は周囲をたばかっているだろう……")
  ShowMessageFace("ironmaiden_fc1",0,0,2,26)
  ShowMessage("\\n<Maiden (Affection:\\V[3159])>私がしゃべれるの、ばれてた……")
  ShowMessageFace("ironmaiden_k_fc1",0,0,2,27)
  ShowMessage("\\n<Torture (Affection:\\V[3183])>自律しているのが分かれば、世話をしてもらえない…… それゆえに、周囲を欺いたか……")
  ShowMessageFace("ironmaiden_fc1",0,0,2,28)
  ShowMessage("\\n<Maiden (Affection:\\V[3159])>どうか、お許しを……")
  ShowMessageFace("sonia_fc4",0,0,2,29)
  ShowMessage("\\n<Sonya>（拷問具にも上下関係があるんだ……)")
  JumpToLabel("メニュー")
  DefineLabel("メニュー")
  StartLoop()
   355("unlimited_choices(11, [\"Give presents\",")
   655("\"Add to party\",")
   655("\"View present list\",\"Make a request\",")
   655("\"Never mind\"])")
   If(1,11,0,0,0)
    355("present_start(159)")
    0()
   EndIf()
   If(1,11,0,1,0)
    PictureClear(5)
    355("move_actor_ex(159)")
    EndEventProcessing()
    0()
   EndIf()
   If(1,11,0,2,0)
    ShowMessageFace("",0,0,2,30)
    ShowMessage("Affection   10:\\ia[5]")
    ShowMessage("Affection  100:\\ia[1006]")
    ShowMessage("Affection  500:\\ia[1543]")
    ShowMessage("Affection 2000:\\ia[1023]")
    0()
   EndIf()
   If(1,11,0,3,0)
    PictureClear(5)
    ShowMessageFace("",0,0,2,31)
    ShowMessage("Ask her for what? (Affection:\\V[3159])")
    ShowChoices(strings("Death by pleasure(Affection:10)","Death by pleasure...?(Affection:100)","Never mind"),3)
    IfPlayerPicksChoice(0,null)
     If(1,3159,0,10,1)
      355("call_novel_scene(4596)")
      EndEventProcessing()
      0()
     Else()
      ShowMessageFace("ironmaiden_fc1",0,0,2,32)
      ShowMessage("\\n<Maiden (Affection:\\V[3159])>……………………")
      0()
     EndIf()
     0()
    IfPlayerPicksChoice(1,null)
     If(1,3159,0,100,1)
      355("call_novel_scene(4597)")
      EndEventProcessing()
      0()
     Else()
      ShowMessageFace("ironmaiden_fc1",0,0,2,33)
      ShowMessage("\\n<Maiden (Affection:\\V[3159])>……………………")
      0()
     EndIf()
     0()
    IfPlayerPicksChoice(2,null)
     0()
    404()
    0()
   EndIf()
   If(1,11,0,4,1)
    PictureClear(5)
    EndEventProcessing()
    0()
   EndIf()
   0()
  EndLoop()
  0()
 PAGE   2
  // condition: party contains actor #159
  0()



EVENT   26
 PAGE   1
  // condition: switch 1183 is ON
  PictureDisplay(5,"80_ironmaiden_k_st01",0,0,0,0,100,100,0,0)
  PictureMove(5,null,0,0,0,0,100,100,255,0,30,true)
  If(1,3183,0,10,1)
   If(1,4183,0,0,0)
    ChangeVariable(4183,4183,0,0,1)
    ShowMessageFace("ironmaiden_k_fc1",0,0,2,1)
    ShowMessage("\\n<Torture (Affection:\\V[3183])>信賞必罰…… 罪人には罰を、善人には施しを……")
    250(bytes(0x04,0x08,0x6f,0x3a,0x0c,0x52,0x50,0x47,0x3a,0x3a,0x53,0x45,0x08,0x3a,0x0a,0x40,0x6e,0x61,0x6d,0x65,0x49,0x22,0x0a,0x49,0x74,0x65,0x6d,0x31,0x06,0x3a,0x06,0x45,0x54,0x3a,0x0b,0x40,0x70,0x69,0x74,0x63,0x68,0x69,0x69,0x3a,0x0c,0x40,0x76,0x6f,0x6c,0x75,0x6d,0x65,0x69,0x55))
    ChangeInventory_Item(22,0,0,1)
    0()
   EndIf()
   0()
  EndIf()
  If(1,3183,0,100,1)
   If(1,4183,0,1,0)
    ChangeVariable(4183,4183,0,0,2)
    ShowMessageFace("ironmaiden_k_fc1",0,0,2,2)
    ShowMessage("\\n<Torture (Affection:\\V[3183])>信賞必罰…… 罪人には罰を、善人には施しを……")
    250(bytes(0x04,0x08,0x6f,0x3a,0x0c,0x52,0x50,0x47,0x3a,0x3a,0x53,0x45,0x08,0x3a,0x0a,0x40,0x6e,0x61,0x6d,0x65,0x49,0x22,0x0a,0x49,0x74,0x65,0x6d,0x31,0x06,0x3a,0x06,0x45,0x54,0x3a,0x0b,0x40,0x70,0x69,0x74,0x63,0x68,0x69,0x69,0x3a,0x0c,0x40,0x76,0x6f,0x6c,0x75,0x6d,0x65,0x69,0x55))
    ChangeInventoryArmor(1723,0,0,1,false)
    0()
   EndIf()
   0()
  EndIf()
  If(1,3183,0,500,1)
   If(1,4183,0,2,0)
    ChangeVariable(4183,4183,0,0,3)
    ShowMessageFace("ironmaiden_k_fc1",0,0,2,3)
    ShowMessage("\\n<Torture (Affection:\\V[3183])>信賞必罰…… 罪人には罰を、善人には施しを……")
    250(bytes(0x04,0x08,0x6f,0x3a,0x0c,0x52,0x50,0x47,0x3a,0x3a,0x53,0x45,0x08,0x3a,0x0a,0x40,0x6e,0x61,0x6d,0x65,0x49,0x22,0x0a,0x49,0x74,0x65,0x6d,0x31,0x06,0x3a,0x06,0x45,0x54,0x3a,0x0b,0x40,0x70,0x69,0x74,0x63,0x68,0x69,0x69,0x3a,0x0c,0x40,0x76,0x6f,0x6c,0x75,0x6d,0x65,0x69,0x55))
    ChangeInventoryArmor(1022,0,0,1,false)
    0()
   EndIf()
   0()
  EndIf()
  If(1,3183,0,2000,1)
   If(1,4183,0,3,0)
    ChangeVariable(4183,4183,0,0,4)
    ShowMessageFace("ironmaiden_k_fc1",0,0,2,4)
    ShowMessage("\\n<Torture (Affection:\\V[3183])>信賞必罰…… 罪人には罰を、善人には施しを……")
    250(bytes(0x04,0x08,0x6f,0x3a,0x0c,0x52,0x50,0x47,0x3a,0x3a,0x53,0x45,0x08,0x3a,0x0a,0x40,0x6e,0x61,0x6d,0x65,0x49,0x22,0x0a,0x49,0x74,0x65,0x6d,0x31,0x06,0x3a,0x06,0x45,0x54,0x3a,0x0b,0x40,0x70,0x69,0x74,0x63,0x68,0x69,0x69,0x3a,0x0c,0x40,0x76,0x6f,0x6c,0x75,0x6d,0x65,0x69,0x55))
    ChangeInventoryArmor(1467,0,0,1,false)
    0()
   EndIf()
   0()
  EndIf()
  355("actor_label_jump")
  ShowMessageFace("ironmaiden_k_fc1",0,0,2,5)
  ShowMessage("\\n<Torture (Affection:\\V[3183])>罪人を裁く使命を果たす…… 私を連れて行け……")
  JumpToLabel("メニュー")
  DefineLabel("26")
  ShowMessageFace("ironmaiden_k_fc1",0,0,2,6)
  ShowMessage("\\n<Torture (Affection:\\V[3183])>我は、罪人を罰する……")
  ShowMessageFace("iriasu_fc4",7,0,2,7)
  ShowMessage("\\n<Ilias (Affection:\\V[3026])>魔導具のモンスターごときが、罰などと…… それ自体、罪深き事です。")
  ShowMessageFace("ironmaiden_k_fc1",0,0,2,8)
  ShowMessage("\\n<Torture (Affection:\\V[3183])>罰する……")
  ShowMessageFace("iriasu_fc4",5,0,2,9)
  ShowMessage("\\n<Ilias (Affection:\\V[3026])>ちょ……私に何をするのです！ ひゃぁぁぁ――！！")
  JumpToLabel("メニュー")
  DefineLabel("159")
  ShowMessageFace("ironmaiden_k_fc1",0,0,2,10)
  ShowMessage("\\n<Torture (Affection:\\V[3183])>罪人め……私には分かる…… お前は周囲をたばかっているだろう……")
  ShowMessageFace("ironmaiden_fc1",0,0,2,11)
  ShowMessage("\\n<Maiden (Affection:\\V[3159])>私がしゃべれるの、ばれてた……")
  ShowMessageFace("ironmaiden_k_fc1",0,0,2,12)
  ShowMessage("\\n<Torture (Affection:\\V[3183])>自律しているのが分かれば、世話をしてもらえない…… それゆえに、周囲を欺いたか……")
  ShowMessageFace("ironmaiden_fc1",0,0,2,13)
  ShowMessage("\\n<Maiden (Affection:\\V[3159])>どうか、お許しを……")
  ShowMessageFace("sonia_fc4",0,0,2,14)
  ShowMessage("\\n<Sonya>（拷問具にも上下関係があるんだ……)")
  JumpToLabel("メニュー")
  DefineLabel("182")
  ShowMessageFace("c_homunculus_fc1",0,0,2,15)
  ShowMessage("\\n<Crowley (Affection:\\V[3182])>アポトーシスとの、長く辛い戦いだった…… それがまさか、今度は別世界で旅とはな……")
  ShowMessageFace("ironmaiden_k_fc1",0,0,2,16)
  ShowMessage("\\n<Torture (Affection:\\V[3183])>我には関係ない…… ただ罪人を裁くのみ……")
  ShowMessageFace("c_homunculus_fc1",0,0,2,17)
  ShowMessage("\\n<Crowley (Affection:\\V[3182])>今後の相手はアポトーシスとは限らん。 あまり無差別に処分するなよ……")
  ShowMessageFace("ironmaiden_k_fc1",0,0,2,18)
  ShowMessage("\\n<Torture (Affection:\\V[3183])>罪人は処刑するのみ……")
  JumpToLabel("メニュー")
  DefineLabel("メニュー")
  StartLoop()
   355("unlimited_choices(11, [\"Give presents\",")
   655("\"Add to party\",")
   655("\"View present list\",\"Make a request\",")
   655("\"Never mind\"])")
   If(1,11,0,0,0)
    355("present_start(183)")
    0()
   EndIf()
   If(1,11,0,1,0)
    PictureClear(5)
    355("move_actor_ex(183)")
    EndEventProcessing()
    0()
   EndIf()
   If(1,11,0,2,0)
    ShowMessageFace("",0,0,2,19)
    ShowMessage("Affection   10:\\ii[22]")
    ShowMessage("Affection  100:\\ia[1723]")
    ShowMessage("Affection  500:\\ia[1022]")
    ShowMessage("Affection 2000:\\ia[1467]")
    0()
   EndIf()
   If(1,11,0,3,0)
    PictureClear(5)
    ShowMessageFace("",0,0,2,20)
    ShowMessage("Ask her for what? (Affection:\\V[3183])")
    ShowChoices(strings("Death by pleasure(Affection:10)","Never mind"),2)
    IfPlayerPicksChoice(0,null)
     If(1,3183,0,10,1)
      355("call_novel_scene(4716)")
      EndEventProcessing()
      0()
     Else()
      ShowMessageFace("ironmaiden_k_fc1",0,0,2,21)
      ShowMessage("\\n<Torture (Affection:\\V[3183])>罪人でなければ、中には入れん……")
      0()
     EndIf()
     0()
    IfPlayerPicksChoice(1,null)
     0()
    404()
    0()
   EndIf()
   If(1,11,0,4,1)
    PictureClear(5)
    EndEventProcessing()
    0()
   EndIf()
   0()
  EndLoop()
  0()
 PAGE   2
  // condition: party contains actor #183
  0()



EVENT   27
 PAGE   1
  // condition: switch 1182 is ON
  PictureDisplay(5,"80_c_homunculus_st01",0,0,0,0,100,100,0,0)
  PictureMove(5,null,0,0,0,0,100,100,255,0,30,true)
  If(1,3182,0,10,1)
   If(1,4182,0,0,0)
    ChangeVariable(4182,4182,0,0,1)
    ShowMessageFace("c_homunculus_fc1",0,0,2,1)
    ShowMessage("\\n<Crowley (Affection:\\V[3182])>実験の副産物だ……受け取れ……")
    250(bytes(0x04,0x08,0x6f,0x3a,0x0c,0x52,0x50,0x47,0x3a,0x3a,0x53,0x45,0x08,0x3a,0x0a,0x40,0x6e,0x61,0x6d,0x65,0x49,0x22,0x0a,0x49,0x74,0x65,0x6d,0x31,0x06,0x3a,0x06,0x45,0x54,0x3a,0x0b,0x40,0x70,0x69,0x74,0x63,0x68,0x69,0x69,0x3a,0x0c,0x40,0x76,0x6f,0x6c,0x75,0x6d,0x65,0x69,0x55))
    ChangeInventory_Item(5,0,0,1)
    0()
   EndIf()
   0()
  EndIf()
  If(1,3182,0,100,1)
   If(1,4182,0,1,0)
    ChangeVariable(4182,4182,0,0,2)
    ShowMessageFace("c_homunculus_fc1",0,0,2,2)
    ShowMessage("\\n<Crowley (Affection:\\V[3182])>実験の副産物だ……受け取れ……")
    250(bytes(0x04,0x08,0x6f,0x3a,0x0c,0x52,0x50,0x47,0x3a,0x3a,0x53,0x45,0x08,0x3a,0x0a,0x40,0x6e,0x61,0x6d,0x65,0x49,0x22,0x0a,0x49,0x74,0x65,0x6d,0x31,0x06,0x3a,0x06,0x45,0x54,0x3a,0x0b,0x40,0x70,0x69,0x74,0x63,0x68,0x69,0x69,0x3a,0x0c,0x40,0x76,0x6f,0x6c,0x75,0x6d,0x65,0x69,0x55))
    ChangeInventoryArmor(1113,0,0,1,false)
    0()
   EndIf()
   0()
  EndIf()
  If(1,3182,0,500,1)
   If(1,4182,0,2,0)
    ChangeVariable(4182,4182,0,0,3)
    ShowMessageFace("c_homunculus_fc1",0,0,2,3)
    ShowMessage("\\n<Crowley (Affection:\\V[3182])>実験の副産物だ……受け取れ……")
    250(bytes(0x04,0x08,0x6f,0x3a,0x0c,0x52,0x50,0x47,0x3a,0x3a,0x53,0x45,0x08,0x3a,0x0a,0x40,0x6e,0x61,0x6d,0x65,0x49,0x22,0x0a,0x49,0x74,0x65,0x6d,0x31,0x06,0x3a,0x06,0x45,0x54,0x3a,0x0b,0x40,0x70,0x69,0x74,0x63,0x68,0x69,0x69,0x3a,0x0c,0x40,0x76,0x6f,0x6c,0x75,0x6d,0x65,0x69,0x55))
    ChangeInventoryArmor(1115,0,0,1,false)
    0()
   EndIf()
   0()
  EndIf()
  If(1,3182,0,2000,1)
   If(1,4182,0,3,0)
    ChangeVariable(4182,4182,0,0,4)
    ShowMessageFace("c_homunculus_fc1",0,0,2,4)
    ShowMessage("\\n<Crowley (Affection:\\V[3182])>実験の副産物だ……受け取れ……")
    250(bytes(0x04,0x08,0x6f,0x3a,0x0c,0x52,0x50,0x47,0x3a,0x3a,0x53,0x45,0x08,0x3a,0x0a,0x40,0x6e,0x61,0x6d,0x65,0x49,0x22,0x0a,0x49,0x74,0x65,0x6d,0x31,0x06,0x3a,0x06,0x45,0x54,0x3a,0x0b,0x40,0x70,0x69,0x74,0x63,0x68,0x69,0x69,0x3a,0x0c,0x40,0x76,0x6f,0x6c,0x75,0x6d,0x65,0x69,0x55))
    ChangeInventoryArmor(1493,0,0,1,false)
    0()
   EndIf()
   0()
  EndIf()
  355("actor_label_jump")
  ShowMessageFace("c_homunculus_fc1",0,0,2,5)
  ShowMessage("\\n<Crowley (Affection:\\V[3182])>私は実験台ではなく、明白な知性を備えている。 今の私は、実験する側だ……")
  JumpToLabel("メニュー")
  DefineLabel("158")
  ShowMessageFace("suckvore_fc1",2,0,2,6)
  ShowMessage("\\n<Anna (Affection:\\V[3158])>……………………")
  ShowMessageFace("c_homunculus_fc1",0,0,2,7)
  ShowMessage("\\n<Crowley (Affection:\\V[3182])>むっ、これも魔導による被造物か？ 原型が残らないほど変質したようだが……")
  ShowMessageFace("suckvore_fc1",1,0,2,8)
  ShowMessage("\\n<Anna (Affection:\\V[3158])>……ひゃぁっ！")
  ShowMessageFace("c_homunculus_fc1",0,0,2,9)
  ShowMessage("\\n<Crowley (Affection:\\V[3182])>おおっ！？　ちょっとびっくり……")
  ShowMessageFace("suckvore_fc1",1,0,2,10)
  ShowMessage("\\n<Anna (Affection:\\V[3158])>し、失礼しました…… お仲間だったんですね……")
  ShowMessageFace("c_homunculus_fc1",0,0,2,11)
  ShowMessage("\\n<Crowley (Affection:\\V[3182])>色々混ざっているが、まあ近縁だ…… よろしく……")
  JumpToLabel("メニュー")
  DefineLabel("167")
  ShowMessageFace("lusia_fc1",0,0,2,12)
  ShowMessage("\\n<Lucia (Affection:\\V[3167])>少し、実験に付き合って頂けませんか……？")
  ShowMessageFace("c_homunculus_fc1",0,0,2,13)
  ShowMessage("\\n<Crowley (Affection:\\V[3182])>了解した……手伝おう……")
  ShowMessageFace("lusia_fc1",0,0,2,14)
  ShowMessage("\\n<Lucia (Affection:\\V[3167])>しかし、錬金術による被造物もまた探究の志を持つとは。 つくづく錬金とは奥深いですね。")
  ShowMessageFace("c_homunculus_fc1",0,0,2,15)
  ShowMessage("\\n<Crowley (Affection:\\V[3182])>探究の志は、万物に存在する…… どれだけ、その心に純粋になれるかの違いだろう……")
  JumpToLabel("メニュー")
  DefineLabel("183")
  ShowMessageFace("c_homunculus_fc1",0,0,2,16)
  ShowMessage("\\n<Crowley (Affection:\\V[3182])>アポトーシスとの、長く辛い戦いだった…… それがまさか、今度は別世界で旅とはな……")
  ShowMessageFace("ironmaiden_k_fc1",0,0,2,17)
  ShowMessage("\\n<Torture (Affection:\\V[3183])>我には関係ない…… ただ罪人を裁くのみ……")
  ShowMessageFace("c_homunculus_fc1",0,0,2,18)
  ShowMessage("\\n<Crowley (Affection:\\V[3182])>今後の相手はアポトーシスとは限らん。 あまり無差別に処分するなよ……")
  ShowMessageFace("ironmaiden_k_fc1",0,0,2,19)
  ShowMessage("\\n<Torture (Affection:\\V[3183])>罪人は処刑するのみ……")
  JumpToLabel("メニュー")
  DefineLabel("メニュー")
  StartLoop()
   355("unlimited_choices(11, [\"Give presents\",")
   655("\"Add to party\",")
   655("\"View present list\",\"Make a request\",")
   655("\"Never mind\"])")
   If(1,11,0,0,0)
    355("present_start(182)")
    0()
   EndIf()
   If(1,11,0,1,0)
    PictureClear(5)
    355("move_actor_ex(182)")
    EndEventProcessing()
    0()
   EndIf()
   If(1,11,0,2,0)
    ShowMessageFace("",0,0,2,20)
    ShowMessage("Affection   10:\\ii[5]")
    ShowMessage("Affection  100:\\ia[1113]")
    ShowMessage("Affection  500:\\ia[1115]")
    ShowMessage("Affection 2000:\\ia[1493]")
    0()
   EndIf()
   If(1,11,0,3,0)
    PictureClear(5)
    ShowMessageFace("",0,0,2,21)
    ShowMessage("Ask her for what? (Affection:\\V[3182])")
    ShowChoices(strings("Semen Squeezing Tentacle 1(Affection:10)","Semen Squeezing Tentacle 2(Affection:100)","Never mind"),3)
    IfPlayerPicksChoice(0,null)
     If(1,3182,0,10,1)
      355("call_novel_scene(4711)")
      EndEventProcessing()
      0()
     Else()
      ShowMessageFace("c_homunculus_fc1",0,0,2,22)
      ShowMessage("\\n<Crowley (Affection:\\V[3182])>精気は十分に足りている……")
      0()
     EndIf()
     0()
    IfPlayerPicksChoice(1,null)
     If(1,3182,0,100,1)
      355("call_novel_scene(4712)")
      EndEventProcessing()
      0()
     Else()
      ShowMessageFace("c_homunculus_fc1",0,0,2,23)
      ShowMessage("\\n<Crowley (Affection:\\V[3182])>精気は十分に足りている……")
      0()
     EndIf()
     0()
    IfPlayerPicksChoice(2,null)
     0()
    404()
    0()
   EndIf()
   If(1,11,0,4,1)
    PictureClear(5)
    EndEventProcessing()
    0()
   EndIf()
   0()
  EndLoop()
  0()
 PAGE   2
  // condition: party contains actor #182
  0()



EVENT   24
 PAGE   1
  // condition: switch 1041 is ON
  0()



EVENT   29
 PAGE   1
  // condition: switch 1553 is ON
  PictureDisplay(5,"80_mob_gakusya1_st01",0,0,0,0,100,100,0,0)
  PictureMove(5,null,0,0,0,0,100,100,255,0,30,true)
  355("actor_label_jump")
  ShowMessageFace("mob_gakusya1_fc1",0,0,2,1)
  ShowMessage("\\n<Fizz (Affection:\\V[3553])>今、論文を書くのに忙しいんですが……")
  JumpToLabel("メニュー")
  DefineLabel("メニュー")
  ShowChoices(strings("Add to party","Never mind"),2)
  IfPlayerPicksChoice(0,null)
   PictureClear(5)
   355("move_actor_ex(553)")
   EndEventProcessing()
   0()
  IfPlayerPicksChoice(1,null)
   PictureClear(5)
   EndEventProcessing()
   0()
  404()
  0()
 PAGE   2
  // condition: party contains actor #553
  0()



EVENT   30
 PAGE   1
  // condition: switch 1561 is ON
  PictureDisplay(5,"80_mob_majyo1_st01",0,0,0,0,100,100,0,0)
  PictureMove(5,null,0,0,0,0,100,100,255,0,30,true)
  355("actor_label_jump")
  ShowMessageFace("mob_majyo1_fc1",0,0,2,1)
  ShowMessage("\\n<Witchy (Affection:\\V[3561])>魔女の私に、立派なお城は似合わないねぇ……")
  JumpToLabel("メニュー")
  DefineLabel("メニュー")
  ShowChoices(strings("Add to party","Never mind"),2)
  IfPlayerPicksChoice(0,null)
   PictureClear(5)
   355("move_actor_ex(561)")
   EndEventProcessing()
   0()
  IfPlayerPicksChoice(1,null)
   PictureClear(5)
   EndEventProcessing()
   0()
  404()
  0()
 PAGE   2
  // condition: party contains actor #561
  0()



EVENT   28
 PAGE   1
  // condition: switch 1163 is ON
  PictureDisplay(5,"80_lily_st01",0,0,0,0,100,100,0,0)
  PictureMove(5,null,0,0,0,0,100,100,255,0,30,true)
  If(1,3163,0,10,1)
   If(1,4163,0,0,0)
    ChangeVariable(4163,4163,0,0,1)
    ShowMessageFace("lily_fc1",3,0,2,1)
    ShowMessage("\\n<Lily (Affection:\\V[3163])>ふふっ、これを持って行きなさい。 よかったわねぇ、いい物がもらえて……")
    250(bytes(0x04,0x08,0x6f,0x3a,0x0c,0x52,0x50,0x47,0x3a,0x3a,0x53,0x45,0x08,0x3a,0x0a,0x40,0x6e,0x61,0x6d,0x65,0x49,0x22,0x0a,0x49,0x74,0x65,0x6d,0x31,0x06,0x3a,0x06,0x45,0x54,0x3a,0x0b,0x40,0x70,0x69,0x74,0x63,0x68,0x69,0x69,0x3a,0x0c,0x40,0x76,0x6f,0x6c,0x75,0x6d,0x65,0x69,0x55))
    ChangeInventory_Item(28,0,0,1)
    0()
   EndIf()
   0()
  EndIf()
  If(1,3163,0,100,1)
   If(1,4163,0,1,0)
    ChangeVariable(4163,4163,0,0,2)
    ShowMessageFace("lily_fc1",3,0,2,2)
    ShowMessage("\\n<Lily (Affection:\\V[3163])>ふふっ、これを持って行きなさい。 よかったわねぇ、いい物がもらえて……")
    250(bytes(0x04,0x08,0x6f,0x3a,0x0c,0x52,0x50,0x47,0x3a,0x3a,0x53,0x45,0x08,0x3a,0x0a,0x40,0x6e,0x61,0x6d,0x65,0x49,0x22,0x0a,0x49,0x74,0x65,0x6d,0x31,0x06,0x3a,0x06,0x45,0x54,0x3a,0x0b,0x40,0x70,0x69,0x74,0x63,0x68,0x69,0x69,0x3a,0x0c,0x40,0x76,0x6f,0x6c,0x75,0x6d,0x65,0x69,0x55))
    ChangeInventoryArmor(1721,0,0,1,false)
    0()
   EndIf()
   0()
  EndIf()
  If(1,3163,0,500,1)
   If(1,4163,0,2,0)
    ChangeVariable(4163,4163,0,0,3)
    ShowMessageFace("lily_fc1",3,0,2,3)
    ShowMessage("\\n<Lily (Affection:\\V[3163])>ふふっ、これを持って行きなさい。 よかったわねぇ、いい物がもらえて……")
    250(bytes(0x04,0x08,0x6f,0x3a,0x0c,0x52,0x50,0x47,0x3a,0x3a,0x53,0x45,0x08,0x3a,0x0a,0x40,0x6e,0x61,0x6d,0x65,0x49,0x22,0x0a,0x49,0x74,0x65,0x6d,0x31,0x06,0x3a,0x06,0x45,0x54,0x3a,0x0b,0x40,0x70,0x69,0x74,0x63,0x68,0x69,0x69,0x3a,0x0c,0x40,0x76,0x6f,0x6c,0x75,0x6d,0x65,0x69,0x55))
    ChangeInventoryArmor(1366,0,0,1,false)
    0()
   EndIf()
   0()
  EndIf()
  If(1,3163,0,2000,1)
   If(1,4163,0,3,0)
    ChangeVariable(4163,4163,0,0,4)
    ShowMessageFace("lily_fc1",3,0,2,4)
    ShowMessage("\\n<Lily (Affection:\\V[3163])>ふふっ、これを持って行きなさい。 よかったわねぇ、いい物がもらえて……")
    250(bytes(0x04,0x08,0x6f,0x3a,0x0c,0x52,0x50,0x47,0x3a,0x3a,0x53,0x45,0x08,0x3a,0x0a,0x40,0x6e,0x61,0x6d,0x65,0x49,0x22,0x0a,0x49,0x74,0x65,0x6d,0x31,0x06,0x3a,0x06,0x45,0x54,0x3a,0x0b,0x40,0x70,0x69,0x74,0x63,0x68,0x69,0x69,0x3a,0x0c,0x40,0x76,0x6f,0x6c,0x75,0x6d,0x65,0x69,0x55))
    ChangeInventoryArmor(1192,0,0,1,false)
    0()
   EndIf()
   0()
  EndIf()
  355("actor_label_jump")
  ShowMessageFace("lily_fc1",3,0,2,5)
  ShowMessage("\\n<Lily (Affection:\\V[3163])>まだまだ、助けを求める声が聞こえるわ…… この声が聞こえなくなるまで……")
  JumpToLabel("メニュー")
  DefineLabel("57")
  ShowMessageFace("inp_fc3",0,0,2,6)
  ShowMessage("\\n<Rumi (Affection:\\V[3057])>くたー")
  ShowMessageFace("lily_fc1",5,0,2,7)
  ShowMessage("\\n<Lily (Affection:\\V[3163])>この子、いつ見てもぐったりしてるわね。 小さい頃に虐待を受けて、心を閉ざしてしまったとか……")
  ShowMessageFace("inp_fc3",0,0,2,8)
  ShowMessage("\\n<Rumi (Affection:\\V[3057])>くたー")
  ShowMessageFace("lily_fc1",3,0,2,9)
  ShowMessage("\\n<Lily (Affection:\\V[3163])>辛いことがあったら、私を頼りなさい…… 力を与えてあげるわ。")
  ShowMessageFace("inp_fc3",0,0,2,10)
  ShowMessage("\\n<Rumi (Affection:\\V[3057])>その力、いいね…… ねころんだままでも背中がかける……")
  ShowMessageFace("lily_fc1",5,0,2,11)
  ShowMessage("\\n<Lily (Affection:\\V[3163])>その腕のままでも、背中くらいかけるでしょ…… どれだけ物臭なのよ……")
  JumpToLabel("メニュー")
  DefineLabel("58")
  ShowMessageFace("inp_fc2",0,0,2,12)
  ShowMessage("\\n<Remi (Affection:\\V[3058])>びくびく……")
  ShowMessageFace("lily_fc1",5,0,2,13)
  ShowMessage("\\n<Lily (Affection:\\V[3163])>この子は、いつ見てもおびえてばかり…… もしや、小さい頃に虐待でも受けて……")
  ShowMessageFace("inp_fc1",2,0,2,14)
  ShowMessage("\\n<Rami (Affection:\\V[3056])>レミちゃ～ん！ ネズミ花火、こっちに投げないで～！")
  ShowMessageFace("inp_fc2",1,0,2,15)
  ShowMessage("\\n<Remi (Affection:\\V[3058])>えい……えい……")
  ShowMessageFace("lily_fc1",5,0,2,16)
  ShowMessage("\\n<Lily (Affection:\\V[3163])>……ひょっとして、いじめっ子？")
  JumpToLabel("メニュー")
  DefineLabel("163")
  ShowMessageFace("lily_fc1",5,0,2,17)
  ShowMessage("\\n<Lily (Affection:\\V[3163])>辺境の村に長く住んでいたから…… 私、流行のファッションには疎いのよ。")
  ShowMessageFace("page65537_fc1",0,0,2,18)
  ShowMessage("\\n<Cornelia (Affection:\\V[3121])>私も、似たようなものです。 ずっと図書館にこもっておりますので……")
  ShowMessageFace("lily_fc1",4,0,2,19)
  ShowMessage("\\n<Lily (Affection:\\V[3163])>似たもの同士ね、ふふふっ。 今度、一緒に都会へ服でも買いに行く……？")
  ShowMessageFace("page65537_fc1",1,0,2,20)
  ShowMessage("\\n<Cornelia (Affection:\\V[3121])>ぜひ、ご一緒させてもらいましょう。 たまにはお洒落を楽しまなくては、ふふっ……")
  ShowMessageFace("lily_fc1",6,0,2,21)
  ShowMessage("\\n<Lily (Affection:\\V[3163])>（もっさりメガネなんかに負けるものですか……)")
  ShowMessageFace("page65537_fc1",4,0,2,22)
  ShowMessage("\\n<Cornelia (Affection:\\V[3121])>（この田舎女にだけは負けたくありませんね……)")
  JumpToLabel("メニュー")
  DefineLabel("134")
  ShowMessageFace("chrom_fc2",1,0,2,23)
  ShowMessage("\\n<Chrome (Affection:\\V[3134])>ゆけ、ゾンビよ！")
  ShowMessageFace("zonbe_fc3",0,0,2,24)
  ShowMessage("\\n<Zombie>フンガー！")
  ShowMessageFace("lily_fc1",5,0,2,25)
  ShowMessage("\\n<Lily (Affection:\\V[3163])>このような少女が、ゾンビと遊んでいるなんて…… なんという境遇、親は何をしているのかしら？")
  ShowMessageFace("chrom_fc2",5,0,2,26)
  ShowMessage("\\n<Chrome (Affection:\\V[3134])>儂、お前より年上じゃぞ……5倍くらい。")
  ShowMessageFace("lily_fc1",5,0,2,27)
  ShowMessage("\\n<Lily (Affection:\\V[3163])>私の5倍って……そんな、85歳！？")
  ShowMessageFace("chrom_fc2",5,0,2,28)
  ShowMessage("\\n<Chrome (Affection:\\V[3134])>なぜそこでサバを読むのじゃ……？")
  JumpToLabel("メニュー")
  DefineLabel("142")
  ShowMessageFace("bander_fc1",0,0,2,29)
  ShowMessage("\\n<Banachi (Affection:\\V[3142])>私を覚えているか、魔導師…… お前に造られ、放棄された失敗作だ……")
  ShowMessageFace("lily_fc1",3,0,2,30)
  ShowMessage("\\n<Lily (Affection:\\V[3163])>ああ、言うことを聞かなかった土人形ね。 壊さず逃がしてやっただけマシと思いなさい。")
  ShowMessageFace("bander_fc1",0,0,2,31)
  ShowMessage("\\n<Banachi (Affection:\\V[3142])>なら、これからの働きで証明してやろう。 私が失敗作でなどなかった事を……")
  ShowMessageFace("lily_fc1",3,0,2,32)
  ShowMessage("\\n<Lily (Affection:\\V[3163])>（大食らいで維持できなかったなんて、言えないわね……)")
  JumpToLabel("メニュー")
  DefineLabel("159")
  ShowMessageFace("ironmaiden_fc1",0,0,2,33)
  ShowMessage("\\n<Maiden (Affection:\\V[3159])>……………………")
  ShowMessageFace("lily_fc1",3,0,2,34)
  ShowMessage("\\n<Lily (Affection:\\V[3163])>多くの男の精を吸わせたから…… そろそろ、霊性が宿って喋ってもいいのだけど……")
  ShowMessageFace("ironmaiden_fc1",0,0,2,35)
  ShowMessage("\\n<Maiden (Affection:\\V[3159])>……………………")
  ShowMessageFace("lily_fc1",3,0,2,36)
  ShowMessage("\\n<Lily (Affection:\\V[3163])>もう少し、精の搾取が必要かしら……？ たっぷり与えてあげないとね。")
  ShowMessageFace("ironmaiden_fc1",0,0,2,37)
  ShowMessage("\\n<Maiden (Affection:\\V[3159])>（餌をもらえるうちは、黙っていよう……)")
  JumpToLabel("メニュー")
  DefineLabel("160")
  ShowMessageFace("wormv_fc1",0,0,2,38)
  ShowMessage("\\n<Julia (Affection:\\V[3160])>リリィ様…… 私を救って下さり、感謝しています……")
  ShowMessageFace("lily_fc1",3,0,2,39)
  ShowMessage("\\n<Lily (Affection:\\V[3163])>私は、力を与えてあげただけ。 あなたを救ったのは、あなた自身よ……")
  ShowMessageFace("wormv_fc1",0,0,2,40)
  ShowMessage("\\n<Julia (Affection:\\V[3160])>それでも、あなたの助けがなければ叶いませんでした。 願わくば、世界中の弱者が私のように救われん事を……")
  ShowMessageFace("lily_fc1",3,0,2,41)
  ShowMessage("\\n<Lily (Affection:\\V[3163])>ええ……これからは、私達で多くの人を救いましょう。 さあ、私についてきなさい。")
  JumpToLabel("メニュー")
  DefineLabel("167")
  ShowMessageFace("lusia_fc1",2,0,2,42)
  ShowMessage("\\n<Lucia (Affection:\\V[3167])>まさか、あなたと肩を並べて戦う事になろうとは…… 世界が一周でもしない限り、起こりえないと思っていました。")
  ShowMessageFace("lily_fc1",4,0,2,43)
  ShowMessage("\\n<Lily (Affection:\\V[3163])>それは、こっちのセリフよ…… 案外本当に、世界が一周してしまったのではないかしら？")
  ShowMessageFace("lusia_fc1",0,0,2,44)
  ShowMessage("\\n<Lucia (Affection:\\V[3167])>しかし、懐かしいものですね…… あの村での、苦しかった頃を思い出します。")
  ShowMessageFace("lily_fc1",4,0,2,45)
  ShowMessage("\\n<Lily (Affection:\\V[3163])>あの頃のように……協力していければ良いわね。")
  JumpToLabel("メニュー")
  DefineLabel("179")
  ShowMessageFace("sinifa_fc1",0,0,2,46)
  ShowMessage("\\n<Shinifa (Affection:\\V[3179])>アーハッハッハッハッハ！")
  ShowMessageFace("lily_fc1",5,0,2,47)
  ShowMessage("\\n<Lily (Affection:\\V[3163])>何よ、私を笑ってるの……？")
  ShowMessageFace("sinifa_fc1",0,0,2,48)
  ShowMessage("\\n<Shinifa (Affection:\\V[3179])>はは……アハハハハハハッ……！")
  ShowMessageFace("lily_fc1",4,0,2,49)
  ShowMessage("\\n<Lily (Affection:\\V[3163])>うふふ、あはははっ！")
  ShowMessageFace("sonia_fc3",2,0,2,50)
  ShowMessage("\\n<Sonya>なんで張り合ってるの！？")
  JumpToLabel("メニュー")
  DefineLabel("529")
  ShowMessageFace("lily_fc1",3,0,2,51)
  ShowMessage("\\n<Lily (Affection:\\V[3163])>あら、王女様。 何か私に言いたいことでもあるのかしら？")
  ShowMessageFace("sara_fc1",4,0,2,52)
  ShowMessage("\\n<Sara (Affection:\\V[3529])>リリィ……あなたは、父上を…… サバサ王を恨んでいるの？")
  ShowMessageFace("lily_fc1",5,0,2,53)
  ShowMessage("\\n<Lily (Affection:\\V[3163])>為政者である以上、仕方ない判断でもあったわ。 その割を食ったのは、私達だったけれど……")
  ShowMessageFace("sara_fc1",4,0,2,54)
  ShowMessage("\\n<Sara (Affection:\\V[3529])>ごめんなさい……")
  ShowMessageFace("lily_fc1",3,0,2,55)
  ShowMessage("\\n<Lily (Affection:\\V[3163])>あなた個人に謝罪されるいわれはないわ…… その頃のあなたは、何の実権もない小娘だったのだから。")
  ShowMessageFace("sara_fc1",1,0,2,56)
  ShowMessage("\\n<Sara (Affection:\\V[3529])>ええ……ここにいる以上、あなたは仲間よ。 よろしく、リリィ。")
  ShowMessageFace("lily_fc1",3,0,2,57)
  ShowMessage("\\n<Lily (Affection:\\V[3163])>ふふっ、よろしく……")
  JumpToLabel("メニュー")
  DefineLabel("メニュー")
  StartLoop()
   355("unlimited_choices(11, [\"Give presents\",")
   655("\"Add to party\",")
   655("\"View present list\",\"Make a request\",")
   655("\"Never mind\"])")
   If(1,11,0,0,0)
    355("present_start(163)")
    0()
   EndIf()
   If(1,11,0,1,0)
    PictureClear(5)
    355("move_actor_ex(163)")
    EndEventProcessing()
    0()
   EndIf()
   If(1,11,0,2,0)
    ShowMessageFace("",0,0,2,58)
    ShowMessage("Affection   10:\\ii[28]")
    ShowMessage("Affection  100:\\ia[1721]")
    ShowMessage("Affection  500:\\ia[1366]")
    ShowMessage("Affection 2000:\\ia[1192]")
    0()
   EndIf()
   If(1,11,0,3,0)
    PictureClear(5)
    ShowMessageFace("",0,0,2,59)
    ShowMessage("Ask her for what? (Affection:\\V[3163])")
    ShowChoices(strings("Worm Touch(Affection:10)","Anal Drain(Affection:50)","Semen Sucking Tentacle(Affection:100)","Never mind"),4)
    IfPlayerPicksChoice(0,null)
     If(1,3163,0,10,1)
      355("call_novel_scene(4616)")
      EndEventProcessing()
      0()
     Else()
      ShowMessageFace("lily_fc1",5,0,2,60)
      ShowMessage("\\n<Lily (Affection:\\V[3163])>ふん、気安いわね……")
      0()
     EndIf()
     0()
    IfPlayerPicksChoice(1,null)
     If(1,3163,0,50,1)
      355("call_novel_scene(4617)")
      EndEventProcessing()
      0()
     Else()
      ShowMessageFace("lily_fc1",5,0,2,61)
      ShowMessage("\\n<Lily (Affection:\\V[3163])>ふん、気安いわね……")
      0()
     EndIf()
     0()
    IfPlayerPicksChoice(2,null)
     If(1,3163,0,100,1)
      355("call_novel_scene(4618)")
      EndEventProcessing()
      0()
     Else()
      ShowMessageFace("lily_fc1",5,0,2,62)
      ShowMessage("\\n<Lily (Affection:\\V[3163])>ふん、気安いわね……")
      0()
     EndIf()
     0()
    IfPlayerPicksChoice(3,null)
     0()
    404()
    0()
   EndIf()
   If(1,11,0,4,1)
    PictureClear(5)
    EndEventProcessing()
    0()
   EndIf()
   0()
  EndLoop()
  0()
 PAGE   2
  // condition: party contains actor #163
  0()



EVENT   25
 PAGE   1
  // condition: switch 1167 is ON
  PictureDisplay(5,"80_lusia_st01",0,0,0,0,100,100,0,0)
  PictureMove(5,null,0,0,0,0,100,100,255,0,30,true)
  If(1,3167,0,10,1)
   If(1,4167,0,0,0)
    ChangeVariable(4167,4167,0,0,1)
    ShowMessageFace("lusia_fc1",0,0,2,1)
    ShowMessage("\\n<Lucia (Affection:\\V[3167])>遠慮はいりません、私からの気持ちです…… これからも、良好な関係を築いていきましょう。")
    250(bytes(0x04,0x08,0x6f,0x3a,0x0c,0x52,0x50,0x47,0x3a,0x3a,0x53,0x45,0x08,0x3a,0x0a,0x40,0x6e,0x61,0x6d,0x65,0x49,0x22,0x0a,0x49,0x74,0x65,0x6d,0x31,0x06,0x3a,0x06,0x45,0x54,0x3a,0x0b,0x40,0x70,0x69,0x74,0x63,0x68,0x69,0x69,0x3a,0x0c,0x40,0x76,0x6f,0x6c,0x75,0x6d,0x65,0x69,0x55))
    ChangeInventory_Item(4,0,0,3)
    0()
   EndIf()
   0()
  EndIf()
  If(1,3167,0,100,1)
   If(1,4167,0,1,0)
    ChangeVariable(4167,4167,0,0,2)
    ShowMessageFace("lusia_fc1",0,0,2,2)
    ShowMessage("\\n<Lucia (Affection:\\V[3167])>遠慮はいりません、私からの気持ちです…… これからも、良好な関係を築いていきましょう。")
    250(bytes(0x04,0x08,0x6f,0x3a,0x0c,0x52,0x50,0x47,0x3a,0x3a,0x53,0x45,0x08,0x3a,0x0a,0x40,0x6e,0x61,0x6d,0x65,0x49,0x22,0x0a,0x49,0x74,0x65,0x6d,0x31,0x06,0x3a,0x06,0x45,0x54,0x3a,0x0b,0x40,0x70,0x69,0x74,0x63,0x68,0x69,0x69,0x3a,0x0c,0x40,0x76,0x6f,0x6c,0x75,0x6d,0x65,0x69,0x55))
    ChangeInventoryArmor(1026,0,0,1,false)
    0()
   EndIf()
   0()
  EndIf()
  If(1,3167,0,500,1)
   If(1,4167,0,2,0)
    ChangeVariable(4167,4167,0,0,3)
    ShowMessageFace("lusia_fc1",0,0,2,3)
    ShowMessage("\\n<Lucia (Affection:\\V[3167])>遠慮はいりません、私からの気持ちです…… これからも、良好な関係を築いていきましょう。")
    250(bytes(0x04,0x08,0x6f,0x3a,0x0c,0x52,0x50,0x47,0x3a,0x3a,0x53,0x45,0x08,0x3a,0x0a,0x40,0x6e,0x61,0x6d,0x65,0x49,0x22,0x0a,0x49,0x74,0x65,0x6d,0x31,0x06,0x3a,0x06,0x45,0x54,0x3a,0x0b,0x40,0x70,0x69,0x74,0x63,0x68,0x69,0x69,0x3a,0x0c,0x40,0x76,0x6f,0x6c,0x75,0x6d,0x65,0x69,0x55))
    ChangeInventoryArmor(1115,0,0,1,false)
    0()
   EndIf()
   0()
  EndIf()
  If(1,3167,0,2000,1)
   If(1,4167,0,3,0)
    ChangeVariable(4167,4167,0,0,4)
    ShowMessageFace("lusia_fc1",0,0,2,4)
    ShowMessage("\\n<Lucia (Affection:\\V[3167])>遠慮はいりません、私からの気持ちです…… これからも、良好な関係を築いていきましょう。")
    250(bytes(0x04,0x08,0x6f,0x3a,0x0c,0x52,0x50,0x47,0x3a,0x3a,0x53,0x45,0x08,0x3a,0x0a,0x40,0x6e,0x61,0x6d,0x65,0x49,0x22,0x0a,0x49,0x74,0x65,0x6d,0x31,0x06,0x3a,0x06,0x45,0x54,0x3a,0x0b,0x40,0x70,0x69,0x74,0x63,0x68,0x69,0x69,0x3a,0x0c,0x40,0x76,0x6f,0x6c,0x75,0x6d,0x65,0x69,0x55))
    ChangeInventoryArmor(1192,0,0,1,false)
    0()
   EndIf()
   0()
  EndIf()
  355("actor_label_jump")
  ShowMessageFace("lusia_fc1",0,0,2,5)
  ShowMessage("\\n<Lucia (Affection:\\V[3167])>なかなか研究が進みますね。 錬金術とは奥が深いものです……")
  JumpToLabel("メニュー")
  DefineLabel("12")
  ShowMessageFace("sylph_fc2",0,0,2,6)
  ShowMessage("\\n<Sylph (Affection:\\V[3012])>ちぃぱっぱ♪")
  ShowMessageFace("lusia_fc1",2,0,2,7)
  ShowMessage("\\n<Lucia (Affection:\\V[3167])>これが風の精霊…… 頭はゆるそうですが、とてつもない魔力を秘めて……")
  ShowMessageFace("sylph_fc2",0,0,2,8)
  ShowMessage("\\n<Sylph (Affection:\\V[3012])>ちぱー！")
  ShowMessageFace("lusia_fc1",2,0,2,9)
  ShowMessage("\\n<Lucia (Affection:\\V[3167])>……いるのでしょうか？")
  JumpToLabel("メニュー")
  DefineLabel("13")
  ShowMessageFace("gnome_fc1",1,0,2,10)
  ShowMessage("\\n<Gnome (Affection:\\V[3013])>……………………")
  ShowMessageFace("lusia_fc1",2,0,2,11)
  ShowMessage("\\n<Lucia (Affection:\\V[3167])>これが土の精霊…… 静かですね、気力を蓄積しているのでしょうか……")
  ShowMessageFace("gnome_fc1",1,0,2,12)
  ShowMessage("\\n<Gnome (Affection:\\V[3013])>ＺＺＺ……")
  ShowMessageFace("lusia_fc1",2,0,2,13)
  ShowMessage("\\n<Lucia (Affection:\\V[3167])>寝ている……？")
  JumpToLabel("メニュー")
  DefineLabel("41")
  ShowMessageFace("stein_fc2",0,0,2,14)
  ShowMessage("\\n<Promestein (Affection:\\V[3041])>あなたは錬金術を研究しているのですか……")
  ShowMessageFace("lusia_fc1",0,0,2,15)
  ShowMessage("\\n<Lucia (Affection:\\V[3167])>錬金の秘技を極め、真理を解き明かす事こそ我が使命。 たとえ、どれだけ遠い道だったとしても……")
  ShowMessageFace("stein_fc2",0,0,2,16)
  ShowMessage("\\n<Promestein (Affection:\\V[3041])>なるほど……あなたも、求道を絶対視しているのですね。 いかなる障害も踏み越え、真理を求める者こそ我が同志。")
  ShowMessageFace("stein_fc2",1,0,2,17)
  ShowMessage("\\n<Promestein (Affection:\\V[3041])>そういうわけで、これからもよろしくお願いします……")
  ShowMessageFace("lusia_fc1",0,0,2,18)
  ShowMessage("\\n<Lucia (Affection:\\V[3167])>ええ、こちらこそ……")
  If(0,5,0)
   ShowMessageFace("iriasu_fc4",2,0,2,19)
   ShowMessage("\\n<Ilias>（ぞわぞわと寒気がします……)")
   0()
  EndIf()
  JumpToLabel("メニュー")
  DefineLabel("160")
  ShowMessageFace("wormv_fc1",0,0,2,20)
  ShowMessage("\\n<Julia (Affection:\\V[3160])>魔導の力に救われながら、その力を封じる…… それでいながら、その力を探究する……")
  ShowMessageFace("wormv_fc1",0,0,2,21)
  ShowMessage("\\n<Julia (Affection:\\V[3160])>ルシア様、矛盾は感じられないのですか……？")
  ShowMessageFace("lusia_fc1",0,0,2,22)
  ShowMessage("\\n<Lucia (Affection:\\V[3167])>手厳しいのですね…… でも、知ることは何より重要なのですよ。")
  ShowMessageFace("lusia_fc1",0,0,2,23)
  ShowMessage("\\n<Lucia (Affection:\\V[3167])>危険なものこそ、知り尽くさねばなりません。 そうして律さなければならない力なのです。")
  ShowMessageFace("wormv_fc1",0,0,2,24)
  ShowMessage("\\n<Julia (Affection:\\V[3160])>なるほど、責めるつもりではありませんでした。 私自身、矛盾と迷いを感じていたので……")
  ShowMessageFace("lusia_fc1",0,0,2,25)
  ShowMessage("\\n<Lucia (Affection:\\V[3167])>では、研究を進めましょう。 ふふっ、第三触手の神経伝達がスムーズに……")
  ShowMessageFace("wormv_fc1",2,0,2,26)
  ShowMessage("\\n<Julia (Affection:\\V[3160])>（やっぱり、研究は趣味じゃ……)")
  JumpToLabel("メニュー")
  DefineLabel("163")
  ShowMessageFace("lusia_fc1",2,0,2,27)
  ShowMessage("\\n<Lucia (Affection:\\V[3167])>まさか、あなたと肩を並べて戦う事になろうとは…… 世界が一周でもしない限り、起こりえないと思っていました。")
  ShowMessageFace("lily_fc1",4,0,2,28)
  ShowMessage("\\n<Lily (Affection:\\V[3163])>それは、こっちのセリフよ…… 案外本当に、世界が一周してしまったのではないかしら？")
  ShowMessageFace("lusia_fc1",0,0,2,29)
  ShowMessage("\\n<Lucia (Affection:\\V[3167])>しかし、懐かしいものですね…… あの村での、苦しかった頃を思い出します。")
  ShowMessageFace("lily_fc1",4,0,2,30)
  ShowMessage("\\n<Lily (Affection:\\V[3163])>あの頃のように……協力していければ良いわね。")
  JumpToLabel("メニュー")
  DefineLabel("182")
  ShowMessageFace("lusia_fc1",0,0,2,31)
  ShowMessage("\\n<Lucia (Affection:\\V[3167])>少し、実験に付き合って頂けませんか……？")
  ShowMessageFace("c_homunculus_fc1",0,0,2,32)
  ShowMessage("\\n<Crowley (Affection:\\V[3182])>了解した……手伝おう……")
  ShowMessageFace("lusia_fc1",0,0,2,33)
  ShowMessage("\\n<Lucia (Affection:\\V[3167])>しかし、錬金術による被造物もまた探究の志を持つとは。 つくづく錬金とは奥深いですね。")
  ShowMessageFace("c_homunculus_fc1",0,0,2,34)
  ShowMessage("\\n<Crowley (Affection:\\V[3182])>探究の志は、万物に存在する…… どれだけ、その心に純粋になれるかの違いだろう……")
  JumpToLabel("メニュー")
  DefineLabel("メニュー")
  StartLoop()
   355("unlimited_choices(11, [\"Give presents\",")
   655("\"Add to party\",")
   655("\"View present list\",\"Make a request\",")
   655("\"Never mind\"])")
   If(1,11,0,0,0)
    355("present_start(167)")
    0()
   EndIf()
   If(1,11,0,1,0)
    PictureClear(5)
    355("move_actor_ex(167)")
    EndEventProcessing()
    0()
   EndIf()
   If(1,11,0,2,0)
    ShowMessageFace("",0,0,2,35)
    ShowMessage("Affection   10:\\ii[4]")
    ShowMessage("Affection  100:\\ia[1026]")
    ShowMessage("Affection  500:\\ia[1115]")
    ShowMessage("Affection 2000:\\ia[1192]")
    0()
   EndIf()
   If(1,11,0,3,0)
    PictureClear(5)
    ShowMessageFace("",0,0,2,36)
    ShowMessage("Ask her for what? (Affection:\\V[3167])")
    ShowChoices(strings("Predation(Affection:10)","Soul Draining Blowjob(Affection:50)","Predation...?(Affection:100)","Never mind"),4)
    IfPlayerPicksChoice(0,null)
     If(1,3167,0,10,1)
      355("call_novel_scene(4636)")
      EndEventProcessing()
      0()
     Else()
      ShowMessageFace("lusia_fc1",2,0,2,37)
      ShowMessage("\\n<Lucia (Affection:\\V[3167])>今は研究で忙しいのです。 後にしてもらえませんか？")
      0()
     EndIf()
     0()
    IfPlayerPicksChoice(1,null)
     If(1,3167,0,50,1)
      355("call_novel_scene(4637)")
      EndEventProcessing()
      0()
     Else()
      ShowMessageFace("lusia_fc1",2,0,2,38)
      ShowMessage("\\n<Lucia (Affection:\\V[3167])>今は研究で忙しいのです。 後にしてもらえませんか？")
      0()
     EndIf()
     0()
    IfPlayerPicksChoice(2,null)
     If(1,3167,0,100,1)
      355("call_novel_scene(4638)")
      EndEventProcessing()
      0()
     Else()
      ShowMessageFace("lusia_fc1",2,0,2,39)
      ShowMessage("\\n<Lucia (Affection:\\V[3167])>今は研究で忙しいのです。 後にしてもらえませんか？")
      0()
     EndIf()
     0()
    IfPlayerPicksChoice(3,null)
     0()
    404()
    0()
   EndIf()
   If(1,11,0,4,1)
    PictureClear(5)
    EndEventProcessing()
    0()
   EndIf()
   0()
  EndLoop()
  0()
 PAGE   2
  // condition: party contains actor #167
  0()
