﻿
DisplayName "Sabasa Castle 1F"



EVENT   3
 PAGE   1
  0()



EVENT   4
 PAGE   1
  0()



EVENT   10
 PAGE   1
  0()



EVENT   11
 PAGE   1
  0()



EVENT   16
 PAGE   1
  281(0)
  250(bytes(0x04,0x08,0x6f,0x3a,0x0c,0x52,0x50,0x47,0x3a,0x3a,0x53,0x45,0x08,0x3a,0x0a,0x40,0x6e,0x61,0x6d,0x65,0x49,0x22,0x09,0x4d,0x6f,0x76,0x65,0x06,0x3a,0x06,0x45,0x54,0x3a,0x0b,0x40,0x70,0x69,0x74,0x63,0x68,0x69,0x69,0x3a,0x0c,0x40,0x76,0x6f,0x6c,0x75,0x6d,0x65,0x69,0x55))
  TeleportPlayer(0,476,14,1,0,0)
  0()



EVENT   21
 PAGE   1
  281(0)
  250(bytes(0x04,0x08,0x6f,0x3a,0x0c,0x52,0x50,0x47,0x3a,0x3a,0x53,0x45,0x08,0x3a,0x0a,0x40,0x6e,0x61,0x6d,0x65,0x49,0x22,0x09,0x4d,0x6f,0x76,0x65,0x06,0x3a,0x06,0x45,0x54,0x3a,0x0b,0x40,0x70,0x69,0x74,0x63,0x68,0x69,0x69,0x3a,0x0c,0x40,0x76,0x6f,0x6c,0x75,0x6d,0x65,0x69,0x55))
  TeleportPlayer(0,378,46,15,0,0)
  0()



EVENT   22
 PAGE   1
  281(0)
  250(bytes(0x04,0x08,0x6f,0x3a,0x0c,0x52,0x50,0x47,0x3a,0x3a,0x53,0x45,0x08,0x3a,0x0a,0x40,0x6e,0x61,0x6d,0x65,0x49,0x22,0x09,0x4d,0x6f,0x76,0x65,0x06,0x3a,0x06,0x45,0x54,0x3a,0x0b,0x40,0x70,0x69,0x74,0x63,0x68,0x69,0x69,0x3a,0x0c,0x40,0x76,0x6f,0x6c,0x75,0x6d,0x65,0x69,0x55))
  TeleportPlayer(0,378,46,15,0,0)
  0()



EVENT   23
 PAGE   1
  281(0)
  250(bytes(0x04,0x08,0x6f,0x3a,0x0c,0x52,0x50,0x47,0x3a,0x3a,0x53,0x45,0x08,0x3a,0x0a,0x40,0x6e,0x61,0x6d,0x65,0x49,0x22,0x09,0x4d,0x6f,0x76,0x65,0x06,0x3a,0x06,0x45,0x54,0x3a,0x0b,0x40,0x70,0x69,0x74,0x63,0x68,0x69,0x69,0x3a,0x0c,0x40,0x76,0x6f,0x6c,0x75,0x6d,0x65,0x69,0x55))
  TeleportPlayer(0,378,46,15,0,0)
  0()



EVENT   6
 PAGE   1
  281(0)
  250(bytes(0x04,0x08,0x6f,0x3a,0x0c,0x52,0x50,0x47,0x3a,0x3a,0x53,0x45,0x08,0x3a,0x0a,0x40,0x6e,0x61,0x6d,0x65,0x49,0x22,0x09,0x4d,0x6f,0x76,0x65,0x06,0x3a,0x06,0x45,0x54,0x3a,0x0b,0x40,0x70,0x69,0x74,0x63,0x68,0x69,0x69,0x3a,0x0c,0x40,0x76,0x6f,0x6c,0x75,0x6d,0x65,0x69,0x55))
  TeleportPlayer(0,476,14,1,0,0)
  0()



EVENT   7
 PAGE   1
  281(0)
  250(bytes(0x04,0x08,0x6f,0x3a,0x0c,0x52,0x50,0x47,0x3a,0x3a,0x53,0x45,0x08,0x3a,0x0a,0x40,0x6e,0x61,0x6d,0x65,0x49,0x22,0x09,0x4d,0x6f,0x76,0x65,0x06,0x3a,0x06,0x45,0x54,0x3a,0x0b,0x40,0x70,0x69,0x74,0x63,0x68,0x69,0x69,0x3a,0x0c,0x40,0x76,0x6f,0x6c,0x75,0x6d,0x65,0x69,0x55))
  TeleportPlayer(0,476,14,1,0,0)
  0()



EVENT   8
 PAGE   1
  281(0)
  250(bytes(0x04,0x08,0x6f,0x3a,0x0c,0x52,0x50,0x47,0x3a,0x3a,0x53,0x45,0x08,0x3a,0x0a,0x40,0x6e,0x61,0x6d,0x65,0x49,0x22,0x09,0x4d,0x6f,0x76,0x65,0x06,0x3a,0x06,0x45,0x54,0x3a,0x0b,0x40,0x70,0x69,0x74,0x63,0x68,0x69,0x69,0x3a,0x0c,0x40,0x76,0x6f,0x6c,0x75,0x6d,0x65,0x69,0x55))
  TeleportPlayer(0,476,14,1,0,0)
  0()



EVENT   9
 PAGE   1
  281(0)
  250(bytes(0x04,0x08,0x6f,0x3a,0x0c,0x52,0x50,0x47,0x3a,0x3a,0x53,0x45,0x08,0x3a,0x0a,0x40,0x6e,0x61,0x6d,0x65,0x49,0x22,0x09,0x4d,0x6f,0x76,0x65,0x06,0x3a,0x06,0x45,0x54,0x3a,0x0b,0x40,0x70,0x69,0x74,0x63,0x68,0x69,0x69,0x3a,0x0c,0x40,0x76,0x6f,0x6c,0x75,0x6d,0x65,0x69,0x55))
  TeleportPlayer(0,476,14,1,0,0)
  0()



EVENT   12
 PAGE   1
  ChangeSwitch(31,31,1)
  If(1,1028,0,4,2)
   205(14,bytes(0x04,0x08,0x6f,0x3a,0x13,0x52,0x50,0x47,0x3a,0x3a,0x4d,0x6f,0x76,0x65,0x52,0x6f,0x75,0x74,0x65,0x09,0x3a,0x0c,0x40,0x72,0x65,0x70,0x65,0x61,0x74,0x46,0x3a,0x0f,0x40,0x73,0x6b,0x69,0x70,0x70,0x61,0x62,0x6c,0x65,0x46,0x3a,0x0a,0x40,0x77,0x61,0x69,0x74,0x46,0x3a,0x0a,0x40,0x6c,0x69,0x73,0x74,0x5b,0x07,0x6f,0x3a,0x15,0x52,0x50,0x47,0x3a,0x3a,0x4d,0x6f,0x76,0x65,0x43,0x6f,0x6d,0x6d,0x61,0x6e,0x64,0x07,0x3a,0x0a,0x40,0x63,0x6f,0x64,0x65,0x69,0x18,0x3a,0x10,0x40,0x70,0x61,0x72,0x61,0x6d,0x65,0x74,0x65,0x72,0x73,0x5b,0x00,0x6f,0x3b,0x0a,0x07,0x3b,0x0b,0x69,0x00,0x3b,0x0c,0x5b,0x00))
   205(15,bytes(0x04,0x08,0x6f,0x3a,0x13,0x52,0x50,0x47,0x3a,0x3a,0x4d,0x6f,0x76,0x65,0x52,0x6f,0x75,0x74,0x65,0x09,0x3a,0x0c,0x40,0x72,0x65,0x70,0x65,0x61,0x74,0x46,0x3a,0x0f,0x40,0x73,0x6b,0x69,0x70,0x70,0x61,0x62,0x6c,0x65,0x46,0x3a,0x0a,0x40,0x77,0x61,0x69,0x74,0x54,0x3a,0x0a,0x40,0x6c,0x69,0x73,0x74,0x5b,0x07,0x6f,0x3a,0x15,0x52,0x50,0x47,0x3a,0x3a,0x4d,0x6f,0x76,0x65,0x43,0x6f,0x6d,0x6d,0x61,0x6e,0x64,0x07,0x3a,0x0a,0x40,0x63,0x6f,0x64,0x65,0x69,0x18,0x3a,0x10,0x40,0x70,0x61,0x72,0x61,0x6d,0x65,0x74,0x65,0x72,0x73,0x5b,0x00,0x6f,0x3b,0x0a,0x07,0x3b,0x0b,0x69,0x00,0x3b,0x0c,0x5b,0x00))
   ShowMessageFace("",0,0,2,1)
   ShowMessage("\\n<Royal Guard A> Ahead of here, there's the Queen's room. It would appear that you're bringing your friends with you.")
   ShowMessageFace("",0,0,2,2)
   ShowMessage("\\n<Royal Guard B>But if you're going in, go in alone. You'll be able to enjoy yourself that way.")
   ShowMessageFace("ruka_fc1",0,0,2,3)
   ShowMessage("\\n<Luka>Wait here, everyone. I'll go in alone.")
   ChangeSwitch(100,100,0)
   ShowMessageFace("",0,0,2,4)
   ShowMessage("Luka left his companions behind and went up the stairs...")
   216(1)
   0()
  EndIf()
  If(1,1028,0,5,0)
   205(14,bytes(0x04,0x08,0x6f,0x3a,0x13,0x52,0x50,0x47,0x3a,0x3a,0x4d,0x6f,0x76,0x65,0x52,0x6f,0x75,0x74,0x65,0x09,0x3a,0x0c,0x40,0x72,0x65,0x70,0x65,0x61,0x74,0x46,0x3a,0x0f,0x40,0x73,0x6b,0x69,0x70,0x70,0x61,0x62,0x6c,0x65,0x46,0x3a,0x0a,0x40,0x77,0x61,0x69,0x74,0x46,0x3a,0x0a,0x40,0x6c,0x69,0x73,0x74,0x5b,0x07,0x6f,0x3a,0x15,0x52,0x50,0x47,0x3a,0x3a,0x4d,0x6f,0x76,0x65,0x43,0x6f,0x6d,0x6d,0x61,0x6e,0x64,0x07,0x3a,0x0a,0x40,0x63,0x6f,0x64,0x65,0x69,0x18,0x3a,0x10,0x40,0x70,0x61,0x72,0x61,0x6d,0x65,0x74,0x65,0x72,0x73,0x5b,0x00,0x6f,0x3b,0x0a,0x07,0x3b,0x0b,0x69,0x00,0x3b,0x0c,0x5b,0x00))
   205(15,bytes(0x04,0x08,0x6f,0x3a,0x13,0x52,0x50,0x47,0x3a,0x3a,0x4d,0x6f,0x76,0x65,0x52,0x6f,0x75,0x74,0x65,0x09,0x3a,0x0c,0x40,0x72,0x65,0x70,0x65,0x61,0x74,0x46,0x3a,0x0f,0x40,0x73,0x6b,0x69,0x70,0x70,0x61,0x62,0x6c,0x65,0x46,0x3a,0x0a,0x40,0x77,0x61,0x69,0x74,0x54,0x3a,0x0a,0x40,0x6c,0x69,0x73,0x74,0x5b,0x07,0x6f,0x3a,0x15,0x52,0x50,0x47,0x3a,0x3a,0x4d,0x6f,0x76,0x65,0x43,0x6f,0x6d,0x6d,0x61,0x6e,0x64,0x07,0x3a,0x0a,0x40,0x63,0x6f,0x64,0x65,0x69,0x18,0x3a,0x10,0x40,0x70,0x61,0x72,0x61,0x6d,0x65,0x74,0x65,0x72,0x73,0x5b,0x00,0x6f,0x3b,0x0a,0x07,0x3b,0x0b,0x69,0x00,0x3b,0x0c,0x5b,0x00))
   If(1,1022,0,5,2)
    ShowMessageFace("",0,0,2,5)
    ShowMessage("\\n<Royal Guard A>Hey, hold up a minute. At this moment the Queen is meeting an emissary from San Ilia.")
    ShowMessageFace("",0,0,2,6)
    ShowMessage("\\n<Royal Guard B>What's irregular, is that she's not having any fun. They said something about Luddite's Temple Ruins...")
    ShowMessageFace("",0,0,2,7)
    ShowMessage("\\n<Royal Guard A>Thus, come at some other time. You'll be able to enjoy yourself plenty then.")
    205(-1,bytes(0x04,0x08,0x6f,0x3a,0x13,0x52,0x50,0x47,0x3a,0x3a,0x4d,0x6f,0x76,0x65,0x52,0x6f,0x75,0x74,0x65,0x09,0x3a,0x0c,0x40,0x72,0x65,0x70,0x65,0x61,0x74,0x46,0x3a,0x0f,0x40,0x73,0x6b,0x69,0x70,0x70,0x61,0x62,0x6c,0x65,0x46,0x3a,0x0a,0x40,0x77,0x61,0x69,0x74,0x54,0x3a,0x0a,0x40,0x6c,0x69,0x73,0x74,0x5b,0x07,0x6f,0x3a,0x15,0x52,0x50,0x47,0x3a,0x3a,0x4d,0x6f,0x76,0x65,0x43,0x6f,0x6d,0x6d,0x61,0x6e,0x64,0x07,0x3a,0x0a,0x40,0x63,0x6f,0x64,0x65,0x69,0x06,0x3a,0x10,0x40,0x70,0x61,0x72,0x61,0x6d,0x65,0x74,0x65,0x72,0x73,0x5b,0x00,0x6f,0x3b,0x0a,0x07,0x3b,0x0b,0x69,0x00,0x3b,0x0c,0x5b,0x00))
    ShowMessageFace("",0,0,2,8)
    ShowMessage(".")
    EndEventProcessing()
    0()
   EndIf()
   ShowMessageFace("",0,0,2,9)
   ShowMessage("\\n<Royal Guard A>Ahead of here, there's the Queen's room. It would appear that you're bringing your friends with you...")
   ShowMessageFace("ruka_fc1",0,0,2,10)
   ShowMessage("\\n<Luka>Sorry, we'll be passing by force!")
   If(0,6,0)
    ShowMessageFace("sonia_fc1",5,0,2,11)
    ShowMessage("\\n<Sonya>We're returning the Queen to sanity! We'll have to be reckless!")
    0()
   EndIf()
   ShowMessageFace("",0,0,2,12)
   ShowMessage("\\n<Royal Guard A>Seriously? Why does something as troublesome as this have to happen during my working hours...")
   ShowMessageFace("",0,0,2,13)
   ShowMessage("\\n<Royal Guard B>I would prefer not to have any unnecessary injuries, hurry up and go through.")
   If(0,4,0)
    ShowMessageFace("alice_fc5",5,0,2,14)
    ShowMessage("\\n<Alice>What a lack of discipline. These guys were always thugs, weren't they?")
    0()
   EndIf()
   If(0,5,0)
    ShowMessageFace("iriasu_fc4",2,0,2,15)
    ShowMessage("\\n<Ilias>What an absence of dicipline. They are clearly no better than thugs.")
    0()
   EndIf()
   ShowMessageFace("ruka_fc1",0,0,2,16)
   ShowMessage("\\n<Luka>All right, let's go!")
   0()
  EndIf()
  281(0)
  250(bytes(0x04,0x08,0x6f,0x3a,0x0c,0x52,0x50,0x47,0x3a,0x3a,0x53,0x45,0x08,0x3a,0x0a,0x40,0x6e,0x61,0x6d,0x65,0x49,0x22,0x09,0x4d,0x6f,0x76,0x65,0x06,0x3a,0x06,0x45,0x54,0x3a,0x0b,0x40,0x70,0x69,0x74,0x63,0x68,0x69,0x69,0x3a,0x0c,0x40,0x76,0x6f,0x6c,0x75,0x6d,0x65,0x69,0x55))
  TeleportPlayer(0,378,31,24,0,0)
  0()



EVENT   14
 PAGE   1
  If(1,1028,0,7,2)
   ShowMessageFace("",0,0,2,1)
   ShowMessage("\\n<Royal Guard>I drank too much yesterday and now I've got a hangover...")
   EndEventProcessing()
   0()
  EndIf()
  If(1,1028,0,8,0)
   ShowMessageFace("",0,0,2,2)
   ShowMessage("\\n<Royal Guard>It's hard to tell since I'm wearing the same equipment. But I'm actually a different guard from the other one.")
   ShowMessageFace("",0,0,2,3)
   ShowMessage("\\n<Royal Guard>Don't worry. I will defend the staircase.")
   EndEventProcessing()
   0()
  EndIf()
  0()



EVENT   15
 PAGE   1
  If(1,1028,0,7,2)
   ShowMessageFace("",0,0,2,1)
   ShowMessage("\\n<Royal Guard>I hope the night comes soon.")
   EndEventProcessing()
   0()
  EndIf()
  If(1,1028,0,8,0)
   ShowMessageFace("",0,0,2,2)
   ShowMessage("\\n<Royal Guard>Good grief, the new bunch has caused the Sabasasa Royal Guards' reputation to plummet. We will need to recover our honor by doing good work from now on.")
   355("actor_label_jump")
   EndEventProcessing()
   DefineLabel("529")
   ShowMessageFace("sara_fc1",0,0,2,3)
   ShowMessage("\\n<Sara>It's the same for me. I will endeavour to wash of this shame.")
   EndEventProcessing()
   0()
  EndIf()
  0()



EVENT   24
 PAGE   1
  ShowMessageFace("",0,0,2,1)
  ShowMessage("\\n<Minister>Far North of Sabasa, there's a town called Salon. I hear that an Assassin household that served the Royal Family for generations had initially come from there...")
  ShowMessageFace("",0,0,2,2)
  ShowMessage("\\n<Minister>You may believe that it's a frightening town now, but it's actually just an ordinary, peaceful town.")
  0()



EVENT   18
 PAGE   1
  If(1,1028,0,7,2)
   ShowMessageFace("",0,0,2,1)
   ShowMessage("\\n<Minister>Leaving the united powers alone is such a disrespect and also a bad move considering the circumstances.")
   ShowMessageFace("",0,0,2,2)
   ShowMessage("\\n<Minister>After conquering Grand Noah, Grangold will surely extend their reach towards the south of the continent.")
   ShowMessageFace("",0,0,2,3)
   ShowMessage("\\n<Minister>At that time, our troubled country won't be able to resist them. I wonder what the Queen is considering...")
   EndEventProcessing()
   0()
  EndIf()
  If(1,1028,0,8,0)
   ShowMessageFace("",0,0,2,4)
   ShowMessage("\\n<Minister>The expeditionary force has been reorganized and Sabasa has once again joined the alliance. Since we have dishonored ourselves I was prepared for strong criticism but...")
   ShowMessageFace("",0,0,2,5)
   ShowMessage("\\n<Minister>we were presented with no special conditions after re-entering the alliance. Either they can't afford to do that or...")
   ShowMessageFace("",0,0,2,6)
   ShowMessage("\\n<Minister>the yomas who are working behind the scenes have various countries in their grasp. It's possible that they're also involved with the other nations.")
   355("actor_label_jump")
   EndEventProcessing()
   DefineLabel("529")
   ShowMessageFace("sara_fc1",0,0,2,7)
   ShowMessage("\\n<Sara>That's one of the big reasons for me to accompany others in a journey. I wish to get out of the castle and see the world.")
   EndEventProcessing()
   0()
  EndIf()
  0()



EVENT   25
 PAGE   1
  ShowMessageFace("",0,0,2,1)
  ShowMessage("\\n<Vassal>It's said that the wife of the first King of Sabasa was a monster. In other words, Sabasa's royal family has monster blood within them. ")
  ShowMessageFace("",0,0,2,2)
  ShowMessage("\\n<Vassal>This is widely known by the people of Sabasa. The previous King of Sabasa was acutally proud of that fact and didn't wish to hide it.")
  0()



EVENT   19
 PAGE   1
  If(1,1028,0,7,2)
   ShowMessageFace("",0,0,2,1)
   ShowMessage("\\n<Minister>Ahh, lots of things are making me uneasy. Her Majesty went crazy when we withdrew from the alliance.")
   ShowMessageFace("",0,0,2,2)
   ShowMessage("\\n<Minister>The local dispute in Magistea Village is getting worse. Rubiana's villagers have gone missing.")
   ShowMessageFace("",0,0,2,3)
   ShowMessage("\\n<Minister>No matter how many men we have at our disposal, there are never enough. I wonder what's going to happen to Sabasa...")
   EndEventProcessing()
   0()
  EndIf()
  If(1,1028,0,8,0)
   ShowMessageFace("",0,0,2,4)
   ShowMessage("\\n<Minister>Lady Sara's sanity has returned since we have returned to the alliance. But while the current situation is going in a good direction, problems are still continuing to pile up.")
   ShowMessageFace("",0,0,2,5)
   ShowMessage("\\n<Minister>The local dispute in Magistea Village is getting worse. Rubiana's villagers have gone missing.")
   ShowMessageFace("",0,0,2,6)
   ShowMessage("\\n<Minister>While the war with Grangold is intensifying, there are the mysterious yoma who attempt to bring about our downfall.")
   ShowMessageFace("",0,0,2,7)
   ShowMessage("\\n<Minister>No matter how much personnel we have, there are never enough. Looks like the dark days are going to continue.")
   EndEventProcessing()
   0()
  EndIf()
  0()



EVENT   26
 PAGE   1
  ShowMessageFace("",0,0,2,1)
  ShowMessage("\\n<Vassal>The Pyramid is a huge labyrinth made by ancient monsters a thousand years ago. According to records, it's a place created for a trial.")
  ShowMessageFace("",0,0,2,2)
  ShowMessage("\\n<Vassal>This is, a ritual called 'The Dragon Seal Trial'. According to documents it's a trial for marriage vows with one of the dragonkind.")
  ShowMessageFace("",0,0,2,3)
  ShowMessage("\\n<Vassal>However, according to what I heard from a certain Lizard Girl acquaintance, it has become completely pointless among the dragonkind and there's a rare few who know of it.")
  ShowMessageFace("",0,0,2,4)
  ShowMessage("\\n<Vassal>The girl I asked about it told me, 'You're like a stalker, gross'.")
  355("actor_label_jump")
  EndEventProcessing()
  DefineLabel("169")
  ShowMessageFace("lizardthief_fc1",0,0,2,5)
  ShowMessage("\\n<Liru>But that is gross. If you want to get married, then ask the woman in question.")
  EndEventProcessing()
  DefineLabel("170")
  ShowMessageFace("lizardthief_fc2",0,0,2,6)
  ShowMessage("\\n<Len>But I think the trial still has a purpose. Your groom is going to prove his strength to you. What is so bad about it?")
  EndEventProcessing()
  DefineLabel("525")
  ShowMessageFace("sonia_fc4",0,0,2,7)
  ShowMessage("\\n<Sonya>In human terms, it's like a complete stranger coming to you with marriage registration papers.")
  EndEventProcessing()
  0()



EVENT   27
 PAGE   1
  ShowMessageFace("",0,0,2,1)
  ShowMessage("\\n<Knight>In the Salon town to the North there's a craftswoman who can make crystal equipment. They say it's a process handed down among the Assassin clan that resides there.")
  ShowMessageFace("",0,0,2,2)
  ShowMessage("\\n<Knight>But apparently she's an oddball. Unless she likes you, she will refuse to make any crystal equipment for you.")
  0()



EVENT   28
 PAGE   1
  If(1,1028,0,7,2)
   ShowMessageFace("",0,0,2,1)
   ShowMessage("\\n<Maid>I have seen it... wings have grown from the Queen's back!")
   EndEventProcessing()
   0()
  EndIf()
  If(1,1028,0,8,0)
   ShowMessageFace("",0,0,2,2)
   ShowMessage("\\n<Maid>Now everything is back to normal. No, the war with Grangold is still continuing, isn't it?")
   EndEventProcessing()
   0()
  EndIf()
  0()



EVENT   29
 PAGE   1
  If(1,1028,0,7,2)
   ShowMessageFace("",0,0,2,1)
   ShowMessage("\\n<Maid>It's clear that the Queen has lost her sanity. I mean, she's playing with men these days, right?")
   ShowMessageFace("",0,0,2,2)
   ShowMessage("\\n<Maid>But originally, lady Sara was only interested in women... Whoops, please forget that.")
   EndEventProcessing()
   0()
  EndIf()
  If(1,1028,0,8,0)
   ShowMessageFace("",0,0,2,3)
   ShowMessage("\\n<Maid>As I thought, lady Sara really has lost her sanity. I mean, she's usually only interested in women.")
   ShowMessageFace("",0,0,2,4)
   ShowMessage("\\n<Maid>Why do I know that? I'll leave it to your imagination.")
   355("actor_label_jump")
   EndEventProcessing()
   DefineLabel("529")
   ShowMessageFace("sara_fc1",1,0,2,5)
   ShowMessage("\\n<Sara>Good grief, you're such a blabber.")
   ShowMessageFace("",0,0,2,6)
   ShowMessage("\\n<Maid>L-lady Sara. F-forgive me.♪")
   EndEventProcessing()
   0()
  EndIf()
  0()



EVENT   30
 PAGE   1
  If(1,1028,0,7,2)
   ShowMessageFace("",0,0,2,1)
   ShowMessage("\\n<Knight>You were a commoner as well once weren't you!? Hyahaha!")
   0()
  EndIf()
  If(1,1028,0,8,0)
   ShowMessageFace("",0,0,2,2)
   ShowMessage("\\n<Knight>I wonder where the Grandgold King's abnormal power originates from? He can destroy everything in his surroundings with magic. That's not something of human level.")
   ShowMessageFace("",0,0,2,3)
   ShowMessage("\\n<Knight>Even if you pierce his body with arrows and cut with blades, nothing works. Is he even a human?")
   0()
  EndIf()
  0()



EVENT   31
 PAGE   1
  If(1,1028,0,7,2)
   ShowMessageFace("",0,0,2,1)
   ShowMessage("\\n<Knight>Being a knight is awesome! Just by walking on the road, commoners move out of my way!")
   0()
  EndIf()
  If(1,1028,0,8,0)
   ShowMessageFace("",0,0,2,2)
   ShowMessage("\\n<Knight>I though that the rumors of the Grangold King's power were nothing more than rumors. But according to the expeditionary force that came back, it's all true.")
   ShowMessageFace("",0,0,2,3)
   ShowMessage("\\n<Knight>Either he uses some prohibited art or he could be a monster disguised as the King.")
   0()
  EndIf()
  0()



EVENT   32
 PAGE   1
  If(1,1028,0,7,2)
   ShowMessageFace("",0,0,2,1)
   ShowMessage("\\n<Guard>Come and go as you please.")
   0()
  EndIf()
  If(1,1028,0,8,0)
   ShowMessageFace("",0,0,2,2)
   ShowMessage("\\n<Guard>Welcome to the Sabasa Castle. You are free to roam the first floor.")
   0()
  EndIf()
  0()



EVENT   33
 PAGE   1
  If(1,1028,0,7,2)
   ShowMessageFace("",0,0,2,1)
   ShowMessage("\\n<Guard>30 more minutes and my guard duty will be over. So tired...")
   0()
  EndIf()
  If(1,1028,0,8,0)
   ShowMessageFace("",0,0,2,2)
   ShowMessage("\\n<Guard>Welcome to Sabasa Castle. You need a permission slip to go to the second floor. But you have been authorized to go in.")
   0()
  EndIf()
  0()



EVENT   35
 PAGE   1
  If(1,1028,0,7,2)
   ShowMessageFace("",0,0,2,1)
   ShowMessage("\\n<Soldier>The guys who went to war with Grangold should soon return. Since they're elites, there should be no problem.")
   0()
  EndIf()
  If(1,1028,0,8,0)
   ShowMessageFace("",0,0,2,2)
   ShowMessage("\\n<Soldier>I have returned from the expedition. But what's up with Grandgold's army?")
   ShowMessageFace("",0,0,2,3)
   ShowMessage("\\n<Soldier>It's all Ant Girls and automatons, they don't have any human soldiers. What on earth is going on in that country...")
   355("actor_label_jump")
   EndEventProcessing()
   DefineLabel("81")
   ShowMessageFace("mitubati_fc1",0,0,2,4)
   ShowMessage("\\n<Honey>Ant Girls won't listen to orders of humans. Without a doubt, the Ant Queen is involved.")
   EndEventProcessing()
   DefineLabel("131")
   ShowMessageFace("doll_fc1",0,0,2,5)
   ShowMessage("\\n<Miyabi>I wonder if I can become friends with the automatons soldiers?")
   EndEventProcessing()
   0()
  EndIf()
  0()



EVENT   34
 PAGE   1
  If(1,1028,0,7,2)
   ShowMessageFace("",0,0,2,1)
   ShowMessage("\\n<Soldier>ghhh, ghhh... c'mon, stop waking me up.")
   0()
  EndIf()
  If(1,1028,0,8,0)
   ShowMessageFace("",0,0,2,2)
   ShowMessage("\\n<Soldier>It's best to sleep when you have the time to, it's a common practice of Sabasa soldiers. I learned that in the last expedition.")
   355("actor_label_jump")
   EndEventProcessing()
   DefineLabel("59")
   ShowMessageFace("mdg_fc1",0,0,2,3)
   ShowMessage("\\n<Ragora>I've known that ever since I was born. Now, let's sleep soundly.")
   EndEventProcessing()
   DefineLabel("141")
   ShowMessageFace("mino_fc1",0,0,2,4)
   ShowMessage("\\n<Mina>After all, you can't sleep when your fighting!")
   EndEventProcessing()
   0()
  EndIf()
  0()



EVENT   17
 PAGE   1
  If(1,1028,0,7,2)
   ShowMessageFace("",0,0,2,1)
   ShowMessage("\\n<Soldier>His Majesty is surely alive. Once his injuries are healed he will return to our country.")
   0()
  EndIf()
  If(1,1028,0,8,0)
   ShowMessageFace("",0,0,2,2)
   ShowMessage("\\n<Soldier>His Majesty might really be dead. I wonder if he watches over us as we reclaim our honor.")
   0()
  EndIf()
  0()



EVENT   36
 PAGE   1
  If(1,1028,0,7,2)
   ShowMessageFace("",0,0,2,1)
   ShowMessage("\\n<Knight>Ever since the new Queen was crowned, many untrustworthy soldiers were recruited. They're absolutely good for nothing in the case of an emergency.")
   ShowMessageFace("",0,0,2,2)
   ShowMessage("\\n<Knight>The conflict between the veteran soldiers and the new soldiers only increases now. The heroic traditions of Sabasa's military are coming to and end.")
   0()
  EndIf()
  If(1,1028,0,8,0)
   ShowMessageFace("",0,0,2,3)
   ShowMessage("\\n<Knight>When we tried to correct the discipline of the new soldiers, they immediately left the military. After they left, everything returned to how it was during previous King's era.")
   ShowMessageFace("",0,0,2,4)
   ShowMessage("\\n<Knight>The morale has improved and is now far greater compared to how it was when the thugs were in the military. The heroic traditions of Sabasa's military haven't been truly lost to us yet.")
   0()
  EndIf()
  0()



EVENT   37
 PAGE   1
  If(1,1028,0,7,2)
   ShowMessageFace("",0,0,2,1)
   ShowMessage("\\n<Knight>Hey, what're ya lookin' at? I'm a knight under the Queen's direct control y'know?")
   0()
  EndIf()
  If(1,1028,0,8,0)
   ShowMessageFace("",0,0,2,2)
   ShowMessage("\\n<Knight>Now that the expeditionary force is back, the ones who have exchanged blows with Grangold's army speak of their abnormality.")
   ShowMessageFace("",0,0,2,3)
   ShowMessage("\\n<Knight>What is going on in that country...")
   355("actor_label_jump")
   EndEventProcessing()
   DefineLabel("531")
   ShowMessageFace("saniria_fc2",0,0,2,4)
   ShowMessage("\\n<King of San Ilia>I initially doubted our own knight troop's reports, but I'm starting to believe them. Is Grangold no longer a human country?")
   EndEventProcessing()
   0()
  EndIf()
  0()



EVENT   38
 PAGE   1
  If(1,1028,0,7,2)
   ShowMessageFace("",0,0,2,1)
   ShowMessage("\\n<Knight>Hee, so this is the first King of Sabasa? He looks really metallic!")
   0()
  EndIf()
  If(1,1028,0,8,0)
   ShowMessageFace("",0,0,2,2)
   ShowMessage("\\n<Knight>During the next expedition I am to lead an entire company. Your Majesty the First, please protect us.")
   355("actor_label_jump")
   EndEventProcessing()
   DefineLabel("529")
   ShowMessageFace("sara_fc1",1,0,2,3)
   ShowMessage("\\n<Sara>It's all right, you just have to do as you normally do during training.")
   ShowMessageFace("",0,0,2,4)
   ShowMessage("\\n<Knight>Yes ma'am! Our country shall surely triumph over Grangold!")
   EndEventProcessing()
   0()
  EndIf()
  0()



EVENT   5
 PAGE   1
  If(1,1028,0,7,2)
   ShowMessageFace("",0,0,2,1)
   ShowMessage("\\n<Assassin>Get lost.")
   EndEventProcessing()
   0()
  EndIf()
  If(1,1028,0,8,0)
   ShowMessageFace("",0,0,2,2)
   ShowMessage("\\n<Assassin>Seems like you saved the head. You have my thanks.")
   EndEventProcessing()
   0()
  EndIf()
  0()



EVENT   20
 PAGE   1
  If(1,1028,0,7,2)
   ShowMessageFace("",0,0,2,1)
   ShowMessage("\\n<Soldier>An Assassin? Scary. I wouldn't get too close to him.")
   EndEventProcessing()
   0()
  EndIf()
  If(1,1028,0,8,0)
   ShowMessageFace("",0,0,2,2)
   ShowMessage("\\n<Soldier>The Assassin troop has continued to support Sabasa ever since the original founder's era. We owe a lot to them for what they have done.")
   ShowMessageFace("",0,0,2,3)
   ShowMessage("\\n<Soldier>But they're still scary.")
   EndEventProcessing()
   0()
  EndIf()
  0()



EVENT   1
 PAGE   1
  0()



EVENT   2
 PAGE   1
  0()



EVENT   39
 PAGE   1
  If(1,1028,0,7,2)
   ShowMessageFace("",0,0,2,1)
   ShowMessage("\\n<Maid>The Queen eats whatever she wants. To think she eats so much and doesn't gain any weight. I'm so envious of her.")
   EndEventProcessing()
   0()
  EndIf()
  If(1,1028,0,8,0)
   ShowMessageFace("",0,0,2,2)
   ShowMessage("\\n<Maid>The expedition has finally returned to the castle. I think it would be good if it was a little more loose but.")
   EndEventProcessing()
   0()
  EndIf()
  0()



EVENT   40
 PAGE   1
  If(1,1028,0,7,2)
   ShowMessageFace("",0,0,2,1)
   ShowMessage("\\n<Royal Guard>I stole the Queen's panties from her room. Hehe... I love this job.")
   If(0,6,0)
    ShowMessageFace("sonia_fc4",0,0,2,2)
    ShowMessage("\\n<Sonya>To think they recruited a pervert like this as a guard.")
    0()
   EndIf()
   0()
  EndIf()
  If(1,1028,0,8,0)
   ShowMessageFace("",0,0,2,3)
   ShowMessage("\\n<Royal Guard>I snatched panties from lady Sara's room. Hehe... I love this job.")
   If(0,6,0)
    ShowMessageFace("sonia_fc3",2,0,2,4)
    ShowMessage("\\n<Sonya>Aren't you an elite soldier from the previous King's era?! Ain't you the same as those other thug guards!")
    ShowMessageFace("",0,0,2,5)
    ShowMessage("\\n<Royal Guard>K-keep it a secret, I beg you! I was born in Pornof and I moved here. I managed to get promoted so far!")
    ShowMessageFace("sonia_fc3",0,0,2,6)
    ShowMessage("\\n<Sonya>So he really came from that town. I'll kill him.")
    0()
   EndIf()
   0()
  EndIf()
  0()



EVENT   41
 PAGE   1
  // condition: variable 1028 >= 8
  If(1,1028,0,7,2)
   ShowMessageFace("",0,0,2,1)
   ShowMessage("\\n<Maid>Such a perverted bunch calls themselves dare to call themselves Sabasa's soldiers. O' previous your Majesty, please forgive our incompetence.")
   EndEventProcessing()
   0()
  EndIf()
  If(1,1028,0,8,0)
   ShowMessageFace("",0,0,2,2)
   ShowMessage("\\n<Maid>Even now that she has become Queen, the Queen Sara was always extremely popular. Even during the election she was chosen as the President.")
   355("actor_label_jump")
   EndEventProcessing()
   DefineLabel("529")
   ShowMessageFace("sara_fc1",4,0,2,3)
   ShowMessage("\\n<Sara>I think President is a role that suits me even less than that of a Queen.")
   EndEventProcessing()
   0()
  EndIf()
  0()



EVENT   43
 PAGE   1
  If(1,1028,0,7,2)
   ShowMessageFace("",0,0,2,1)
   ShowMessage("\\n<Soldier>What a bother! Even breathing is a bother!")
   ShowMessageFace("",0,0,2,2)
   ShowMessage("\\n<Soldier>Oh, my mood improved with that! Feels kinda good!")
   0()
  EndIf()
  If(1,1028,0,8,0)
   ShowMessageFace("",0,0,2,3)
   ShowMessage("\\n<Soldier>Saki-chaaan... *twinkle*☆")
   355("actor_label_jump")
   EndEventProcessing()
   DefineLabel("155")
   ShowMessageFace("saki_fc1",3,0,2,4)
   ShowMessage("\\n<Saki>Thank you for your support☆.")
   EndEventProcessing()
   0()
  EndIf()
  0()



EVENT   42
 PAGE   1
  ShowMessageFace("",0,0,2,1)
  ShowMessage("\\n<Guard>What Sabasa's warriors truly yearn for would be the Crystal-made armor. However, the crafting method is only handed down in Salon.")
  ShowMessageFace("",0,0,2,2)
  ShowMessage("\\n<Guard>And thus, there's only a few people who have access to that armor. I wish I had one...")
  0()



EVENT   44
 PAGE   1
  If(1,1028,0,7,2)
   ShowMessageFace("",0,0,2,1)
   ShowMessage("\\n<Soldier>I want to finish this work off quickly and play around in Grandeur.")
   0()
  EndIf()
  If(1,1028,0,8,0)
   ShowMessageFace("",0,0,2,2)
   ShowMessage("\\n<Soldier>The members of the expedition force have returned and provided us with useful information on the war with Grangold. It's a hot topic among us, in Sabasa.")
   ShowMessageFace("",0,0,2,3)
   ShowMessage("\\n<Soldier>I can't deny that there are some who are shaken by that, but the morale has improved now we know who we're up against. We don't want such abominations trampling over our homeland!")
   0()
  EndIf()
  0()



EVENT   45
 PAGE   1
  ShowMessageFace("",0,0,2,1)
  ShowMessage("\\n<Guard>Grangold has slaughtered the residents of a village called Lima along the border. Men alone were abducted, and the remaining women, children and elders were all slaughtered...")
  ShowMessageFace("",0,0,2,2)
  ShowMessage("\\n<Guard>Sabasa was initially against participating in a military alliance. But once we heard that Grangold was slaughtering women and children, we realised we couldn't just sit idly by.")
  ShowMessageFace("",0,0,2,3)
  ShowMessage("\\n<Guard>If we did just stand by and watch, then those atrocities could very well repeat and this time in Sabasa's territory. We cannot allow this to happen again.")
  If(1,1028,0,7,2)
   ShowMessageFace("",0,0,2,4)
   ShowMessage("\\n<Guard>But to withdraw from the alliance... why would the Queen even consider that? She surely knows what is at stake.")
   0()
  EndIf()
  If(1,1028,0,8,0)
   ShowMessageFace("",0,0,2,5)
   ShowMessage("\\n<Guard>I will be a member of the next expedition into Grangold territorty. Grangold's despicable actions have to be halted, no matter the cost!")
   355("actor_label_jump")
   EndEventProcessing()
   DefineLabel("140")
   ShowMessageFace("taran_fc1",0,0,2,6)
   ShowMessage("\\n<Rachura>War is bad, right? Can't we all just get along?")
   EndEventProcessing()
   0()
  EndIf()
  0()



EVENT   46
 PAGE   1
  If(1,1028,0,7,2)
   ShowMessageFace("",0,0,2,1)
   ShowMessage("\\n<Soldier>Fuck, this job is awesome! All I have to do is stand here all day!")
   ShowMessageFace("",0,0,2,2)
   ShowMessage("\\n<Soldier>Ain't this a waste of taxes? This is a waste of our taxes, right?")
   0()
  EndIf()
  If(1,1028,0,8,0)
   ShowMessageFace("",0,0,2,3)
   ShowMessage("\\n<Soldier>Luddite Village was destroyed. According to the rumors, it was done by the same yomas who tried to make our country collapse.")
   ShowMessageFace("",0,0,2,4)
   ShowMessage("\\n<Soldier>If that is the case, Sabasa itself could be next on their list. We will be ready for them, if they do attack.")
   355("actor_label_jump")
   EndEventProcessing()
   DefineLabel("141")
   ShowMessageFace("mino_fc1",0,0,2,5)
   ShowMessage("\\n<Mina>All righty, do your best!")
   EndEventProcessing()
   0()
  EndIf()
  0()



EVENT   47
 PAGE   1
  ShowMessageFace("",0,0,2,1)
  ShowMessage("\\n<Vassal>The previous King was very distressed over the Magistea Village's state, but prevented by their independence, he was unable to intervene himself.")
  ShowMessageFace("",0,0,2,2)
  ShowMessage("\\n<Vassal>He sent troops to Magistea to investigate time and time again but, using a bad precedent they refused his help.")
  ShowMessageFace("",0,0,2,3)
  ShowMessage("\\n<Vassal>Due to the way our country's law works, we couldn't simply use force, or we would be breaking our own law. As a result of this, Magistea Village has turned into the dark part of our country.")
  355("actor_label_jump")
  EndEventProcessing()
  DefineLabel("163")
  ShowMessageFace("lily_fc1",3,0,2,4)
  ShowMessage("\\n<Lily>Hmph, how selfish.")
  EndEventProcessing()
  DefineLabel("167")
  ShowMessageFace("lusia_fc1",2,0,2,5)
  ShowMessage("\\n<Lucia>Although we understand the situation with our government, we won't hide our disappointment.")
  EndEventProcessing()
  DefineLabel("529")
  ShowMessageFace("sara_fc1",4,0,2,6)
  ShowMessage("\\n<Sara>All responsibility lies in the government, we wouldn't ever make it up to the innocent villagers decide.")
  EndEventProcessing()
  0()



EVENT   13
 PAGE   1
  ChangeSwitch(31,31,1)
  If(1,1028,0,4,2)
   205(14,bytes(0x04,0x08,0x6f,0x3a,0x13,0x52,0x50,0x47,0x3a,0x3a,0x4d,0x6f,0x76,0x65,0x52,0x6f,0x75,0x74,0x65,0x09,0x3a,0x0c,0x40,0x72,0x65,0x70,0x65,0x61,0x74,0x46,0x3a,0x0f,0x40,0x73,0x6b,0x69,0x70,0x70,0x61,0x62,0x6c,0x65,0x46,0x3a,0x0a,0x40,0x77,0x61,0x69,0x74,0x46,0x3a,0x0a,0x40,0x6c,0x69,0x73,0x74,0x5b,0x07,0x6f,0x3a,0x15,0x52,0x50,0x47,0x3a,0x3a,0x4d,0x6f,0x76,0x65,0x43,0x6f,0x6d,0x6d,0x61,0x6e,0x64,0x07,0x3a,0x0a,0x40,0x63,0x6f,0x64,0x65,0x69,0x18,0x3a,0x10,0x40,0x70,0x61,0x72,0x61,0x6d,0x65,0x74,0x65,0x72,0x73,0x5b,0x00,0x6f,0x3b,0x0a,0x07,0x3b,0x0b,0x69,0x00,0x3b,0x0c,0x5b,0x00))
   205(15,bytes(0x04,0x08,0x6f,0x3a,0x13,0x52,0x50,0x47,0x3a,0x3a,0x4d,0x6f,0x76,0x65,0x52,0x6f,0x75,0x74,0x65,0x09,0x3a,0x0c,0x40,0x72,0x65,0x70,0x65,0x61,0x74,0x46,0x3a,0x0f,0x40,0x73,0x6b,0x69,0x70,0x70,0x61,0x62,0x6c,0x65,0x46,0x3a,0x0a,0x40,0x77,0x61,0x69,0x74,0x54,0x3a,0x0a,0x40,0x6c,0x69,0x73,0x74,0x5b,0x07,0x6f,0x3a,0x15,0x52,0x50,0x47,0x3a,0x3a,0x4d,0x6f,0x76,0x65,0x43,0x6f,0x6d,0x6d,0x61,0x6e,0x64,0x07,0x3a,0x0a,0x40,0x63,0x6f,0x64,0x65,0x69,0x18,0x3a,0x10,0x40,0x70,0x61,0x72,0x61,0x6d,0x65,0x74,0x65,0x72,0x73,0x5b,0x00,0x6f,0x3b,0x0a,0x07,0x3b,0x0b,0x69,0x00,0x3b,0x0c,0x5b,0x00))
   ShowMessageFace("",0,0,2,1)
   ShowMessage("\\n<Royal Guard A>Ahead of here, there's the Queen's room. It would appear that you're bringing your friends with you.")
   ShowMessageFace("",0,0,2,2)
   ShowMessage("\\n<Royal Guard B>But if you're going in, go in alone. You'll be able to enjoy yourself that way.")
   ShowMessageFace("ruka_fc1",0,0,2,3)
   ShowMessage("\\n<Luka>Wait here, everyone. I'll go in alone...")
   ChangeSwitch(100,100,0)
   ShowMessageFace("",0,0,2,4)
   ShowMessage("Luka left his companions behind and went up the stairs...")
   216(1)
   0()
  EndIf()
  If(1,1028,0,5,0)
   205(14,bytes(0x04,0x08,0x6f,0x3a,0x13,0x52,0x50,0x47,0x3a,0x3a,0x4d,0x6f,0x76,0x65,0x52,0x6f,0x75,0x74,0x65,0x09,0x3a,0x0c,0x40,0x72,0x65,0x70,0x65,0x61,0x74,0x46,0x3a,0x0f,0x40,0x73,0x6b,0x69,0x70,0x70,0x61,0x62,0x6c,0x65,0x46,0x3a,0x0a,0x40,0x77,0x61,0x69,0x74,0x46,0x3a,0x0a,0x40,0x6c,0x69,0x73,0x74,0x5b,0x07,0x6f,0x3a,0x15,0x52,0x50,0x47,0x3a,0x3a,0x4d,0x6f,0x76,0x65,0x43,0x6f,0x6d,0x6d,0x61,0x6e,0x64,0x07,0x3a,0x0a,0x40,0x63,0x6f,0x64,0x65,0x69,0x18,0x3a,0x10,0x40,0x70,0x61,0x72,0x61,0x6d,0x65,0x74,0x65,0x72,0x73,0x5b,0x00,0x6f,0x3b,0x0a,0x07,0x3b,0x0b,0x69,0x00,0x3b,0x0c,0x5b,0x00))
   205(15,bytes(0x04,0x08,0x6f,0x3a,0x13,0x52,0x50,0x47,0x3a,0x3a,0x4d,0x6f,0x76,0x65,0x52,0x6f,0x75,0x74,0x65,0x09,0x3a,0x0c,0x40,0x72,0x65,0x70,0x65,0x61,0x74,0x46,0x3a,0x0f,0x40,0x73,0x6b,0x69,0x70,0x70,0x61,0x62,0x6c,0x65,0x46,0x3a,0x0a,0x40,0x77,0x61,0x69,0x74,0x54,0x3a,0x0a,0x40,0x6c,0x69,0x73,0x74,0x5b,0x07,0x6f,0x3a,0x15,0x52,0x50,0x47,0x3a,0x3a,0x4d,0x6f,0x76,0x65,0x43,0x6f,0x6d,0x6d,0x61,0x6e,0x64,0x07,0x3a,0x0a,0x40,0x63,0x6f,0x64,0x65,0x69,0x18,0x3a,0x10,0x40,0x70,0x61,0x72,0x61,0x6d,0x65,0x74,0x65,0x72,0x73,0x5b,0x00,0x6f,0x3b,0x0a,0x07,0x3b,0x0b,0x69,0x00,0x3b,0x0c,0x5b,0x00))
   If(1,1022,0,5,2)
    ShowMessageFace("",0,0,2,5)
    ShowMessage("\\n<Royal Guard A>Hey, hold up a minute. At this moment the Queen is meeting an emissary from San Ilia.")
    ShowMessageFace("",0,0,2,6)
    ShowMessage("\\n<Royal Guard B>What's irregular, is that she's not having any fun. They mentioned something about Luddite's Temple Ruins...")
    ShowMessageFace("",0,0,2,7)
    ShowMessage("\\n<Royal Guard A>And so, come at another time. You'll enjoy yourself plenty then...")
    205(-1,bytes(0x04,0x08,0x6f,0x3a,0x13,0x52,0x50,0x47,0x3a,0x3a,0x4d,0x6f,0x76,0x65,0x52,0x6f,0x75,0x74,0x65,0x09,0x3a,0x0c,0x40,0x72,0x65,0x70,0x65,0x61,0x74,0x46,0x3a,0x0f,0x40,0x73,0x6b,0x69,0x70,0x70,0x61,0x62,0x6c,0x65,0x46,0x3a,0x0a,0x40,0x77,0x61,0x69,0x74,0x54,0x3a,0x0a,0x40,0x6c,0x69,0x73,0x74,0x5b,0x07,0x6f,0x3a,0x15,0x52,0x50,0x47,0x3a,0x3a,0x4d,0x6f,0x76,0x65,0x43,0x6f,0x6d,0x6d,0x61,0x6e,0x64,0x07,0x3a,0x0a,0x40,0x63,0x6f,0x64,0x65,0x69,0x06,0x3a,0x10,0x40,0x70,0x61,0x72,0x61,0x6d,0x65,0x74,0x65,0x72,0x73,0x5b,0x00,0x6f,0x3b,0x0a,0x07,0x3b,0x0b,0x69,0x00,0x3b,0x0c,0x5b,0x00))
    ShowMessageFace("",0,0,2,8)
    ShowMessage("Since there was an agent from San Ilia in there, we couldn't afford to make a fuss. Clearly it has something to do with the Ancient Temple's Ruins.")
    EndEventProcessing()
    0()
   EndIf()
   ShowMessageFace("",0,0,2,9)
   ShowMessage("\\n<Royal Guard A>Ahead of here, there's the Queen's room. It would appear that you're bringing your friends with you.")
   ShowMessageFace("ruka_fc1",0,0,2,10)
   ShowMessage("\\n<Luka>Sorry, we'll be passing by force!")
   If(0,6,0)
    ShowMessageFace("sonia_fc1",5,0,2,11)
    ShowMessage("\\n<Sonya>We're returning Queen back to sanity! We'll have to go reckless for a bit!")
    0()
   EndIf()
   ShowMessageFace("",0,0,2,12)
   ShowMessage("\\n<Royal Guard A>Seriously? Why does something as troublesome as this have to happen during my working hours.")
   ShowMessageFace("",0,0,2,13)
   ShowMessage("\\n<Royal Guard B>I would prefer not to have any needless injuries. Hurry up and go through.")
   If(0,4,0)
    ShowMessageFace("alice_fc5",5,0,2,14)
    ShowMessage("\\n<Alice>What a lack of discipline. These guys were always thugs, weren't they?")
    0()
   EndIf()
   If(0,5,0)
    ShowMessageFace("iriasu_fc4",2,0,2,15)
    ShowMessage("\\n<Ilias>What an absence of dicipline. They are clearly no better than thugs.")
    0()
   EndIf()
   ShowMessageFace("ruka_fc1",0,0,2,16)
   ShowMessage("\\n<Luka>All right, let's go!")
   0()
  EndIf()
  281(0)
  250(bytes(0x04,0x08,0x6f,0x3a,0x0c,0x52,0x50,0x47,0x3a,0x3a,0x53,0x45,0x08,0x3a,0x0a,0x40,0x6e,0x61,0x6d,0x65,0x49,0x22,0x09,0x4d,0x6f,0x76,0x65,0x06,0x3a,0x06,0x45,0x54,0x3a,0x0b,0x40,0x70,0x69,0x74,0x63,0x68,0x69,0x69,0x3a,0x0c,0x40,0x76,0x6f,0x6c,0x75,0x6d,0x65,0x69,0x55))
  TeleportPlayer(0,378,31,24,0,0)
  0()
