# -*- encoding: utf-8 -*-
=begin
=ダメージ計算式

=end

#==============================================================================
# ■ NWConst::Parameter
#==============================================================================
module NWConst::Parameter
  # 武器タイプに応じた基礎攻撃力の算出計算式テーブル
  WEAPON_TYPE_DAMAGE = {
  # ID => "算出式(スキル使用者の能力をa.atkやa.defなどで参照可能)"
    1 => "(a.atk + a.luk)",
    2 => "a.atk * 2",
    3 => "a.atk * 2",
    4 => "a.atk * 2.5",
    5 => "(a.atk + a.agi)",
    6 => "(a.atk + a.mat)",
    7 => "(a.atk + a.agi)",
    8 => "(a.atk + a.agi)",
    9 => "(a.atk + a.luk)",
    10 => "(a.atk + a.luk)",
    11 => "(a.atk + a.agi)",
    12 => "a.atk * 2",
    13 => "a.atk * 2",
    14 => "a.atk * 2",
    15 => "a.atk * 2",
    16 => "(a.atk * 3 + a.mat) / 2",
    17 => "(a.atk * 3 + a.mat) / 2",
    18 => "(a.atk + a.luk)",
    19 => "(a.atk + a.luk)",
    20 => "a.luk * 2",
    21 => "(a.atk + a.luk)",
    22 => "a.atk * 2",
    23 => "(a.luk + a.agi)",
    24 => "(a.atk + a.luk)",
    25 => "a.atk * 2",
    26 => "(a.atk + a.luk)",
    27 => "(a.atk + a.luk)",
    28 => "(a.atk + a.luk)",
    29 => "a.atk * 2",
    30 => "a.luk * 2",
    31 => "a.luk * 2",
  # 0番は素手での基礎攻撃力算出式となります。
    0 => "a.atk * 2"
  }
end

#==============================================================================
# ■ NWConst::Map
#==============================================================================
module NWConst::Map
  # エラーチェックを省略したので
  # ダメージ床が存在しない地形タグも全て対応数値を入力してください
  DAMAGE_FLOOR = {
    # 地形タグ  => ダメージ量,
    0           => 2,
    1           => 2,
    2           => 2,
    3           => 2,
    4           => 2,
    5           => 2,
    6           => 2,
    7           => 2,    
  }
end
